G04 #@! TF.GenerationSoftware,KiCad,Pcbnew,(5.1.5)-3*
G04 #@! TF.CreationDate,2021-06-25T20:30:53-04:00*
G04 #@! TF.ProjectId,arduino_edit,61726475-696e-46f5-9f65-6469742e6b69,rev?*
G04 #@! TF.SameCoordinates,Original*
G04 #@! TF.FileFunction,Legend,Bot*
G04 #@! TF.FilePolarity,Positive*
%FSLAX46Y46*%
G04 Gerber Fmt 4.6, Leading zero omitted, Abs format (unit mm)*
G04 Created by KiCad (PCBNEW (5.1.5)-3) date 2021-06-25 20:30:53*
%MOMM*%
%LPD*%
G04 APERTURE LIST*
%ADD10C,0.120000*%
%ADD11C,0.150000*%
G04 APERTURE END LIST*
D10*
X170075000Y-130795000D02*
X176325000Y-130795000D01*
X170075000Y-125745000D02*
X176325000Y-125745000D01*
X170075000Y-125745000D02*
G75*
G03X170075000Y-130795000I0J-2525000D01*
G01*
X176325000Y-125745000D02*
G75*
G02X176325000Y-130795000I0J-2525000D01*
G01*
X172165000Y-150000000D02*
G75*
G03X172165000Y-150000000I-2620000J0D01*
G01*
X170585000Y-150000000D02*
X172125000Y-150000000D01*
X166965000Y-150000000D02*
X168505000Y-150000000D01*
X170585000Y-150040000D02*
X172125000Y-150040000D01*
X166965000Y-150040000D02*
X168505000Y-150040000D01*
X166966000Y-150080000D02*
X168505000Y-150080000D01*
X170585000Y-150080000D02*
X172124000Y-150080000D01*
X166967000Y-150120000D02*
X168505000Y-150120000D01*
X170585000Y-150120000D02*
X172123000Y-150120000D01*
X166969000Y-150160000D02*
X168505000Y-150160000D01*
X170585000Y-150160000D02*
X172121000Y-150160000D01*
X166972000Y-150200000D02*
X168505000Y-150200000D01*
X170585000Y-150200000D02*
X172118000Y-150200000D01*
X166976000Y-150240000D02*
X168505000Y-150240000D01*
X170585000Y-150240000D02*
X172114000Y-150240000D01*
X166980000Y-150280000D02*
X168505000Y-150280000D01*
X170585000Y-150280000D02*
X172110000Y-150280000D01*
X166984000Y-150320000D02*
X168505000Y-150320000D01*
X170585000Y-150320000D02*
X172106000Y-150320000D01*
X166989000Y-150360000D02*
X168505000Y-150360000D01*
X170585000Y-150360000D02*
X172101000Y-150360000D01*
X166995000Y-150400000D02*
X168505000Y-150400000D01*
X170585000Y-150400000D02*
X172095000Y-150400000D01*
X167002000Y-150440000D02*
X168505000Y-150440000D01*
X170585000Y-150440000D02*
X172088000Y-150440000D01*
X167009000Y-150480000D02*
X168505000Y-150480000D01*
X170585000Y-150480000D02*
X172081000Y-150480000D01*
X167017000Y-150520000D02*
X168505000Y-150520000D01*
X170585000Y-150520000D02*
X172073000Y-150520000D01*
X167025000Y-150560000D02*
X168505000Y-150560000D01*
X170585000Y-150560000D02*
X172065000Y-150560000D01*
X167034000Y-150600000D02*
X168505000Y-150600000D01*
X170585000Y-150600000D02*
X172056000Y-150600000D01*
X167044000Y-150640000D02*
X168505000Y-150640000D01*
X170585000Y-150640000D02*
X172046000Y-150640000D01*
X167054000Y-150680000D02*
X168505000Y-150680000D01*
X170585000Y-150680000D02*
X172036000Y-150680000D01*
X167065000Y-150721000D02*
X168505000Y-150721000D01*
X170585000Y-150721000D02*
X172025000Y-150721000D01*
X167077000Y-150761000D02*
X168505000Y-150761000D01*
X170585000Y-150761000D02*
X172013000Y-150761000D01*
X167090000Y-150801000D02*
X168505000Y-150801000D01*
X170585000Y-150801000D02*
X172000000Y-150801000D01*
X167103000Y-150841000D02*
X168505000Y-150841000D01*
X170585000Y-150841000D02*
X171987000Y-150841000D01*
X167117000Y-150881000D02*
X168505000Y-150881000D01*
X170585000Y-150881000D02*
X171973000Y-150881000D01*
X167131000Y-150921000D02*
X168505000Y-150921000D01*
X170585000Y-150921000D02*
X171959000Y-150921000D01*
X167147000Y-150961000D02*
X168505000Y-150961000D01*
X170585000Y-150961000D02*
X171943000Y-150961000D01*
X167163000Y-151001000D02*
X168505000Y-151001000D01*
X170585000Y-151001000D02*
X171927000Y-151001000D01*
X167180000Y-151041000D02*
X168505000Y-151041000D01*
X170585000Y-151041000D02*
X171910000Y-151041000D01*
X167197000Y-151081000D02*
X168505000Y-151081000D01*
X170585000Y-151081000D02*
X171893000Y-151081000D01*
X167216000Y-151121000D02*
X168505000Y-151121000D01*
X170585000Y-151121000D02*
X171874000Y-151121000D01*
X167235000Y-151161000D02*
X168505000Y-151161000D01*
X170585000Y-151161000D02*
X171855000Y-151161000D01*
X167255000Y-151201000D02*
X168505000Y-151201000D01*
X170585000Y-151201000D02*
X171835000Y-151201000D01*
X167277000Y-151241000D02*
X168505000Y-151241000D01*
X170585000Y-151241000D02*
X171813000Y-151241000D01*
X167298000Y-151281000D02*
X168505000Y-151281000D01*
X170585000Y-151281000D02*
X171792000Y-151281000D01*
X167321000Y-151321000D02*
X168505000Y-151321000D01*
X170585000Y-151321000D02*
X171769000Y-151321000D01*
X167345000Y-151361000D02*
X168505000Y-151361000D01*
X170585000Y-151361000D02*
X171745000Y-151361000D01*
X167370000Y-151401000D02*
X168505000Y-151401000D01*
X170585000Y-151401000D02*
X171720000Y-151401000D01*
X167396000Y-151441000D02*
X168505000Y-151441000D01*
X170585000Y-151441000D02*
X171694000Y-151441000D01*
X167423000Y-151481000D02*
X168505000Y-151481000D01*
X170585000Y-151481000D02*
X171667000Y-151481000D01*
X167450000Y-151521000D02*
X168505000Y-151521000D01*
X170585000Y-151521000D02*
X171640000Y-151521000D01*
X167480000Y-151561000D02*
X168505000Y-151561000D01*
X170585000Y-151561000D02*
X171610000Y-151561000D01*
X167510000Y-151601000D02*
X168505000Y-151601000D01*
X170585000Y-151601000D02*
X171580000Y-151601000D01*
X167541000Y-151641000D02*
X168505000Y-151641000D01*
X170585000Y-151641000D02*
X171549000Y-151641000D01*
X167574000Y-151681000D02*
X168505000Y-151681000D01*
X170585000Y-151681000D02*
X171516000Y-151681000D01*
X167608000Y-151721000D02*
X168505000Y-151721000D01*
X170585000Y-151721000D02*
X171482000Y-151721000D01*
X167644000Y-151761000D02*
X168505000Y-151761000D01*
X170585000Y-151761000D02*
X171446000Y-151761000D01*
X167681000Y-151801000D02*
X168505000Y-151801000D01*
X170585000Y-151801000D02*
X171409000Y-151801000D01*
X167719000Y-151841000D02*
X168505000Y-151841000D01*
X170585000Y-151841000D02*
X171371000Y-151841000D01*
X167760000Y-151881000D02*
X168505000Y-151881000D01*
X170585000Y-151881000D02*
X171330000Y-151881000D01*
X167802000Y-151921000D02*
X168505000Y-151921000D01*
X170585000Y-151921000D02*
X171288000Y-151921000D01*
X167846000Y-151961000D02*
X168505000Y-151961000D01*
X170585000Y-151961000D02*
X171244000Y-151961000D01*
X167892000Y-152001000D02*
X168505000Y-152001000D01*
X170585000Y-152001000D02*
X171198000Y-152001000D01*
X167940000Y-152041000D02*
X171150000Y-152041000D01*
X167991000Y-152081000D02*
X171099000Y-152081000D01*
X168045000Y-152121000D02*
X171045000Y-152121000D01*
X168102000Y-152161000D02*
X170988000Y-152161000D01*
X168162000Y-152201000D02*
X170928000Y-152201000D01*
X168226000Y-152241000D02*
X170864000Y-152241000D01*
X168294000Y-152281000D02*
X170796000Y-152281000D01*
X168367000Y-152321000D02*
X170723000Y-152321000D01*
X168447000Y-152361000D02*
X170643000Y-152361000D01*
X168534000Y-152401000D02*
X170556000Y-152401000D01*
X168630000Y-152441000D02*
X170460000Y-152441000D01*
X168740000Y-152481000D02*
X170350000Y-152481000D01*
X168868000Y-152521000D02*
X170222000Y-152521000D01*
X169027000Y-152561000D02*
X170063000Y-152561000D01*
X169261000Y-152601000D02*
X169829000Y-152601000D01*
X168070000Y-147195225D02*
X168070000Y-147695225D01*
X167820000Y-147445225D02*
X168320000Y-147445225D01*
X175440000Y-147445225D02*
X175940000Y-147445225D01*
X175690000Y-147195225D02*
X175690000Y-147695225D01*
X176881000Y-152601000D02*
X177449000Y-152601000D01*
X176647000Y-152561000D02*
X177683000Y-152561000D01*
X176488000Y-152521000D02*
X177842000Y-152521000D01*
X176360000Y-152481000D02*
X177970000Y-152481000D01*
X176250000Y-152441000D02*
X178080000Y-152441000D01*
X176154000Y-152401000D02*
X178176000Y-152401000D01*
X176067000Y-152361000D02*
X178263000Y-152361000D01*
X175987000Y-152321000D02*
X178343000Y-152321000D01*
X175914000Y-152281000D02*
X178416000Y-152281000D01*
X175846000Y-152241000D02*
X178484000Y-152241000D01*
X175782000Y-152201000D02*
X178548000Y-152201000D01*
X175722000Y-152161000D02*
X178608000Y-152161000D01*
X175665000Y-152121000D02*
X178665000Y-152121000D01*
X175611000Y-152081000D02*
X178719000Y-152081000D01*
X175560000Y-152041000D02*
X178770000Y-152041000D01*
X178205000Y-152001000D02*
X178818000Y-152001000D01*
X175512000Y-152001000D02*
X176125000Y-152001000D01*
X178205000Y-151961000D02*
X178864000Y-151961000D01*
X175466000Y-151961000D02*
X176125000Y-151961000D01*
X178205000Y-151921000D02*
X178908000Y-151921000D01*
X175422000Y-151921000D02*
X176125000Y-151921000D01*
X178205000Y-151881000D02*
X178950000Y-151881000D01*
X175380000Y-151881000D02*
X176125000Y-151881000D01*
X178205000Y-151841000D02*
X178991000Y-151841000D01*
X175339000Y-151841000D02*
X176125000Y-151841000D01*
X178205000Y-151801000D02*
X179029000Y-151801000D01*
X175301000Y-151801000D02*
X176125000Y-151801000D01*
X178205000Y-151761000D02*
X179066000Y-151761000D01*
X175264000Y-151761000D02*
X176125000Y-151761000D01*
X178205000Y-151721000D02*
X179102000Y-151721000D01*
X175228000Y-151721000D02*
X176125000Y-151721000D01*
X178205000Y-151681000D02*
X179136000Y-151681000D01*
X175194000Y-151681000D02*
X176125000Y-151681000D01*
X178205000Y-151641000D02*
X179169000Y-151641000D01*
X175161000Y-151641000D02*
X176125000Y-151641000D01*
X178205000Y-151601000D02*
X179200000Y-151601000D01*
X175130000Y-151601000D02*
X176125000Y-151601000D01*
X178205000Y-151561000D02*
X179230000Y-151561000D01*
X175100000Y-151561000D02*
X176125000Y-151561000D01*
X178205000Y-151521000D02*
X179260000Y-151521000D01*
X175070000Y-151521000D02*
X176125000Y-151521000D01*
X178205000Y-151481000D02*
X179287000Y-151481000D01*
X175043000Y-151481000D02*
X176125000Y-151481000D01*
X178205000Y-151441000D02*
X179314000Y-151441000D01*
X175016000Y-151441000D02*
X176125000Y-151441000D01*
X178205000Y-151401000D02*
X179340000Y-151401000D01*
X174990000Y-151401000D02*
X176125000Y-151401000D01*
X178205000Y-151361000D02*
X179365000Y-151361000D01*
X174965000Y-151361000D02*
X176125000Y-151361000D01*
X178205000Y-151321000D02*
X179389000Y-151321000D01*
X174941000Y-151321000D02*
X176125000Y-151321000D01*
X178205000Y-151281000D02*
X179412000Y-151281000D01*
X174918000Y-151281000D02*
X176125000Y-151281000D01*
X178205000Y-151241000D02*
X179433000Y-151241000D01*
X174897000Y-151241000D02*
X176125000Y-151241000D01*
X178205000Y-151201000D02*
X179455000Y-151201000D01*
X174875000Y-151201000D02*
X176125000Y-151201000D01*
X178205000Y-151161000D02*
X179475000Y-151161000D01*
X174855000Y-151161000D02*
X176125000Y-151161000D01*
X178205000Y-151121000D02*
X179494000Y-151121000D01*
X174836000Y-151121000D02*
X176125000Y-151121000D01*
X178205000Y-151081000D02*
X179513000Y-151081000D01*
X174817000Y-151081000D02*
X176125000Y-151081000D01*
X178205000Y-151041000D02*
X179530000Y-151041000D01*
X174800000Y-151041000D02*
X176125000Y-151041000D01*
X178205000Y-151001000D02*
X179547000Y-151001000D01*
X174783000Y-151001000D02*
X176125000Y-151001000D01*
X178205000Y-150961000D02*
X179563000Y-150961000D01*
X174767000Y-150961000D02*
X176125000Y-150961000D01*
X178205000Y-150921000D02*
X179579000Y-150921000D01*
X174751000Y-150921000D02*
X176125000Y-150921000D01*
X178205000Y-150881000D02*
X179593000Y-150881000D01*
X174737000Y-150881000D02*
X176125000Y-150881000D01*
X178205000Y-150841000D02*
X179607000Y-150841000D01*
X174723000Y-150841000D02*
X176125000Y-150841000D01*
X178205000Y-150801000D02*
X179620000Y-150801000D01*
X174710000Y-150801000D02*
X176125000Y-150801000D01*
X178205000Y-150761000D02*
X179633000Y-150761000D01*
X174697000Y-150761000D02*
X176125000Y-150761000D01*
X178205000Y-150721000D02*
X179645000Y-150721000D01*
X174685000Y-150721000D02*
X176125000Y-150721000D01*
X178205000Y-150680000D02*
X179656000Y-150680000D01*
X174674000Y-150680000D02*
X176125000Y-150680000D01*
X178205000Y-150640000D02*
X179666000Y-150640000D01*
X174664000Y-150640000D02*
X176125000Y-150640000D01*
X178205000Y-150600000D02*
X179676000Y-150600000D01*
X174654000Y-150600000D02*
X176125000Y-150600000D01*
X178205000Y-150560000D02*
X179685000Y-150560000D01*
X174645000Y-150560000D02*
X176125000Y-150560000D01*
X178205000Y-150520000D02*
X179693000Y-150520000D01*
X174637000Y-150520000D02*
X176125000Y-150520000D01*
X178205000Y-150480000D02*
X179701000Y-150480000D01*
X174629000Y-150480000D02*
X176125000Y-150480000D01*
X178205000Y-150440000D02*
X179708000Y-150440000D01*
X174622000Y-150440000D02*
X176125000Y-150440000D01*
X178205000Y-150400000D02*
X179715000Y-150400000D01*
X174615000Y-150400000D02*
X176125000Y-150400000D01*
X178205000Y-150360000D02*
X179721000Y-150360000D01*
X174609000Y-150360000D02*
X176125000Y-150360000D01*
X178205000Y-150320000D02*
X179726000Y-150320000D01*
X174604000Y-150320000D02*
X176125000Y-150320000D01*
X178205000Y-150280000D02*
X179730000Y-150280000D01*
X174600000Y-150280000D02*
X176125000Y-150280000D01*
X178205000Y-150240000D02*
X179734000Y-150240000D01*
X174596000Y-150240000D02*
X176125000Y-150240000D01*
X178205000Y-150200000D02*
X179738000Y-150200000D01*
X174592000Y-150200000D02*
X176125000Y-150200000D01*
X178205000Y-150160000D02*
X179741000Y-150160000D01*
X174589000Y-150160000D02*
X176125000Y-150160000D01*
X178205000Y-150120000D02*
X179743000Y-150120000D01*
X174587000Y-150120000D02*
X176125000Y-150120000D01*
X178205000Y-150080000D02*
X179744000Y-150080000D01*
X174586000Y-150080000D02*
X176125000Y-150080000D01*
X174585000Y-150040000D02*
X176125000Y-150040000D01*
X178205000Y-150040000D02*
X179745000Y-150040000D01*
X174585000Y-150000000D02*
X176125000Y-150000000D01*
X178205000Y-150000000D02*
X179745000Y-150000000D01*
X179785000Y-150000000D02*
G75*
G03X179785000Y-150000000I-2620000J0D01*
G01*
X149620000Y-150000000D02*
G75*
G03X149620000Y-150000000I-2620000J0D01*
G01*
X148040000Y-150000000D02*
X149580000Y-150000000D01*
X144420000Y-150000000D02*
X145960000Y-150000000D01*
X148040000Y-150040000D02*
X149580000Y-150040000D01*
X144420000Y-150040000D02*
X145960000Y-150040000D01*
X144421000Y-150080000D02*
X145960000Y-150080000D01*
X148040000Y-150080000D02*
X149579000Y-150080000D01*
X144422000Y-150120000D02*
X145960000Y-150120000D01*
X148040000Y-150120000D02*
X149578000Y-150120000D01*
X144424000Y-150160000D02*
X145960000Y-150160000D01*
X148040000Y-150160000D02*
X149576000Y-150160000D01*
X144427000Y-150200000D02*
X145960000Y-150200000D01*
X148040000Y-150200000D02*
X149573000Y-150200000D01*
X144431000Y-150240000D02*
X145960000Y-150240000D01*
X148040000Y-150240000D02*
X149569000Y-150240000D01*
X144435000Y-150280000D02*
X145960000Y-150280000D01*
X148040000Y-150280000D02*
X149565000Y-150280000D01*
X144439000Y-150320000D02*
X145960000Y-150320000D01*
X148040000Y-150320000D02*
X149561000Y-150320000D01*
X144444000Y-150360000D02*
X145960000Y-150360000D01*
X148040000Y-150360000D02*
X149556000Y-150360000D01*
X144450000Y-150400000D02*
X145960000Y-150400000D01*
X148040000Y-150400000D02*
X149550000Y-150400000D01*
X144457000Y-150440000D02*
X145960000Y-150440000D01*
X148040000Y-150440000D02*
X149543000Y-150440000D01*
X144464000Y-150480000D02*
X145960000Y-150480000D01*
X148040000Y-150480000D02*
X149536000Y-150480000D01*
X144472000Y-150520000D02*
X145960000Y-150520000D01*
X148040000Y-150520000D02*
X149528000Y-150520000D01*
X144480000Y-150560000D02*
X145960000Y-150560000D01*
X148040000Y-150560000D02*
X149520000Y-150560000D01*
X144489000Y-150600000D02*
X145960000Y-150600000D01*
X148040000Y-150600000D02*
X149511000Y-150600000D01*
X144499000Y-150640000D02*
X145960000Y-150640000D01*
X148040000Y-150640000D02*
X149501000Y-150640000D01*
X144509000Y-150680000D02*
X145960000Y-150680000D01*
X148040000Y-150680000D02*
X149491000Y-150680000D01*
X144520000Y-150721000D02*
X145960000Y-150721000D01*
X148040000Y-150721000D02*
X149480000Y-150721000D01*
X144532000Y-150761000D02*
X145960000Y-150761000D01*
X148040000Y-150761000D02*
X149468000Y-150761000D01*
X144545000Y-150801000D02*
X145960000Y-150801000D01*
X148040000Y-150801000D02*
X149455000Y-150801000D01*
X144558000Y-150841000D02*
X145960000Y-150841000D01*
X148040000Y-150841000D02*
X149442000Y-150841000D01*
X144572000Y-150881000D02*
X145960000Y-150881000D01*
X148040000Y-150881000D02*
X149428000Y-150881000D01*
X144586000Y-150921000D02*
X145960000Y-150921000D01*
X148040000Y-150921000D02*
X149414000Y-150921000D01*
X144602000Y-150961000D02*
X145960000Y-150961000D01*
X148040000Y-150961000D02*
X149398000Y-150961000D01*
X144618000Y-151001000D02*
X145960000Y-151001000D01*
X148040000Y-151001000D02*
X149382000Y-151001000D01*
X144635000Y-151041000D02*
X145960000Y-151041000D01*
X148040000Y-151041000D02*
X149365000Y-151041000D01*
X144652000Y-151081000D02*
X145960000Y-151081000D01*
X148040000Y-151081000D02*
X149348000Y-151081000D01*
X144671000Y-151121000D02*
X145960000Y-151121000D01*
X148040000Y-151121000D02*
X149329000Y-151121000D01*
X144690000Y-151161000D02*
X145960000Y-151161000D01*
X148040000Y-151161000D02*
X149310000Y-151161000D01*
X144710000Y-151201000D02*
X145960000Y-151201000D01*
X148040000Y-151201000D02*
X149290000Y-151201000D01*
X144732000Y-151241000D02*
X145960000Y-151241000D01*
X148040000Y-151241000D02*
X149268000Y-151241000D01*
X144753000Y-151281000D02*
X145960000Y-151281000D01*
X148040000Y-151281000D02*
X149247000Y-151281000D01*
X144776000Y-151321000D02*
X145960000Y-151321000D01*
X148040000Y-151321000D02*
X149224000Y-151321000D01*
X144800000Y-151361000D02*
X145960000Y-151361000D01*
X148040000Y-151361000D02*
X149200000Y-151361000D01*
X144825000Y-151401000D02*
X145960000Y-151401000D01*
X148040000Y-151401000D02*
X149175000Y-151401000D01*
X144851000Y-151441000D02*
X145960000Y-151441000D01*
X148040000Y-151441000D02*
X149149000Y-151441000D01*
X144878000Y-151481000D02*
X145960000Y-151481000D01*
X148040000Y-151481000D02*
X149122000Y-151481000D01*
X144905000Y-151521000D02*
X145960000Y-151521000D01*
X148040000Y-151521000D02*
X149095000Y-151521000D01*
X144935000Y-151561000D02*
X145960000Y-151561000D01*
X148040000Y-151561000D02*
X149065000Y-151561000D01*
X144965000Y-151601000D02*
X145960000Y-151601000D01*
X148040000Y-151601000D02*
X149035000Y-151601000D01*
X144996000Y-151641000D02*
X145960000Y-151641000D01*
X148040000Y-151641000D02*
X149004000Y-151641000D01*
X145029000Y-151681000D02*
X145960000Y-151681000D01*
X148040000Y-151681000D02*
X148971000Y-151681000D01*
X145063000Y-151721000D02*
X145960000Y-151721000D01*
X148040000Y-151721000D02*
X148937000Y-151721000D01*
X145099000Y-151761000D02*
X145960000Y-151761000D01*
X148040000Y-151761000D02*
X148901000Y-151761000D01*
X145136000Y-151801000D02*
X145960000Y-151801000D01*
X148040000Y-151801000D02*
X148864000Y-151801000D01*
X145174000Y-151841000D02*
X145960000Y-151841000D01*
X148040000Y-151841000D02*
X148826000Y-151841000D01*
X145215000Y-151881000D02*
X145960000Y-151881000D01*
X148040000Y-151881000D02*
X148785000Y-151881000D01*
X145257000Y-151921000D02*
X145960000Y-151921000D01*
X148040000Y-151921000D02*
X148743000Y-151921000D01*
X145301000Y-151961000D02*
X145960000Y-151961000D01*
X148040000Y-151961000D02*
X148699000Y-151961000D01*
X145347000Y-152001000D02*
X145960000Y-152001000D01*
X148040000Y-152001000D02*
X148653000Y-152001000D01*
X145395000Y-152041000D02*
X148605000Y-152041000D01*
X145446000Y-152081000D02*
X148554000Y-152081000D01*
X145500000Y-152121000D02*
X148500000Y-152121000D01*
X145557000Y-152161000D02*
X148443000Y-152161000D01*
X145617000Y-152201000D02*
X148383000Y-152201000D01*
X145681000Y-152241000D02*
X148319000Y-152241000D01*
X145749000Y-152281000D02*
X148251000Y-152281000D01*
X145822000Y-152321000D02*
X148178000Y-152321000D01*
X145902000Y-152361000D02*
X148098000Y-152361000D01*
X145989000Y-152401000D02*
X148011000Y-152401000D01*
X146085000Y-152441000D02*
X147915000Y-152441000D01*
X146195000Y-152481000D02*
X147805000Y-152481000D01*
X146323000Y-152521000D02*
X147677000Y-152521000D01*
X146482000Y-152561000D02*
X147518000Y-152561000D01*
X146716000Y-152601000D02*
X147284000Y-152601000D01*
X145525000Y-147195225D02*
X145525000Y-147695225D01*
X145275000Y-147445225D02*
X145775000Y-147445225D01*
X152580000Y-147445225D02*
X153080000Y-147445225D01*
X152830000Y-147195225D02*
X152830000Y-147695225D01*
X154021000Y-152601000D02*
X154589000Y-152601000D01*
X153787000Y-152561000D02*
X154823000Y-152561000D01*
X153628000Y-152521000D02*
X154982000Y-152521000D01*
X153500000Y-152481000D02*
X155110000Y-152481000D01*
X153390000Y-152441000D02*
X155220000Y-152441000D01*
X153294000Y-152401000D02*
X155316000Y-152401000D01*
X153207000Y-152361000D02*
X155403000Y-152361000D01*
X153127000Y-152321000D02*
X155483000Y-152321000D01*
X153054000Y-152281000D02*
X155556000Y-152281000D01*
X152986000Y-152241000D02*
X155624000Y-152241000D01*
X152922000Y-152201000D02*
X155688000Y-152201000D01*
X152862000Y-152161000D02*
X155748000Y-152161000D01*
X152805000Y-152121000D02*
X155805000Y-152121000D01*
X152751000Y-152081000D02*
X155859000Y-152081000D01*
X152700000Y-152041000D02*
X155910000Y-152041000D01*
X155345000Y-152001000D02*
X155958000Y-152001000D01*
X152652000Y-152001000D02*
X153265000Y-152001000D01*
X155345000Y-151961000D02*
X156004000Y-151961000D01*
X152606000Y-151961000D02*
X153265000Y-151961000D01*
X155345000Y-151921000D02*
X156048000Y-151921000D01*
X152562000Y-151921000D02*
X153265000Y-151921000D01*
X155345000Y-151881000D02*
X156090000Y-151881000D01*
X152520000Y-151881000D02*
X153265000Y-151881000D01*
X155345000Y-151841000D02*
X156131000Y-151841000D01*
X152479000Y-151841000D02*
X153265000Y-151841000D01*
X155345000Y-151801000D02*
X156169000Y-151801000D01*
X152441000Y-151801000D02*
X153265000Y-151801000D01*
X155345000Y-151761000D02*
X156206000Y-151761000D01*
X152404000Y-151761000D02*
X153265000Y-151761000D01*
X155345000Y-151721000D02*
X156242000Y-151721000D01*
X152368000Y-151721000D02*
X153265000Y-151721000D01*
X155345000Y-151681000D02*
X156276000Y-151681000D01*
X152334000Y-151681000D02*
X153265000Y-151681000D01*
X155345000Y-151641000D02*
X156309000Y-151641000D01*
X152301000Y-151641000D02*
X153265000Y-151641000D01*
X155345000Y-151601000D02*
X156340000Y-151601000D01*
X152270000Y-151601000D02*
X153265000Y-151601000D01*
X155345000Y-151561000D02*
X156370000Y-151561000D01*
X152240000Y-151561000D02*
X153265000Y-151561000D01*
X155345000Y-151521000D02*
X156400000Y-151521000D01*
X152210000Y-151521000D02*
X153265000Y-151521000D01*
X155345000Y-151481000D02*
X156427000Y-151481000D01*
X152183000Y-151481000D02*
X153265000Y-151481000D01*
X155345000Y-151441000D02*
X156454000Y-151441000D01*
X152156000Y-151441000D02*
X153265000Y-151441000D01*
X155345000Y-151401000D02*
X156480000Y-151401000D01*
X152130000Y-151401000D02*
X153265000Y-151401000D01*
X155345000Y-151361000D02*
X156505000Y-151361000D01*
X152105000Y-151361000D02*
X153265000Y-151361000D01*
X155345000Y-151321000D02*
X156529000Y-151321000D01*
X152081000Y-151321000D02*
X153265000Y-151321000D01*
X155345000Y-151281000D02*
X156552000Y-151281000D01*
X152058000Y-151281000D02*
X153265000Y-151281000D01*
X155345000Y-151241000D02*
X156573000Y-151241000D01*
X152037000Y-151241000D02*
X153265000Y-151241000D01*
X155345000Y-151201000D02*
X156595000Y-151201000D01*
X152015000Y-151201000D02*
X153265000Y-151201000D01*
X155345000Y-151161000D02*
X156615000Y-151161000D01*
X151995000Y-151161000D02*
X153265000Y-151161000D01*
X155345000Y-151121000D02*
X156634000Y-151121000D01*
X151976000Y-151121000D02*
X153265000Y-151121000D01*
X155345000Y-151081000D02*
X156653000Y-151081000D01*
X151957000Y-151081000D02*
X153265000Y-151081000D01*
X155345000Y-151041000D02*
X156670000Y-151041000D01*
X151940000Y-151041000D02*
X153265000Y-151041000D01*
X155345000Y-151001000D02*
X156687000Y-151001000D01*
X151923000Y-151001000D02*
X153265000Y-151001000D01*
X155345000Y-150961000D02*
X156703000Y-150961000D01*
X151907000Y-150961000D02*
X153265000Y-150961000D01*
X155345000Y-150921000D02*
X156719000Y-150921000D01*
X151891000Y-150921000D02*
X153265000Y-150921000D01*
X155345000Y-150881000D02*
X156733000Y-150881000D01*
X151877000Y-150881000D02*
X153265000Y-150881000D01*
X155345000Y-150841000D02*
X156747000Y-150841000D01*
X151863000Y-150841000D02*
X153265000Y-150841000D01*
X155345000Y-150801000D02*
X156760000Y-150801000D01*
X151850000Y-150801000D02*
X153265000Y-150801000D01*
X155345000Y-150761000D02*
X156773000Y-150761000D01*
X151837000Y-150761000D02*
X153265000Y-150761000D01*
X155345000Y-150721000D02*
X156785000Y-150721000D01*
X151825000Y-150721000D02*
X153265000Y-150721000D01*
X155345000Y-150680000D02*
X156796000Y-150680000D01*
X151814000Y-150680000D02*
X153265000Y-150680000D01*
X155345000Y-150640000D02*
X156806000Y-150640000D01*
X151804000Y-150640000D02*
X153265000Y-150640000D01*
X155345000Y-150600000D02*
X156816000Y-150600000D01*
X151794000Y-150600000D02*
X153265000Y-150600000D01*
X155345000Y-150560000D02*
X156825000Y-150560000D01*
X151785000Y-150560000D02*
X153265000Y-150560000D01*
X155345000Y-150520000D02*
X156833000Y-150520000D01*
X151777000Y-150520000D02*
X153265000Y-150520000D01*
X155345000Y-150480000D02*
X156841000Y-150480000D01*
X151769000Y-150480000D02*
X153265000Y-150480000D01*
X155345000Y-150440000D02*
X156848000Y-150440000D01*
X151762000Y-150440000D02*
X153265000Y-150440000D01*
X155345000Y-150400000D02*
X156855000Y-150400000D01*
X151755000Y-150400000D02*
X153265000Y-150400000D01*
X155345000Y-150360000D02*
X156861000Y-150360000D01*
X151749000Y-150360000D02*
X153265000Y-150360000D01*
X155345000Y-150320000D02*
X156866000Y-150320000D01*
X151744000Y-150320000D02*
X153265000Y-150320000D01*
X155345000Y-150280000D02*
X156870000Y-150280000D01*
X151740000Y-150280000D02*
X153265000Y-150280000D01*
X155345000Y-150240000D02*
X156874000Y-150240000D01*
X151736000Y-150240000D02*
X153265000Y-150240000D01*
X155345000Y-150200000D02*
X156878000Y-150200000D01*
X151732000Y-150200000D02*
X153265000Y-150200000D01*
X155345000Y-150160000D02*
X156881000Y-150160000D01*
X151729000Y-150160000D02*
X153265000Y-150160000D01*
X155345000Y-150120000D02*
X156883000Y-150120000D01*
X151727000Y-150120000D02*
X153265000Y-150120000D01*
X155345000Y-150080000D02*
X156884000Y-150080000D01*
X151726000Y-150080000D02*
X153265000Y-150080000D01*
X151725000Y-150040000D02*
X153265000Y-150040000D01*
X155345000Y-150040000D02*
X156885000Y-150040000D01*
X151725000Y-150000000D02*
X153265000Y-150000000D01*
X155345000Y-150000000D02*
X156885000Y-150000000D01*
X156925000Y-150000000D02*
G75*
G03X156925000Y-150000000I-2620000J0D01*
G01*
X164545000Y-150000000D02*
G75*
G03X164545000Y-150000000I-2620000J0D01*
G01*
X162965000Y-150000000D02*
X164505000Y-150000000D01*
X159345000Y-150000000D02*
X160885000Y-150000000D01*
X162965000Y-150040000D02*
X164505000Y-150040000D01*
X159345000Y-150040000D02*
X160885000Y-150040000D01*
X159346000Y-150080000D02*
X160885000Y-150080000D01*
X162965000Y-150080000D02*
X164504000Y-150080000D01*
X159347000Y-150120000D02*
X160885000Y-150120000D01*
X162965000Y-150120000D02*
X164503000Y-150120000D01*
X159349000Y-150160000D02*
X160885000Y-150160000D01*
X162965000Y-150160000D02*
X164501000Y-150160000D01*
X159352000Y-150200000D02*
X160885000Y-150200000D01*
X162965000Y-150200000D02*
X164498000Y-150200000D01*
X159356000Y-150240000D02*
X160885000Y-150240000D01*
X162965000Y-150240000D02*
X164494000Y-150240000D01*
X159360000Y-150280000D02*
X160885000Y-150280000D01*
X162965000Y-150280000D02*
X164490000Y-150280000D01*
X159364000Y-150320000D02*
X160885000Y-150320000D01*
X162965000Y-150320000D02*
X164486000Y-150320000D01*
X159369000Y-150360000D02*
X160885000Y-150360000D01*
X162965000Y-150360000D02*
X164481000Y-150360000D01*
X159375000Y-150400000D02*
X160885000Y-150400000D01*
X162965000Y-150400000D02*
X164475000Y-150400000D01*
X159382000Y-150440000D02*
X160885000Y-150440000D01*
X162965000Y-150440000D02*
X164468000Y-150440000D01*
X159389000Y-150480000D02*
X160885000Y-150480000D01*
X162965000Y-150480000D02*
X164461000Y-150480000D01*
X159397000Y-150520000D02*
X160885000Y-150520000D01*
X162965000Y-150520000D02*
X164453000Y-150520000D01*
X159405000Y-150560000D02*
X160885000Y-150560000D01*
X162965000Y-150560000D02*
X164445000Y-150560000D01*
X159414000Y-150600000D02*
X160885000Y-150600000D01*
X162965000Y-150600000D02*
X164436000Y-150600000D01*
X159424000Y-150640000D02*
X160885000Y-150640000D01*
X162965000Y-150640000D02*
X164426000Y-150640000D01*
X159434000Y-150680000D02*
X160885000Y-150680000D01*
X162965000Y-150680000D02*
X164416000Y-150680000D01*
X159445000Y-150721000D02*
X160885000Y-150721000D01*
X162965000Y-150721000D02*
X164405000Y-150721000D01*
X159457000Y-150761000D02*
X160885000Y-150761000D01*
X162965000Y-150761000D02*
X164393000Y-150761000D01*
X159470000Y-150801000D02*
X160885000Y-150801000D01*
X162965000Y-150801000D02*
X164380000Y-150801000D01*
X159483000Y-150841000D02*
X160885000Y-150841000D01*
X162965000Y-150841000D02*
X164367000Y-150841000D01*
X159497000Y-150881000D02*
X160885000Y-150881000D01*
X162965000Y-150881000D02*
X164353000Y-150881000D01*
X159511000Y-150921000D02*
X160885000Y-150921000D01*
X162965000Y-150921000D02*
X164339000Y-150921000D01*
X159527000Y-150961000D02*
X160885000Y-150961000D01*
X162965000Y-150961000D02*
X164323000Y-150961000D01*
X159543000Y-151001000D02*
X160885000Y-151001000D01*
X162965000Y-151001000D02*
X164307000Y-151001000D01*
X159560000Y-151041000D02*
X160885000Y-151041000D01*
X162965000Y-151041000D02*
X164290000Y-151041000D01*
X159577000Y-151081000D02*
X160885000Y-151081000D01*
X162965000Y-151081000D02*
X164273000Y-151081000D01*
X159596000Y-151121000D02*
X160885000Y-151121000D01*
X162965000Y-151121000D02*
X164254000Y-151121000D01*
X159615000Y-151161000D02*
X160885000Y-151161000D01*
X162965000Y-151161000D02*
X164235000Y-151161000D01*
X159635000Y-151201000D02*
X160885000Y-151201000D01*
X162965000Y-151201000D02*
X164215000Y-151201000D01*
X159657000Y-151241000D02*
X160885000Y-151241000D01*
X162965000Y-151241000D02*
X164193000Y-151241000D01*
X159678000Y-151281000D02*
X160885000Y-151281000D01*
X162965000Y-151281000D02*
X164172000Y-151281000D01*
X159701000Y-151321000D02*
X160885000Y-151321000D01*
X162965000Y-151321000D02*
X164149000Y-151321000D01*
X159725000Y-151361000D02*
X160885000Y-151361000D01*
X162965000Y-151361000D02*
X164125000Y-151361000D01*
X159750000Y-151401000D02*
X160885000Y-151401000D01*
X162965000Y-151401000D02*
X164100000Y-151401000D01*
X159776000Y-151441000D02*
X160885000Y-151441000D01*
X162965000Y-151441000D02*
X164074000Y-151441000D01*
X159803000Y-151481000D02*
X160885000Y-151481000D01*
X162965000Y-151481000D02*
X164047000Y-151481000D01*
X159830000Y-151521000D02*
X160885000Y-151521000D01*
X162965000Y-151521000D02*
X164020000Y-151521000D01*
X159860000Y-151561000D02*
X160885000Y-151561000D01*
X162965000Y-151561000D02*
X163990000Y-151561000D01*
X159890000Y-151601000D02*
X160885000Y-151601000D01*
X162965000Y-151601000D02*
X163960000Y-151601000D01*
X159921000Y-151641000D02*
X160885000Y-151641000D01*
X162965000Y-151641000D02*
X163929000Y-151641000D01*
X159954000Y-151681000D02*
X160885000Y-151681000D01*
X162965000Y-151681000D02*
X163896000Y-151681000D01*
X159988000Y-151721000D02*
X160885000Y-151721000D01*
X162965000Y-151721000D02*
X163862000Y-151721000D01*
X160024000Y-151761000D02*
X160885000Y-151761000D01*
X162965000Y-151761000D02*
X163826000Y-151761000D01*
X160061000Y-151801000D02*
X160885000Y-151801000D01*
X162965000Y-151801000D02*
X163789000Y-151801000D01*
X160099000Y-151841000D02*
X160885000Y-151841000D01*
X162965000Y-151841000D02*
X163751000Y-151841000D01*
X160140000Y-151881000D02*
X160885000Y-151881000D01*
X162965000Y-151881000D02*
X163710000Y-151881000D01*
X160182000Y-151921000D02*
X160885000Y-151921000D01*
X162965000Y-151921000D02*
X163668000Y-151921000D01*
X160226000Y-151961000D02*
X160885000Y-151961000D01*
X162965000Y-151961000D02*
X163624000Y-151961000D01*
X160272000Y-152001000D02*
X160885000Y-152001000D01*
X162965000Y-152001000D02*
X163578000Y-152001000D01*
X160320000Y-152041000D02*
X163530000Y-152041000D01*
X160371000Y-152081000D02*
X163479000Y-152081000D01*
X160425000Y-152121000D02*
X163425000Y-152121000D01*
X160482000Y-152161000D02*
X163368000Y-152161000D01*
X160542000Y-152201000D02*
X163308000Y-152201000D01*
X160606000Y-152241000D02*
X163244000Y-152241000D01*
X160674000Y-152281000D02*
X163176000Y-152281000D01*
X160747000Y-152321000D02*
X163103000Y-152321000D01*
X160827000Y-152361000D02*
X163023000Y-152361000D01*
X160914000Y-152401000D02*
X162936000Y-152401000D01*
X161010000Y-152441000D02*
X162840000Y-152441000D01*
X161120000Y-152481000D02*
X162730000Y-152481000D01*
X161248000Y-152521000D02*
X162602000Y-152521000D01*
X161407000Y-152561000D02*
X162443000Y-152561000D01*
X161641000Y-152601000D02*
X162209000Y-152601000D01*
X160450000Y-147195225D02*
X160450000Y-147695225D01*
X160200000Y-147445225D02*
X160700000Y-147445225D01*
X140940000Y-145315000D02*
X136000000Y-145315000D01*
X140940000Y-148055000D02*
X136000000Y-148055000D01*
X140940000Y-145315000D02*
X140940000Y-145630000D01*
X140940000Y-147740000D02*
X140940000Y-148055000D01*
X136000000Y-145315000D02*
X136000000Y-145630000D01*
X136000000Y-147740000D02*
X136000000Y-148055000D01*
X136000000Y-143900001D02*
X136000000Y-144215001D01*
X136000000Y-141475001D02*
X136000000Y-141790001D01*
X140940000Y-143900001D02*
X140940000Y-144215001D01*
X140940000Y-141475001D02*
X140940000Y-141790001D01*
X140940000Y-144215001D02*
X136000000Y-144215001D01*
X140940000Y-141475001D02*
X136000000Y-141475001D01*
X183595000Y-141970000D02*
G75*
G03X183595000Y-141970000I-2620000J0D01*
G01*
X182015000Y-141970000D02*
X183555000Y-141970000D01*
X178395000Y-141970000D02*
X179935000Y-141970000D01*
X182015000Y-142010000D02*
X183555000Y-142010000D01*
X178395000Y-142010000D02*
X179935000Y-142010000D01*
X178396000Y-142050000D02*
X179935000Y-142050000D01*
X182015000Y-142050000D02*
X183554000Y-142050000D01*
X178397000Y-142090000D02*
X179935000Y-142090000D01*
X182015000Y-142090000D02*
X183553000Y-142090000D01*
X178399000Y-142130000D02*
X179935000Y-142130000D01*
X182015000Y-142130000D02*
X183551000Y-142130000D01*
X178402000Y-142170000D02*
X179935000Y-142170000D01*
X182015000Y-142170000D02*
X183548000Y-142170000D01*
X178406000Y-142210000D02*
X179935000Y-142210000D01*
X182015000Y-142210000D02*
X183544000Y-142210000D01*
X178410000Y-142250000D02*
X179935000Y-142250000D01*
X182015000Y-142250000D02*
X183540000Y-142250000D01*
X178414000Y-142290000D02*
X179935000Y-142290000D01*
X182015000Y-142290000D02*
X183536000Y-142290000D01*
X178419000Y-142330000D02*
X179935000Y-142330000D01*
X182015000Y-142330000D02*
X183531000Y-142330000D01*
X178425000Y-142370000D02*
X179935000Y-142370000D01*
X182015000Y-142370000D02*
X183525000Y-142370000D01*
X178432000Y-142410000D02*
X179935000Y-142410000D01*
X182015000Y-142410000D02*
X183518000Y-142410000D01*
X178439000Y-142450000D02*
X179935000Y-142450000D01*
X182015000Y-142450000D02*
X183511000Y-142450000D01*
X178447000Y-142490000D02*
X179935000Y-142490000D01*
X182015000Y-142490000D02*
X183503000Y-142490000D01*
X178455000Y-142530000D02*
X179935000Y-142530000D01*
X182015000Y-142530000D02*
X183495000Y-142530000D01*
X178464000Y-142570000D02*
X179935000Y-142570000D01*
X182015000Y-142570000D02*
X183486000Y-142570000D01*
X178474000Y-142610000D02*
X179935000Y-142610000D01*
X182015000Y-142610000D02*
X183476000Y-142610000D01*
X178484000Y-142650000D02*
X179935000Y-142650000D01*
X182015000Y-142650000D02*
X183466000Y-142650000D01*
X178495000Y-142691000D02*
X179935000Y-142691000D01*
X182015000Y-142691000D02*
X183455000Y-142691000D01*
X178507000Y-142731000D02*
X179935000Y-142731000D01*
X182015000Y-142731000D02*
X183443000Y-142731000D01*
X178520000Y-142771000D02*
X179935000Y-142771000D01*
X182015000Y-142771000D02*
X183430000Y-142771000D01*
X178533000Y-142811000D02*
X179935000Y-142811000D01*
X182015000Y-142811000D02*
X183417000Y-142811000D01*
X178547000Y-142851000D02*
X179935000Y-142851000D01*
X182015000Y-142851000D02*
X183403000Y-142851000D01*
X178561000Y-142891000D02*
X179935000Y-142891000D01*
X182015000Y-142891000D02*
X183389000Y-142891000D01*
X178577000Y-142931000D02*
X179935000Y-142931000D01*
X182015000Y-142931000D02*
X183373000Y-142931000D01*
X178593000Y-142971000D02*
X179935000Y-142971000D01*
X182015000Y-142971000D02*
X183357000Y-142971000D01*
X178610000Y-143011000D02*
X179935000Y-143011000D01*
X182015000Y-143011000D02*
X183340000Y-143011000D01*
X178627000Y-143051000D02*
X179935000Y-143051000D01*
X182015000Y-143051000D02*
X183323000Y-143051000D01*
X178646000Y-143091000D02*
X179935000Y-143091000D01*
X182015000Y-143091000D02*
X183304000Y-143091000D01*
X178665000Y-143131000D02*
X179935000Y-143131000D01*
X182015000Y-143131000D02*
X183285000Y-143131000D01*
X178685000Y-143171000D02*
X179935000Y-143171000D01*
X182015000Y-143171000D02*
X183265000Y-143171000D01*
X178707000Y-143211000D02*
X179935000Y-143211000D01*
X182015000Y-143211000D02*
X183243000Y-143211000D01*
X178728000Y-143251000D02*
X179935000Y-143251000D01*
X182015000Y-143251000D02*
X183222000Y-143251000D01*
X178751000Y-143291000D02*
X179935000Y-143291000D01*
X182015000Y-143291000D02*
X183199000Y-143291000D01*
X178775000Y-143331000D02*
X179935000Y-143331000D01*
X182015000Y-143331000D02*
X183175000Y-143331000D01*
X178800000Y-143371000D02*
X179935000Y-143371000D01*
X182015000Y-143371000D02*
X183150000Y-143371000D01*
X178826000Y-143411000D02*
X179935000Y-143411000D01*
X182015000Y-143411000D02*
X183124000Y-143411000D01*
X178853000Y-143451000D02*
X179935000Y-143451000D01*
X182015000Y-143451000D02*
X183097000Y-143451000D01*
X178880000Y-143491000D02*
X179935000Y-143491000D01*
X182015000Y-143491000D02*
X183070000Y-143491000D01*
X178910000Y-143531000D02*
X179935000Y-143531000D01*
X182015000Y-143531000D02*
X183040000Y-143531000D01*
X178940000Y-143571000D02*
X179935000Y-143571000D01*
X182015000Y-143571000D02*
X183010000Y-143571000D01*
X178971000Y-143611000D02*
X179935000Y-143611000D01*
X182015000Y-143611000D02*
X182979000Y-143611000D01*
X179004000Y-143651000D02*
X179935000Y-143651000D01*
X182015000Y-143651000D02*
X182946000Y-143651000D01*
X179038000Y-143691000D02*
X179935000Y-143691000D01*
X182015000Y-143691000D02*
X182912000Y-143691000D01*
X179074000Y-143731000D02*
X179935000Y-143731000D01*
X182015000Y-143731000D02*
X182876000Y-143731000D01*
X179111000Y-143771000D02*
X179935000Y-143771000D01*
X182015000Y-143771000D02*
X182839000Y-143771000D01*
X179149000Y-143811000D02*
X179935000Y-143811000D01*
X182015000Y-143811000D02*
X182801000Y-143811000D01*
X179190000Y-143851000D02*
X179935000Y-143851000D01*
X182015000Y-143851000D02*
X182760000Y-143851000D01*
X179232000Y-143891000D02*
X179935000Y-143891000D01*
X182015000Y-143891000D02*
X182718000Y-143891000D01*
X179276000Y-143931000D02*
X179935000Y-143931000D01*
X182015000Y-143931000D02*
X182674000Y-143931000D01*
X179322000Y-143971000D02*
X179935000Y-143971000D01*
X182015000Y-143971000D02*
X182628000Y-143971000D01*
X179370000Y-144011000D02*
X182580000Y-144011000D01*
X179421000Y-144051000D02*
X182529000Y-144051000D01*
X179475000Y-144091000D02*
X182475000Y-144091000D01*
X179532000Y-144131000D02*
X182418000Y-144131000D01*
X179592000Y-144171000D02*
X182358000Y-144171000D01*
X179656000Y-144211000D02*
X182294000Y-144211000D01*
X179724000Y-144251000D02*
X182226000Y-144251000D01*
X179797000Y-144291000D02*
X182153000Y-144291000D01*
X179877000Y-144331000D02*
X182073000Y-144331000D01*
X179964000Y-144371000D02*
X181986000Y-144371000D01*
X180060000Y-144411000D02*
X181890000Y-144411000D01*
X180170000Y-144451000D02*
X181780000Y-144451000D01*
X180298000Y-144491000D02*
X181652000Y-144491000D01*
X180457000Y-144531000D02*
X181493000Y-144531000D01*
X180691000Y-144571000D02*
X181259000Y-144571000D01*
X179500000Y-139165225D02*
X179500000Y-139665225D01*
X179250000Y-139415225D02*
X179750000Y-139415225D01*
X170505000Y-122770000D02*
X170505000Y-122755000D01*
X170505000Y-124895000D02*
X170505000Y-124880000D01*
X165965000Y-122770000D02*
X165965000Y-122755000D01*
X165965000Y-124895000D02*
X165965000Y-124880000D01*
X165965000Y-122755000D02*
X170505000Y-122755000D01*
X165965000Y-124895000D02*
X170505000Y-124895000D01*
X180470000Y-122640000D02*
X175930000Y-122640000D01*
X180470000Y-124780000D02*
X175930000Y-124780000D01*
X180470000Y-122640000D02*
X180470000Y-122655000D01*
X180470000Y-124765000D02*
X180470000Y-124780000D01*
X175930000Y-122640000D02*
X175930000Y-122655000D01*
X175930000Y-124765000D02*
X175930000Y-124780000D01*
X178878608Y-106912665D02*
G75*
G02X179035516Y-110145000I-1078608J-1672335D01*
G01*
X176721392Y-106912665D02*
G75*
G03X176564484Y-110145000I1078608J-1672335D01*
G01*
X178879837Y-107543870D02*
G75*
G02X178880000Y-109625961I-1079837J-1041130D01*
G01*
X176720163Y-107543870D02*
G75*
G03X176720000Y-109625961I1079837J-1041130D01*
G01*
X179036000Y-110145000D02*
X178880000Y-110145000D01*
X176720000Y-110145000D02*
X176564000Y-110145000D01*
X116205000Y-149860000D02*
X141605000Y-149860000D01*
X116205000Y-151130000D02*
X141605000Y-151130000D01*
X116205000Y-157480000D02*
X141605000Y-157480000D01*
X141605000Y-157480000D02*
X141605000Y-149860000D01*
X116205000Y-157480000D02*
X116205000Y-149860000D01*
X129000000Y-146280000D02*
X129000000Y-145950000D01*
X129000000Y-145950000D02*
X122460000Y-145950000D01*
X122460000Y-145950000D02*
X122460000Y-146280000D01*
X129000000Y-148360000D02*
X129000000Y-148690000D01*
X129000000Y-148690000D02*
X122460000Y-148690000D01*
X122460000Y-148690000D02*
X122460000Y-148360000D01*
X145320000Y-157250000D02*
X145320000Y-157580000D01*
X145320000Y-157580000D02*
X151860000Y-157580000D01*
X151860000Y-157580000D02*
X151860000Y-157250000D01*
X145320000Y-155170000D02*
X145320000Y-154840000D01*
X145320000Y-154840000D02*
X151860000Y-154840000D01*
X151860000Y-154840000D02*
X151860000Y-155170000D01*
X129000000Y-140870000D02*
X129000000Y-141200000D01*
X122460000Y-140870000D02*
X129000000Y-140870000D01*
X122460000Y-141200000D02*
X122460000Y-140870000D01*
X129000000Y-143610000D02*
X129000000Y-143280000D01*
X122460000Y-143610000D02*
X129000000Y-143610000D01*
X122460000Y-143280000D02*
X122460000Y-143610000D01*
X162655000Y-154840000D02*
X162655000Y-155170000D01*
X156115000Y-154840000D02*
X162655000Y-154840000D01*
X156115000Y-155170000D02*
X156115000Y-154840000D01*
X162655000Y-157580000D02*
X162655000Y-157250000D01*
X156115000Y-157580000D02*
X162655000Y-157580000D01*
X156115000Y-157250000D02*
X156115000Y-157580000D01*
X186590000Y-72295000D02*
X186920000Y-72295000D01*
X186590000Y-78835000D02*
X186590000Y-72295000D01*
X186920000Y-78835000D02*
X186590000Y-78835000D01*
X189330000Y-72295000D02*
X189000000Y-72295000D01*
X189330000Y-78835000D02*
X189330000Y-72295000D01*
X189000000Y-78835000D02*
X189330000Y-78835000D01*
X185190000Y-78835000D02*
X185520000Y-78835000D01*
X185520000Y-78835000D02*
X185520000Y-72295000D01*
X185520000Y-72295000D02*
X185190000Y-72295000D01*
X183110000Y-78835000D02*
X182780000Y-78835000D01*
X182780000Y-78835000D02*
X182780000Y-72295000D01*
X182780000Y-72295000D02*
X183110000Y-72295000D01*
D11*
X171616666Y-79827380D02*
X172092857Y-79827380D01*
X172092857Y-78827380D01*
X171330952Y-78922619D02*
X171283333Y-78875000D01*
X171188095Y-78827380D01*
X170950000Y-78827380D01*
X170854761Y-78875000D01*
X170807142Y-78922619D01*
X170759523Y-79017857D01*
X170759523Y-79113095D01*
X170807142Y-79255952D01*
X171378571Y-79827380D01*
X170759523Y-79827380D01*
X178561904Y-75065000D02*
X178657142Y-75017380D01*
X178800000Y-75017380D01*
X178942857Y-75065000D01*
X179038095Y-75160238D01*
X179085714Y-75255476D01*
X179133333Y-75445952D01*
X179133333Y-75588809D01*
X179085714Y-75779285D01*
X179038095Y-75874523D01*
X178942857Y-75969761D01*
X178800000Y-76017380D01*
X178704761Y-76017380D01*
X178561904Y-75969761D01*
X178514285Y-75922142D01*
X178514285Y-75588809D01*
X178704761Y-75588809D01*
X178085714Y-76017380D02*
X178085714Y-75017380D01*
X177514285Y-76017380D01*
X177514285Y-75017380D01*
X177038095Y-76017380D02*
X177038095Y-75017380D01*
X176800000Y-75017380D01*
X176657142Y-75065000D01*
X176561904Y-75160238D01*
X176514285Y-75255476D01*
X176466666Y-75445952D01*
X176466666Y-75588809D01*
X176514285Y-75779285D01*
X176561904Y-75874523D01*
X176657142Y-75969761D01*
X176800000Y-76017380D01*
X177038095Y-76017380D01*
X179133333Y-77557380D02*
X178800000Y-78557380D01*
X178466666Y-77557380D01*
X177561904Y-78462142D02*
X177609523Y-78509761D01*
X177752380Y-78557380D01*
X177847619Y-78557380D01*
X177990476Y-78509761D01*
X178085714Y-78414523D01*
X178133333Y-78319285D01*
X178180952Y-78128809D01*
X178180952Y-77985952D01*
X178133333Y-77795476D01*
X178085714Y-77700238D01*
X177990476Y-77605000D01*
X177847619Y-77557380D01*
X177752380Y-77557380D01*
X177609523Y-77605000D01*
X177561904Y-77652619D01*
X176561904Y-78462142D02*
X176609523Y-78509761D01*
X176752380Y-78557380D01*
X176847619Y-78557380D01*
X176990476Y-78509761D01*
X177085714Y-78414523D01*
X177133333Y-78319285D01*
X177180952Y-78128809D01*
X177180952Y-77985952D01*
X177133333Y-77795476D01*
X177085714Y-77700238D01*
X176990476Y-77605000D01*
X176847619Y-77557380D01*
X176752380Y-77557380D01*
X176609523Y-77605000D01*
X176561904Y-77652619D01*
X179014285Y-81049761D02*
X178871428Y-81097380D01*
X178633333Y-81097380D01*
X178538095Y-81049761D01*
X178490476Y-81002142D01*
X178442857Y-80906904D01*
X178442857Y-80811666D01*
X178490476Y-80716428D01*
X178538095Y-80668809D01*
X178633333Y-80621190D01*
X178823809Y-80573571D01*
X178919047Y-80525952D01*
X178966666Y-80478333D01*
X179014285Y-80383095D01*
X179014285Y-80287857D01*
X178966666Y-80192619D01*
X178919047Y-80145000D01*
X178823809Y-80097380D01*
X178585714Y-80097380D01*
X178442857Y-80145000D01*
X178014285Y-81097380D02*
X178014285Y-80097380D01*
X177776190Y-80097380D01*
X177633333Y-80145000D01*
X177538095Y-80240238D01*
X177490476Y-80335476D01*
X177442857Y-80525952D01*
X177442857Y-80668809D01*
X177490476Y-80859285D01*
X177538095Y-80954523D01*
X177633333Y-81049761D01*
X177776190Y-81097380D01*
X178014285Y-81097380D01*
X177061904Y-80811666D02*
X176585714Y-80811666D01*
X177157142Y-81097380D02*
X176823809Y-80097380D01*
X176490476Y-81097380D01*
X178990476Y-83589761D02*
X178847619Y-83637380D01*
X178609523Y-83637380D01*
X178514285Y-83589761D01*
X178466666Y-83542142D01*
X178419047Y-83446904D01*
X178419047Y-83351666D01*
X178466666Y-83256428D01*
X178514285Y-83208809D01*
X178609523Y-83161190D01*
X178800000Y-83113571D01*
X178895238Y-83065952D01*
X178942857Y-83018333D01*
X178990476Y-82923095D01*
X178990476Y-82827857D01*
X178942857Y-82732619D01*
X178895238Y-82685000D01*
X178800000Y-82637380D01*
X178561904Y-82637380D01*
X178419047Y-82685000D01*
X177419047Y-83542142D02*
X177466666Y-83589761D01*
X177609523Y-83637380D01*
X177704761Y-83637380D01*
X177847619Y-83589761D01*
X177942857Y-83494523D01*
X177990476Y-83399285D01*
X178038095Y-83208809D01*
X178038095Y-83065952D01*
X177990476Y-82875476D01*
X177942857Y-82780238D01*
X177847619Y-82685000D01*
X177704761Y-82637380D01*
X177609523Y-82637380D01*
X177466666Y-82685000D01*
X177419047Y-82732619D01*
X176514285Y-83637380D02*
X176990476Y-83637380D01*
X176990476Y-82637380D01*
X166156190Y-128246190D02*
X166156190Y-128722380D01*
X166489523Y-127722380D02*
X166156190Y-128246190D01*
X165822857Y-127722380D01*
X164965714Y-128722380D02*
X165537142Y-128722380D01*
X165251428Y-128722380D02*
X165251428Y-127722380D01*
X165346666Y-127865238D01*
X165441904Y-127960476D01*
X165537142Y-128008095D01*
X169902142Y-145883333D02*
X169949761Y-145835714D01*
X169997380Y-145692857D01*
X169997380Y-145597619D01*
X169949761Y-145454761D01*
X169854523Y-145359523D01*
X169759285Y-145311904D01*
X169568809Y-145264285D01*
X169425952Y-145264285D01*
X169235476Y-145311904D01*
X169140238Y-145359523D01*
X169045000Y-145454761D01*
X168997380Y-145597619D01*
X168997380Y-145692857D01*
X169045000Y-145835714D01*
X169092619Y-145883333D01*
X169330714Y-146740476D02*
X169997380Y-146740476D01*
X168949761Y-146502380D02*
X169664047Y-146264285D01*
X169664047Y-146883333D01*
X177522142Y-145883333D02*
X177569761Y-145835714D01*
X177617380Y-145692857D01*
X177617380Y-145597619D01*
X177569761Y-145454761D01*
X177474523Y-145359523D01*
X177379285Y-145311904D01*
X177188809Y-145264285D01*
X177045952Y-145264285D01*
X176855476Y-145311904D01*
X176760238Y-145359523D01*
X176665000Y-145454761D01*
X176617380Y-145597619D01*
X176617380Y-145692857D01*
X176665000Y-145835714D01*
X176712619Y-145883333D01*
X176617380Y-146788095D02*
X176617380Y-146311904D01*
X177093571Y-146264285D01*
X177045952Y-146311904D01*
X176998333Y-146407142D01*
X176998333Y-146645238D01*
X177045952Y-146740476D01*
X177093571Y-146788095D01*
X177188809Y-146835714D01*
X177426904Y-146835714D01*
X177522142Y-146788095D01*
X177569761Y-146740476D01*
X177617380Y-146645238D01*
X177617380Y-146407142D01*
X177569761Y-146311904D01*
X177522142Y-146264285D01*
X147677142Y-145883333D02*
X147724761Y-145835714D01*
X147772380Y-145692857D01*
X147772380Y-145597619D01*
X147724761Y-145454761D01*
X147629523Y-145359523D01*
X147534285Y-145311904D01*
X147343809Y-145264285D01*
X147200952Y-145264285D01*
X147010476Y-145311904D01*
X146915238Y-145359523D01*
X146820000Y-145454761D01*
X146772380Y-145597619D01*
X146772380Y-145692857D01*
X146820000Y-145835714D01*
X146867619Y-145883333D01*
X146772380Y-146216666D02*
X146772380Y-146883333D01*
X147772380Y-146454761D01*
X154662142Y-145883333D02*
X154709761Y-145835714D01*
X154757380Y-145692857D01*
X154757380Y-145597619D01*
X154709761Y-145454761D01*
X154614523Y-145359523D01*
X154519285Y-145311904D01*
X154328809Y-145264285D01*
X154185952Y-145264285D01*
X153995476Y-145311904D01*
X153900238Y-145359523D01*
X153805000Y-145454761D01*
X153757380Y-145597619D01*
X153757380Y-145692857D01*
X153805000Y-145835714D01*
X153852619Y-145883333D01*
X154185952Y-146454761D02*
X154138333Y-146359523D01*
X154090714Y-146311904D01*
X153995476Y-146264285D01*
X153947857Y-146264285D01*
X153852619Y-146311904D01*
X153805000Y-146359523D01*
X153757380Y-146454761D01*
X153757380Y-146645238D01*
X153805000Y-146740476D01*
X153852619Y-146788095D01*
X153947857Y-146835714D01*
X153995476Y-146835714D01*
X154090714Y-146788095D01*
X154138333Y-146740476D01*
X154185952Y-146645238D01*
X154185952Y-146454761D01*
X154233571Y-146359523D01*
X154281190Y-146311904D01*
X154376428Y-146264285D01*
X154566904Y-146264285D01*
X154662142Y-146311904D01*
X154709761Y-146359523D01*
X154757380Y-146454761D01*
X154757380Y-146645238D01*
X154709761Y-146740476D01*
X154662142Y-146788095D01*
X154566904Y-146835714D01*
X154376428Y-146835714D01*
X154281190Y-146788095D01*
X154233571Y-146740476D01*
X154185952Y-146645238D01*
X162282142Y-145883333D02*
X162329761Y-145835714D01*
X162377380Y-145692857D01*
X162377380Y-145597619D01*
X162329761Y-145454761D01*
X162234523Y-145359523D01*
X162139285Y-145311904D01*
X161948809Y-145264285D01*
X161805952Y-145264285D01*
X161615476Y-145311904D01*
X161520238Y-145359523D01*
X161425000Y-145454761D01*
X161377380Y-145597619D01*
X161377380Y-145692857D01*
X161425000Y-145835714D01*
X161472619Y-145883333D01*
X162377380Y-146359523D02*
X162377380Y-146550000D01*
X162329761Y-146645238D01*
X162282142Y-146692857D01*
X162139285Y-146788095D01*
X161948809Y-146835714D01*
X161567857Y-146835714D01*
X161472619Y-146788095D01*
X161425000Y-146740476D01*
X161377380Y-146645238D01*
X161377380Y-146454761D01*
X161425000Y-146359523D01*
X161472619Y-146311904D01*
X161567857Y-146264285D01*
X161805952Y-146264285D01*
X161901190Y-146311904D01*
X161948809Y-146359523D01*
X161996428Y-146454761D01*
X161996428Y-146645238D01*
X161948809Y-146740476D01*
X161901190Y-146788095D01*
X161805952Y-146835714D01*
X138636666Y-144542142D02*
X138684285Y-144589761D01*
X138827142Y-144637380D01*
X138922380Y-144637380D01*
X139065238Y-144589761D01*
X139160476Y-144494523D01*
X139208095Y-144399285D01*
X139255714Y-144208809D01*
X139255714Y-144065952D01*
X139208095Y-143875476D01*
X139160476Y-143780238D01*
X139065238Y-143685000D01*
X138922380Y-143637380D01*
X138827142Y-143637380D01*
X138684285Y-143685000D01*
X138636666Y-143732619D01*
X138255714Y-143732619D02*
X138208095Y-143685000D01*
X138112857Y-143637380D01*
X137874761Y-143637380D01*
X137779523Y-143685000D01*
X137731904Y-143732619D01*
X137684285Y-143827857D01*
X137684285Y-143923095D01*
X137731904Y-144065952D01*
X138303333Y-144637380D01*
X137684285Y-144637380D01*
X138636666Y-140702143D02*
X138684285Y-140749762D01*
X138827142Y-140797381D01*
X138922380Y-140797381D01*
X139065238Y-140749762D01*
X139160476Y-140654524D01*
X139208095Y-140559286D01*
X139255714Y-140368810D01*
X139255714Y-140225953D01*
X139208095Y-140035477D01*
X139160476Y-139940239D01*
X139065238Y-139845001D01*
X138922380Y-139797381D01*
X138827142Y-139797381D01*
X138684285Y-139845001D01*
X138636666Y-139892620D01*
X138303333Y-139797381D02*
X137684285Y-139797381D01*
X138017619Y-140178334D01*
X137874761Y-140178334D01*
X137779523Y-140225953D01*
X137731904Y-140273572D01*
X137684285Y-140368810D01*
X137684285Y-140606905D01*
X137731904Y-140702143D01*
X137779523Y-140749762D01*
X137874761Y-140797381D01*
X138160476Y-140797381D01*
X138255714Y-140749762D01*
X138303333Y-140702143D01*
X181332142Y-137628333D02*
X181379761Y-137580714D01*
X181427380Y-137437857D01*
X181427380Y-137342619D01*
X181379761Y-137199761D01*
X181284523Y-137104523D01*
X181189285Y-137056904D01*
X180998809Y-137009285D01*
X180855952Y-137009285D01*
X180665476Y-137056904D01*
X180570238Y-137104523D01*
X180475000Y-137199761D01*
X180427380Y-137342619D01*
X180427380Y-137437857D01*
X180475000Y-137580714D01*
X180522619Y-137628333D01*
X180427380Y-138485476D02*
X180427380Y-138295000D01*
X180475000Y-138199761D01*
X180522619Y-138152142D01*
X180665476Y-138056904D01*
X180855952Y-138009285D01*
X181236904Y-138009285D01*
X181332142Y-138056904D01*
X181379761Y-138104523D01*
X181427380Y-138199761D01*
X181427380Y-138390238D01*
X181379761Y-138485476D01*
X181332142Y-138533095D01*
X181236904Y-138580714D01*
X180998809Y-138580714D01*
X180903571Y-138533095D01*
X180855952Y-138485476D01*
X180808333Y-138390238D01*
X180808333Y-138199761D01*
X180855952Y-138104523D01*
X180903571Y-138056904D01*
X180998809Y-138009285D01*
X173832857Y-124177142D02*
X173880476Y-124224761D01*
X174023333Y-124272380D01*
X174118571Y-124272380D01*
X174261428Y-124224761D01*
X174356666Y-124129523D01*
X174404285Y-124034285D01*
X174451904Y-123843809D01*
X174451904Y-123700952D01*
X174404285Y-123510476D01*
X174356666Y-123415238D01*
X174261428Y-123320000D01*
X174118571Y-123272380D01*
X174023333Y-123272380D01*
X173880476Y-123320000D01*
X173832857Y-123367619D01*
X173451904Y-123367619D02*
X173404285Y-123320000D01*
X173309047Y-123272380D01*
X173070952Y-123272380D01*
X172975714Y-123320000D01*
X172928095Y-123367619D01*
X172880476Y-123462857D01*
X172880476Y-123558095D01*
X172928095Y-123700952D01*
X173499523Y-124272380D01*
X172880476Y-124272380D01*
X172261428Y-123272380D02*
X172166190Y-123272380D01*
X172070952Y-123320000D01*
X172023333Y-123367619D01*
X171975714Y-123462857D01*
X171928095Y-123653333D01*
X171928095Y-123891428D01*
X171975714Y-124081904D01*
X172023333Y-124177142D01*
X172070952Y-124224761D01*
X172166190Y-124272380D01*
X172261428Y-124272380D01*
X172356666Y-124224761D01*
X172404285Y-124177142D01*
X172451904Y-124081904D01*
X172499523Y-123891428D01*
X172499523Y-123653333D01*
X172451904Y-123462857D01*
X172404285Y-123367619D01*
X172356666Y-123320000D01*
X172261428Y-123272380D01*
X183762857Y-124117142D02*
X183810476Y-124164761D01*
X183953333Y-124212380D01*
X184048571Y-124212380D01*
X184191428Y-124164761D01*
X184286666Y-124069523D01*
X184334285Y-123974285D01*
X184381904Y-123783809D01*
X184381904Y-123640952D01*
X184334285Y-123450476D01*
X184286666Y-123355238D01*
X184191428Y-123260000D01*
X184048571Y-123212380D01*
X183953333Y-123212380D01*
X183810476Y-123260000D01*
X183762857Y-123307619D01*
X183381904Y-123307619D02*
X183334285Y-123260000D01*
X183239047Y-123212380D01*
X183000952Y-123212380D01*
X182905714Y-123260000D01*
X182858095Y-123307619D01*
X182810476Y-123402857D01*
X182810476Y-123498095D01*
X182858095Y-123640952D01*
X183429523Y-124212380D01*
X182810476Y-124212380D01*
X181858095Y-124212380D02*
X182429523Y-124212380D01*
X182143809Y-124212380D02*
X182143809Y-123212380D01*
X182239047Y-123355238D01*
X182334285Y-123450476D01*
X182429523Y-123498095D01*
X181212380Y-107846904D02*
X180212380Y-107846904D01*
X180212380Y-108085000D01*
X180260000Y-108227857D01*
X180355238Y-108323095D01*
X180450476Y-108370714D01*
X180640952Y-108418333D01*
X180783809Y-108418333D01*
X180974285Y-108370714D01*
X181069523Y-108323095D01*
X181164761Y-108227857D01*
X181212380Y-108085000D01*
X181212380Y-107846904D01*
X180212380Y-109323095D02*
X180212380Y-108846904D01*
X180688571Y-108799285D01*
X180640952Y-108846904D01*
X180593333Y-108942142D01*
X180593333Y-109180238D01*
X180640952Y-109275476D01*
X180688571Y-109323095D01*
X180783809Y-109370714D01*
X181021904Y-109370714D01*
X181117142Y-109323095D01*
X181164761Y-109275476D01*
X181212380Y-109180238D01*
X181212380Y-108942142D01*
X181164761Y-108846904D01*
X181117142Y-108799285D01*
X129228333Y-157672380D02*
X129228333Y-158386666D01*
X129275952Y-158529523D01*
X129371190Y-158624761D01*
X129514047Y-158672380D01*
X129609285Y-158672380D01*
X128228333Y-158672380D02*
X128799761Y-158672380D01*
X128514047Y-158672380D02*
X128514047Y-157672380D01*
X128609285Y-157815238D01*
X128704523Y-157910476D01*
X128799761Y-157958095D01*
X119546666Y-147772380D02*
X119880000Y-147296190D01*
X120118095Y-147772380D02*
X120118095Y-146772380D01*
X119737142Y-146772380D01*
X119641904Y-146820000D01*
X119594285Y-146867619D01*
X119546666Y-146962857D01*
X119546666Y-147105714D01*
X119594285Y-147200952D01*
X119641904Y-147248571D01*
X119737142Y-147296190D01*
X120118095Y-147296190D01*
X118594285Y-147772380D02*
X119165714Y-147772380D01*
X118880000Y-147772380D02*
X118880000Y-146772380D01*
X118975238Y-146915238D01*
X119070476Y-147010476D01*
X119165714Y-147058095D01*
X148756666Y-159032380D02*
X149090000Y-158556190D01*
X149328095Y-159032380D02*
X149328095Y-158032380D01*
X148947142Y-158032380D01*
X148851904Y-158080000D01*
X148804285Y-158127619D01*
X148756666Y-158222857D01*
X148756666Y-158365714D01*
X148804285Y-158460952D01*
X148851904Y-158508571D01*
X148947142Y-158556190D01*
X149328095Y-158556190D01*
X148375714Y-158127619D02*
X148328095Y-158080000D01*
X148232857Y-158032380D01*
X147994761Y-158032380D01*
X147899523Y-158080000D01*
X147851904Y-158127619D01*
X147804285Y-158222857D01*
X147804285Y-158318095D01*
X147851904Y-158460952D01*
X148423333Y-159032380D01*
X147804285Y-159032380D01*
X119546666Y-142692380D02*
X119880000Y-142216190D01*
X120118095Y-142692380D02*
X120118095Y-141692380D01*
X119737142Y-141692380D01*
X119641904Y-141740000D01*
X119594285Y-141787619D01*
X119546666Y-141882857D01*
X119546666Y-142025714D01*
X119594285Y-142120952D01*
X119641904Y-142168571D01*
X119737142Y-142216190D01*
X120118095Y-142216190D01*
X119213333Y-141692380D02*
X118594285Y-141692380D01*
X118927619Y-142073333D01*
X118784761Y-142073333D01*
X118689523Y-142120952D01*
X118641904Y-142168571D01*
X118594285Y-142263809D01*
X118594285Y-142501904D01*
X118641904Y-142597142D01*
X118689523Y-142644761D01*
X118784761Y-142692380D01*
X119070476Y-142692380D01*
X119165714Y-142644761D01*
X119213333Y-142597142D01*
X159551666Y-159032380D02*
X159885000Y-158556190D01*
X160123095Y-159032380D02*
X160123095Y-158032380D01*
X159742142Y-158032380D01*
X159646904Y-158080000D01*
X159599285Y-158127619D01*
X159551666Y-158222857D01*
X159551666Y-158365714D01*
X159599285Y-158460952D01*
X159646904Y-158508571D01*
X159742142Y-158556190D01*
X160123095Y-158556190D01*
X158694523Y-158365714D02*
X158694523Y-159032380D01*
X158932619Y-157984761D02*
X159170714Y-158699047D01*
X158551666Y-158699047D01*
X190782380Y-75398333D02*
X190306190Y-75065000D01*
X190782380Y-74826904D02*
X189782380Y-74826904D01*
X189782380Y-75207857D01*
X189830000Y-75303095D01*
X189877619Y-75350714D01*
X189972857Y-75398333D01*
X190115714Y-75398333D01*
X190210952Y-75350714D01*
X190258571Y-75303095D01*
X190306190Y-75207857D01*
X190306190Y-74826904D01*
X189782380Y-76303095D02*
X189782380Y-75826904D01*
X190258571Y-75779285D01*
X190210952Y-75826904D01*
X190163333Y-75922142D01*
X190163333Y-76160238D01*
X190210952Y-76255476D01*
X190258571Y-76303095D01*
X190353809Y-76350714D01*
X190591904Y-76350714D01*
X190687142Y-76303095D01*
X190734761Y-76255476D01*
X190782380Y-76160238D01*
X190782380Y-75922142D01*
X190734761Y-75826904D01*
X190687142Y-75779285D01*
X186972380Y-75398333D02*
X186496190Y-75065000D01*
X186972380Y-74826904D02*
X185972380Y-74826904D01*
X185972380Y-75207857D01*
X186020000Y-75303095D01*
X186067619Y-75350714D01*
X186162857Y-75398333D01*
X186305714Y-75398333D01*
X186400952Y-75350714D01*
X186448571Y-75303095D01*
X186496190Y-75207857D01*
X186496190Y-74826904D01*
X185972380Y-76255476D02*
X185972380Y-76065000D01*
X186020000Y-75969761D01*
X186067619Y-75922142D01*
X186210476Y-75826904D01*
X186400952Y-75779285D01*
X186781904Y-75779285D01*
X186877142Y-75826904D01*
X186924761Y-75874523D01*
X186972380Y-75969761D01*
X186972380Y-76160238D01*
X186924761Y-76255476D01*
X186877142Y-76303095D01*
X186781904Y-76350714D01*
X186543809Y-76350714D01*
X186448571Y-76303095D01*
X186400952Y-76255476D01*
X186353333Y-76160238D01*
X186353333Y-75969761D01*
X186400952Y-75874523D01*
X186448571Y-75826904D01*
X186543809Y-75779285D01*
M02*
