G04 #@! TF.GenerationSoftware,KiCad,Pcbnew,(5.1.5)-3*
G04 #@! TF.CreationDate,2021-06-25T20:30:53-04:00*
G04 #@! TF.ProjectId,arduino_edit,61726475-696e-46f5-9f65-6469742e6b69,rev?*
G04 #@! TF.SameCoordinates,Original*
G04 #@! TF.FileFunction,Soldermask,Bot*
G04 #@! TF.FilePolarity,Negative*
%FSLAX46Y46*%
G04 Gerber Fmt 4.6, Leading zero omitted, Abs format (unit mm)*
G04 Created by KiCad (PCBNEW (5.1.5)-3) date 2021-06-25 20:30:53*
%MOMM*%
%LPD*%
G04 APERTURE LIST*
%ADD10O,1.600000X1.600000*%
%ADD11R,1.600000X1.600000*%
%ADD12C,1.524000*%
%ADD13C,1.500000*%
%ADD14C,1.600000*%
%ADD15R,1.800000X1.800000*%
%ADD16C,1.800000*%
%ADD17C,3.000000*%
%ADD18R,3.000000X3.000000*%
%ADD19C,3.500000*%
G04 APERTURE END LIST*
D10*
X168910000Y-117475000D03*
X171450000Y-117475000D03*
X131830000Y-117475000D03*
X171450000Y-69215000D03*
X134370000Y-117475000D03*
X168910000Y-69215000D03*
X136910000Y-117475000D03*
X166370000Y-69215000D03*
X139450000Y-117475000D03*
X163830000Y-69215000D03*
X141990000Y-117475000D03*
X161290000Y-69215000D03*
X144530000Y-117475000D03*
X158750000Y-69215000D03*
X147070000Y-117475000D03*
X153670000Y-69215000D03*
X149610000Y-117475000D03*
X151130000Y-69215000D03*
X153670000Y-117475000D03*
X148590000Y-69215000D03*
X156210000Y-117475000D03*
X146050000Y-69215000D03*
X158750000Y-117475000D03*
X143510000Y-69215000D03*
X161290000Y-117475000D03*
X140970000Y-69215000D03*
X163830000Y-117475000D03*
X138430000Y-69215000D03*
X166370000Y-117475000D03*
D11*
X135890000Y-69215000D03*
D10*
X129290000Y-117475000D03*
X126750000Y-117475000D03*
D12*
X181493160Y-87365680D03*
X181493160Y-89905680D03*
X181493160Y-92445680D03*
X181493160Y-94985680D03*
X181493160Y-97525680D03*
X181493160Y-100065680D03*
X180340000Y-75565000D03*
X180340000Y-78105000D03*
X180340000Y-80645000D03*
X180340000Y-83185000D03*
D13*
X170760000Y-128270000D03*
X175640000Y-128270000D03*
D12*
X116840000Y-139700000D03*
X116840000Y-137160000D03*
X116840000Y-134620000D03*
X116840000Y-132080000D03*
X116840000Y-129540000D03*
D11*
X169545000Y-149000000D03*
D14*
X169545000Y-151000000D03*
X177165000Y-151000000D03*
D11*
X177165000Y-149000000D03*
X147000000Y-149000000D03*
D14*
X147000000Y-151000000D03*
X154305000Y-151000000D03*
D11*
X154305000Y-149000000D03*
X161925000Y-149000000D03*
D14*
X161925000Y-151000000D03*
X140970000Y-146685000D03*
X135970000Y-146685000D03*
X135970000Y-142845001D03*
X140970000Y-142845001D03*
D11*
X180975000Y-140970000D03*
D14*
X180975000Y-142970000D03*
X170735000Y-123825000D03*
X165735000Y-123825000D03*
X180700000Y-123710000D03*
X175700000Y-123710000D03*
D15*
X177800000Y-109855000D03*
D16*
X177800000Y-107315000D03*
D17*
X123825000Y-153670000D03*
X128905000Y-153670000D03*
D18*
X118745000Y-153670000D03*
D17*
X133985000Y-153670000D03*
X139065000Y-153670000D03*
D14*
X129540000Y-147320000D03*
D10*
X121920000Y-147320000D03*
D14*
X144780000Y-156210000D03*
D10*
X152400000Y-156210000D03*
X129540000Y-142240000D03*
D14*
X121920000Y-142240000D03*
D10*
X163195000Y-156210000D03*
D14*
X155575000Y-156210000D03*
D10*
X187960000Y-71755000D03*
D14*
X187960000Y-79375000D03*
X184150000Y-79375000D03*
D10*
X184150000Y-71755000D03*
D19*
X186055000Y-128905000D03*
X127635000Y-129540000D03*
M02*
