G04 #@! TF.GenerationSoftware,KiCad,Pcbnew,(5.1.5)-3*
G04 #@! TF.CreationDate,2021-06-25T20:30:53-04:00*
G04 #@! TF.ProjectId,arduino_edit,61726475-696e-46f5-9f65-6469742e6b69,rev?*
G04 #@! TF.SameCoordinates,Original*
G04 #@! TF.FileFunction,Profile,NP*
%FSLAX46Y46*%
G04 Gerber Fmt 4.6, Leading zero omitted, Abs format (unit mm)*
G04 Created by KiCad (PCBNEW (5.1.5)-3) date 2021-06-25 20:30:53*
%MOMM*%
%LPD*%
G04 APERTURE LIST*
%ADD10C,0.100000*%
G04 APERTURE END LIST*
D10*
X114300000Y-63500000D02*
X191770000Y-63500000D01*
X114300000Y-160020000D02*
X114300000Y-63500000D01*
X191770000Y-160020000D02*
X191770000Y-63500000D01*
X191770000Y-160020000D02*
X184150000Y-160020000D01*
X160020000Y-160020000D02*
X114300000Y-160020000D01*
X160020000Y-160020000D02*
X184150000Y-160020000D01*
M02*
