G04 #@! TF.GenerationSoftware,KiCad,Pcbnew,(5.1.5)-3*
G04 #@! TF.CreationDate,2021-06-25T20:30:52-04:00*
G04 #@! TF.ProjectId,arduino_edit,61726475-696e-46f5-9f65-6469742e6b69,rev?*
G04 #@! TF.SameCoordinates,Original*
G04 #@! TF.FileFunction,Paste,Bot*
G04 #@! TF.FilePolarity,Positive*
%FSLAX46Y46*%
G04 Gerber Fmt 4.6, Leading zero omitted, Abs format (unit mm)*
G04 Created by KiCad (PCBNEW (5.1.5)-3) date 2021-06-25 20:30:52*
%MOMM*%
%LPD*%
G04 APERTURE LIST*
G04 APERTURE END LIST*
M02*
