EESchema Schematic File Version 4
EELAYER 30 0
EELAYER END
$Descr USLetter 11000 8500
encoding utf-8
Sheet 1 1
Title "Main Car System"
Date "2020-01-20"
Rev ""
Comp "Staten Island Solar Car"
Comment1 ""
Comment2 ""
Comment3 ""
Comment4 ""
$EndDescr
$Comp
L main:ElectromechanicalRelay S1
U 1 1 5E3D13FB
P 3750 1700
F 0 "S1" H 3750 2050 50  0000 C CNN
F 1 "ElectromechanicalRelay" H 3750 2053 50  0001 C CNN
F 2 "" H 3750 2050 50  0001 C CNN
F 3 "" H 3750 2050 50  0001 C CNN
	1    3750 1700
	1    0    0    -1  
$EndComp
$Comp
L main:ElectromechanicalRelay S2
U 1 1 5E3D3BB3
P 3750 2600
F 0 "S2" H 3750 2950 50  0000 C CNN
F 1 "ElectromechanicalRelay" H 3750 2953 50  0001 C CNN
F 2 "" H 3750 2950 50  0001 C CNN
F 3 "" H 3750 2950 50  0001 C CNN
	1    3750 2600
	1    0    0    -1  
$EndComp
$Comp
L Switch:SW_SPST SW3
U 1 1 5E3F75C1
P 2500 1500
F 0 "SW3" H 2500 1741 50  0000 C CNN
F 1 "SW_SPST" H 2500 1648 50  0000 C CNN
F 2 "" H 2500 1500 50  0001 C CNN
F 3 "~" H 2500 1500 50  0001 C CNN
	1    2500 1500
	1    0    0    -1  
$EndComp
$Comp
L Switch:SW_SPST SW4
U 1 1 5E3F7999
P 2500 2400
F 0 "SW4" H 2500 2641 50  0000 C CNN
F 1 "SW_SPST" H 2500 2548 50  0000 C CNN
F 2 "" H 2500 2400 50  0001 C CNN
F 3 "~" H 2500 2400 50  0001 C CNN
	1    2500 2400
	1    0    0    -1  
$EndComp
$Comp
L Switch:SW_SPST SW1
U 1 1 5E46894E
P 1950 1500
F 0 "SW1" H 1950 1741 50  0000 C CNN
F 1 "SW_SPST" H 1950 1648 50  0000 C CNN
F 2 "" H 1950 1500 50  0001 C CNN
F 3 "~" H 1950 1500 50  0001 C CNN
	1    1950 1500
	1    0    0    -1  
$EndComp
$Comp
L Switch:SW_SPST SW2
U 1 1 5E468954
P 1950 2400
F 0 "SW2" H 1950 2641 50  0000 C CNN
F 1 "SW_SPST" H 1950 2548 50  0000 C CNN
F 2 "" H 1950 2400 50  0001 C CNN
F 3 "~" H 1950 2400 50  0001 C CNN
	1    1950 2400
	1    0    0    -1  
$EndComp
Wire Wire Line
	2300 1500 2150 1500
Wire Wire Line
	2150 2400 2300 2400
Wire Wire Line
	1700 1500 1750 1500
Wire Wire Line
	1700 2400 1750 2400
$Comp
L Device:Fuse F1
U 1 1 5E484975
P 4650 1500
F 0 "F1" V 4450 1500 50  0000 C CNN
F 1 "Fuse" V 4543 1500 50  0000 C CNN
F 2 "" V 4580 1500 50  0001 C CNN
F 3 "~" H 4650 1500 50  0001 C CNN
	1    4650 1500
	0    1    1    0   
$EndComp
Wire Wire Line
	3050 1900 3500 1900
Wire Wire Line
	3050 2800 3500 2800
Text Notes 1050 2150 0    50   ~ 0
Auxiliary\nBattery
$Comp
L power:+BATT #PWR01
U 1 1 5E3DF474
P 1200 2400
AR Path="/5E3DF474" Ref="#PWR01"  Part="1" 
AR Path="/5E28CC93/5E3DF474" Ref="#PWR?"  Part="1" 
F 0 "#PWR01" H 1200 2250 50  0001 C CNN
F 1 "+BATT" H 1215 2573 50  0000 C CNN
F 2 "" H 1200 2400 50  0001 C CNN
F 3 "" H 1200 2400 50  0001 C CNN
	1    1200 2400
	1    0    0    -1  
$EndComp
$Comp
L power:GND #PWR02
U 1 1 5E3DF461
P 1200 2800
AR Path="/5E3DF461" Ref="#PWR02"  Part="1" 
AR Path="/5E28CC93/5E3DF461" Ref="#PWR?"  Part="1" 
F 0 "#PWR02" H 1200 2550 50  0001 C CNN
F 1 "GND" H 1200 2650 50  0000 C CNN
F 2 "" H 1200 2800 50  0001 C CNN
F 3 "" H 1200 2800 50  0001 C CNN
	1    1200 2800
	1    0    0    -1  
$EndComp
Text Notes 3750 1100 0    50   ~ 0
Fuse Box
$Comp
L power:+BATT #PWR03
U 1 1 5E4E4338
P 5200 1500
AR Path="/5E4E4338" Ref="#PWR03"  Part="1" 
AR Path="/5E28CC93/5E4E4338" Ref="#PWR?"  Part="1" 
F 0 "#PWR03" H 5200 1350 50  0001 C CNN
F 1 "+BATT" H 5215 1673 50  0000 C CNN
F 2 "" H 5200 1500 50  0001 C CNN
F 3 "" H 5200 1500 50  0001 C CNN
	1    5200 1500
	1    0    0    -1  
$EndComp
Wire Wire Line
	5200 1500 4800 1500
Wire Wire Line
	1700 1500 1700 2400
Wire Notes Line
	1500 1950 900  1950
$Comp
L main:Motor M1
U 1 1 5E6BE18A
P 9150 1950
F 0 "M1" H 9327 2387 50  0000 C CNN
F 1 "Motor" H 9150 1550 50  0001 C CNN
F 2 "" H 9150 1950 50  0001 C CNN
F 3 "" H 9150 1950 50  0001 C CNN
	1    9150 1950
	-1   0    0    -1  
$EndComp
$Comp
L main:MotorController MC1
U 1 1 5E6BEEE6
P 7650 1650
F 0 "MC1" H 7250 1650 50  0000 L CNN
F 1 "MotorController" H 7500 1650 50  0000 L CNN
F 2 "" H 7650 1700 50  0001 C CNN
F 3 "" H 7650 1700 50  0001 C CNN
	1    7650 1650
	-1   0    0    -1  
$EndComp
Wire Wire Line
	8550 1950 8150 1950
Wire Wire Line
	8550 2250 8150 2050
Wire Wire Line
	8550 1650 8150 1850
$Comp
L power:GNDD #PWR04
U 1 1 5E6C5BEB
P 7150 2000
F 0 "#PWR04" H 7150 1750 50  0001 C CNN
F 1 "GNDD" H 7300 1850 50  0000 C CNN
F 2 "" H 7150 2000 50  0001 C CNN
F 3 "" H 7150 2000 50  0001 C CNN
	1    7150 2000
	-1   0    0    -1  
$EndComp
Wire Notes Line
	2950 1000 2950 2950
Wire Notes Line
	4950 2950 4950 1000
Wire Wire Line
	1700 2400 1200 2400
Connection ~ 1700 2400
Wire Notes Line
	1500 1950 1500 3050
Wire Notes Line
	1500 3050 900  3050
Wire Notes Line
	900  3050 900  1950
Wire Wire Line
	2700 1500 3500 1500
Wire Wire Line
	2700 2400 3500 2400
Wire Wire Line
	3050 1900 3050 2800
Wire Wire Line
	1200 2800 3050 2800
Connection ~ 3050 2800
Wire Wire Line
	4000 2400 4500 2400
Wire Wire Line
	4500 2400 4500 1500
Wire Wire Line
	4000 1500 4500 1500
Connection ~ 4500 1500
Wire Wire Line
	4000 1900 7150 1900
Wire Notes Line
	2950 1000 4950 1000
Wire Notes Line
	4950 2950 2950 2950
Text Notes 3550 2900 0    50   ~ 0
Solar Array
Text Notes 3600 2000 0    50   ~ 0
Motor Assembly
Text Notes 2000 2050 0    50   ~ 0
(RED/GREEN)
Text Notes 2000 1150 0    50   ~ 0
(RED/GREEN)
Text Notes 2800 2350 0    500  Italic 0
TO BE FINISHED
$Comp
L Device:Battery_Cell BT1
U 1 1 5F51A223
P 1200 2650
F 0 "BT1" H 1321 2747 50  0000 L CNN
F 1 "Battery_Cell" H 1321 2654 50  0000 L CNN
F 2 "" V 1200 2710 50  0001 C CNN
F 3 "~" V 1200 2710 50  0001 C CNN
	1    1200 2650
	1    0    0    -1  
$EndComp
Wire Wire Line
	1200 2450 1200 2400
Connection ~ 1200 2400
Wire Wire Line
	1200 2800 1200 2750
Connection ~ 1200 2800
$EndSCHEMATC
