EESchema Schematic File Version 4
LIBS:board-cache
EELAYER 26 0
EELAYER END
$Descr USLetter 11000 8500
encoding utf-8
Sheet 1 1
Title "Sensory Board"
Date ""
Rev ""
Comp "Daniel Indictor"
Comment1 "Staten Island Solar Car"
Comment2 ""
Comment3 ""
Comment4 ""
$EndDescr
$Comp
L board:ADE7912 U1
U 1 1 5CA60653
P 4050 5000
F 0 "U1" H 4050 5765 50  0000 C CNN
F 1 "ADE7912" H 4050 5674 50  0000 C CNN
F 2 "Package_SO:SOIC-20W_7.5x12.8mm_P1.27mm" H 4000 4250 50  0001 C CNN
F 3 "https://www.analog.com/media/en/technical-documentation/data-sheets/ADE7912_7913.pdf" H 4000 4250 50  0001 C CNN
	1    4050 5000
	1    0    0    -1  
$EndComp
$Comp
L Connector:Screw_Terminal_01x08 J1
U 1 1 5CA60BA8
P 800 1200
F 0 "J1" H 800 700 50  0000 C CNN
F 1 "Screw_Terminal_01x08" H 600 1650 50  0000 C CNN
F 2 "" H 800 1200 50  0001 C CNN
F 3 "~" H 800 1200 50  0001 C CNN
	1    800  1200
	-1   0    0    1   
$EndComp
$Comp
L power:GND #PWR0101
U 1 1 5CA610A1
P 1500 1000
F 0 "#PWR0101" H 1500 750 50  0001 C CNN
F 1 "GND" H 1505 827 50  0000 C CNN
F 2 "" H 1500 1000 50  0001 C CNN
F 3 "" H 1500 1000 50  0001 C CNN
	1    1500 1000
	1    0    0    -1  
$EndComp
$Comp
L power:GNDD #PWR0102
U 1 1 5CA621F3
P 1000 1300
F 0 "#PWR0102" H 1000 1050 50  0001 C CNN
F 1 "GNDD" H 1004 1145 50  0000 C CNN
F 2 "" H 1000 1300 50  0001 C CNN
F 3 "" H 1000 1300 50  0001 C CNN
	1    1000 1300
	1    0    0    -1  
$EndComp
$Comp
L Connector:AVR-ISP-6 J2
U 1 1 5CA6235C
P 5450 7200
F 0 "J2" H 5170 7296 50  0000 R CNN
F 1 "AVR-ISP-6" H 5170 7205 50  0000 R CNN
F 2 "Connector_PinHeader_2.54mm:PinHeader_2x03_P2.54mm_Horizontal" V 5200 7250 50  0001 C CNN
F 3 " ~" H 4175 6650 50  0001 C CNN
	1    5450 7200
	1    0    0    -1  
$EndComp
$Comp
L power:+3.3V #PWR0103
U 1 1 5CA62AAB
P 4650 4450
F 0 "#PWR0103" H 4650 4300 50  0001 C CNN
F 1 "+3.3V" H 4665 4623 50  0000 C CNN
F 2 "" H 4650 4450 50  0001 C CNN
F 3 "" H 4650 4450 50  0001 C CNN
	1    4650 4450
	1    0    0    -1  
$EndComp
$Comp
L power:GND #PWR0104
U 1 1 5CA62CF8
P 4600 5500
F 0 "#PWR0104" H 4600 5250 50  0001 C CNN
F 1 "GND" H 4605 5327 50  0000 C CNN
F 2 "" H 4600 5500 50  0001 C CNN
F 3 "" H 4600 5500 50  0001 C CNN
	1    4600 5500
	1    0    0    -1  
$EndComp
Wire Wire Line
	4550 5450 4600 5450
Wire Wire Line
	4600 5450 4600 5500
$Comp
L power:GND #PWR0105
U 1 1 5CA62D9A
P 5350 7600
F 0 "#PWR0105" H 5350 7350 50  0001 C CNN
F 1 "GND" H 5355 7427 50  0000 C CNN
F 2 "" H 5350 7600 50  0001 C CNN
F 3 "" H 5350 7600 50  0001 C CNN
	1    5350 7600
	1    0    0    -1  
$EndComp
Text Label 5850 7000 0    50   ~ 0
MISO
Text Label 5850 7100 0    50   ~ 0
MOSI
Text Label 5850 7200 0    50   ~ 0
SCK
Text Label 5850 7300 0    50   ~ 0
RESET
$Comp
L power:+3.3V #PWR0106
U 1 1 5CA62E92
P 5350 6700
F 0 "#PWR0106" H 5350 6550 50  0001 C CNN
F 1 "+3.3V" H 5365 6873 50  0000 C CNN
F 2 "" H 5350 6700 50  0001 C CNN
F 3 "" H 5350 6700 50  0001 C CNN
	1    5350 6700
	1    0    0    -1  
$EndComp
Text Label 4550 5050 0    50   ~ 0
MISO
Text Label 4550 4950 0    50   ~ 0
MOSI
Text Label 4550 4850 0    50   ~ 0
SCK
Text Label 8550 2850 0    50   ~ 0
RESET
$Comp
L power:GND #PWR0107
U 1 1 5CA632B4
P 7950 4050
F 0 "#PWR0107" H 7950 3800 50  0001 C CNN
F 1 "GND" H 7955 3877 50  0000 C CNN
F 2 "" H 7950 4050 50  0001 C CNN
F 3 "" H 7950 4050 50  0001 C CNN
	1    7950 4050
	1    0    0    -1  
$EndComp
$Comp
L power:+3.3V #PWR0108
U 1 1 5CA63336
P 7950 900
F 0 "#PWR0108" H 7950 750 50  0001 C CNN
F 1 "+3.3V" H 7965 1073 50  0000 C CNN
F 2 "" H 7950 900 50  0001 C CNN
F 3 "" H 7950 900 50  0001 C CNN
	1    7950 900 
	1    0    0    -1  
$EndComp
$Comp
L power:GNDD #PWR0109
U 1 1 5CA66F65
P 2650 5550
F 0 "#PWR0109" H 2650 5300 50  0001 C CNN
F 1 "GNDD" H 2654 5395 50  0000 C CNN
F 2 "" H 2650 5550 50  0001 C CNN
F 3 "" H 2650 5550 50  0001 C CNN
	1    2650 5550
	1    0    0    -1  
$EndComp
$Comp
L Device:Crystal_Small Y1
U 1 1 5CACA758
P 5100 5200
F 0 "Y1" V 5100 5250 50  0000 R CNN
F 1 "4.096MHz" V 5100 5650 50  0000 R CNN
F 2 "Crystal:Crystal_HC49-U_Vertical" H 5100 5200 50  0001 C CNN
F 3 "http://www.ecsxtal.com/store/pdf/hc49ux.pdf" H 5100 5200 50  0001 C CNN
	1    5100 5200
	0    1    1    0   
$EndComp
$Comp
L Device:C_Small C4
U 1 1 5CACBA61
P 5750 5400
F 0 "C4" V 5521 5400 50  0000 C CNN
F 1 "22pF" V 5612 5400 50  0000 C CNN
F 2 "Capacitor_SMD:C_0805_2012Metric_Pad1.15x1.40mm_HandSolder" H 5750 5400 50  0001 C CNN
F 3 "https://www.samsungsem.com/kr/support/product-search/mlcc/__icsFiles/afieldfile/2018/06/11/CL21C470JC61PNC.pdf" H 5750 5400 50  0001 C CNN
	1    5750 5400
	0    1    1    0   
$EndComp
$Comp
L power:GND #PWR0110
U 1 1 5CACD7C0
P 5850 5550
F 0 "#PWR0110" H 5850 5300 50  0001 C CNN
F 1 "GND" H 5855 5377 50  0000 C CNN
F 2 "" H 5850 5550 50  0001 C CNN
F 3 "" H 5850 5550 50  0001 C CNN
	1    5850 5550
	1    0    0    -1  
$EndComp
Wire Wire Line
	1500 1000 1000 1000
$Comp
L Regulator_Switching:LM2596S-3.3 U3
U 1 1 5CACF084
P 1900 7500
F 0 "U3" H 1900 7867 50  0000 C CNN
F 1 "LM2596S-3.3" H 1900 7776 50  0000 C CNN
F 2 "Package_TO_SOT_SMD:TO-263-5_TabPin3" H 1950 7250 50  0001 L CIN
F 3 "http://www.ti.com/lit/ds/symlink/lm2596.pdf" H 1900 7500 50  0001 C CNN
	1    1900 7500
	1    0    0    -1  
$EndComp
$Comp
L power:+BATT #PWR0111
U 1 1 5CACF219
P 1500 800
F 0 "#PWR0111" H 1500 650 50  0001 C CNN
F 1 "+BATT" H 1515 973 50  0000 C CNN
F 2 "" H 1500 800 50  0001 C CNN
F 3 "" H 1500 800 50  0001 C CNN
	1    1500 800 
	1    0    0    -1  
$EndComp
$Comp
L power:+3.3V #PWR0112
U 1 1 5CAD03CD
P 3050 7300
F 0 "#PWR0112" H 3050 7150 50  0001 C CNN
F 1 "+3.3V" H 3065 7473 50  0000 C CNN
F 2 "" H 3050 7300 50  0001 C CNN
F 3 "" H 3050 7300 50  0001 C CNN
	1    3050 7300
	1    0    0    -1  
$EndComp
$Comp
L power:+BATT #PWR0113
U 1 1 5CAD146D
P 850 7400
F 0 "#PWR0113" H 850 7250 50  0001 C CNN
F 1 "+BATT" H 865 7573 50  0000 C CNN
F 2 "" H 850 7400 50  0001 C CNN
F 3 "" H 850 7400 50  0001 C CNN
	1    850  7400
	1    0    0    -1  
$EndComp
$Comp
L power:GND #PWR0114
U 1 1 5CAD4A1A
P 850 7600
F 0 "#PWR0114" H 850 7350 50  0001 C CNN
F 1 "GND" H 855 7427 50  0000 C CNN
F 2 "" H 850 7600 50  0001 C CNN
F 3 "" H 850 7600 50  0001 C CNN
	1    850  7600
	1    0    0    -1  
$EndComp
Wire Wire Line
	1400 7800 1900 7800
$Comp
L pspice:INDUCTOR L1
U 1 1 5CAD7490
P 2700 7600
F 0 "L1" H 2700 7815 50  0000 C CNN
F 1 "33µH@3A" H 2700 7724 50  0000 C CNN
F 2 "footprints:2100LL-330-H-RC" H 2700 7600 50  0001 C CNN
F 3 "https://www.digikey.com/product-detail/en/bourns-inc/2100LL-330-H-RC/M1406-ND/725953" H 2700 7600 50  0001 C CNN
	1    2700 7600
	1    0    0    -1  
$EndComp
Wire Wire Line
	2400 7400 2400 7300
Wire Wire Line
	2400 7300 3050 7300
Wire Wire Line
	3050 7300 3050 7600
Connection ~ 3050 7300
Wire Wire Line
	1900 7800 2450 7800
Connection ~ 1900 7800
$Comp
L Device:D_Schottky_Small D1
U 1 1 5CADBCAE
P 2450 7700
F 0 "D1" V 2404 7768 50  0000 L CNN
F 1 "STPS5L25" V 2495 7768 50  0000 L CNN
F 2 "Diode_SMD:D_SMA-SMB_Universal_Handsoldering" V 2450 7700 50  0001 C CNN
F 3 "https://www.st.com/content/ccc/resource/technical/document/datasheet/68/39/58/a7/fe/b4/45/ac/CD00000845.pdf/files/CD00000845.pdf/jcr:content/translations/en.CD00000845.pdf" V 2450 7700 50  0001 C CNN
	1    2450 7700
	0    1    1    0   
$EndComp
Connection ~ 2450 7800
Wire Wire Line
	2450 7800 3050 7800
$Comp
L Device:R_Small R1
U 1 1 5CADCD0E
P 10250 2250
F 0 "R1" H 10309 2296 50  0000 L CNN
F 1 "15K" H 10309 2205 50  0000 L CNN
F 2 "Resistor_THT:R_Box_L13.0mm_W4.0mm_P9.00mm" H 10250 2250 50  0001 C CNN
F 3 "~" H 10250 2250 50  0001 C CNN
	1    10250 2250
	1    0    0    -1  
$EndComp
$Comp
L Device:R_Small R2
U 1 1 5CADECCD
P 10250 2550
F 0 "R2" H 10191 2504 50  0000 R CNN
F 1 "1K" H 10191 2595 50  0000 R CNN
F 2 "Resistor_THT:R_Box_L13.0mm_W4.0mm_P9.00mm" H 10250 2550 50  0001 C CNN
F 3 "~" H 10250 2550 50  0001 C CNN
	1    10250 2550
	-1   0    0    1   
$EndComp
$Comp
L power:+BATT #PWR0115
U 1 1 5CAE25C5
P 10250 2150
F 0 "#PWR0115" H 10250 2000 50  0001 C CNN
F 1 "+BATT" H 10265 2323 50  0000 C CNN
F 2 "" H 10250 2150 50  0001 C CNN
F 3 "" H 10250 2150 50  0001 C CNN
	1    10250 2150
	1    0    0    -1  
$EndComp
$Comp
L power:GND #PWR0116
U 1 1 5CAE26BD
P 10250 2650
F 0 "#PWR0116" H 10250 2400 50  0001 C CNN
F 1 "GND" H 10255 2477 50  0000 C CNN
F 2 "" H 10250 2650 50  0001 C CNN
F 3 "" H 10250 2650 50  0001 C CNN
	1    10250 2650
	1    0    0    -1  
$EndComp
Text Label 1000 1200 0    50   ~ 0
BATTISO+
Text Label 1000 1100 0    50   ~ 0
SHUNT+
$Comp
L Device:CP_Small C2
U 1 1 5CAEA068
P 3050 7700
F 0 "C2" H 3141 7747 50  0000 L CNN
F 1 "470µF@50V" H 3141 7654 50  0000 L CNN
F 2 "Capacitor_THT:CP_Radial_D10.0mm_P3.80mm" H 3050 7700 50  0001 C CNN
F 3 "~" H 3050 7700 50  0001 C CNN
	1    3050 7700
	1    0    0    -1  
$EndComp
$Comp
L Device:CP_Small C1
U 1 1 5CAEA11A
P 850 7500
F 0 "C1" H 941 7547 50  0000 L CNN
F 1 "470μF@50V" H 941 7454 50  0000 L CNN
F 2 "Capacitor_THT:CP_Radial_D10.0mm_P3.80mm" H 850 7500 50  0001 C CNN
F 3 "~" H 850 7500 50  0001 C CNN
	1    850  7500
	1    0    0    -1  
$EndComp
Connection ~ 850  7400
Wire Wire Line
	850  7400 1400 7400
Wire Wire Line
	1400 7600 1400 7800
Wire Wire Line
	1400 7600 850  7600
Connection ~ 1400 7600
Connection ~ 850  7600
Wire Notes Line
	3650 7900 700  7900
Text Notes 1850 6950 0    50   ~ 0
Power Supply
Wire Notes Line
	3650 7900 3650 6800
Wire Notes Line
	3650 6800 700  6800
Wire Notes Line
	700  6800 700  7900
Wire Wire Line
	2650 5550 3100 5550
$Comp
L Device:C_Small C6
U 1 1 5CAED1B9
P 2650 4150
F 0 "C6" H 2742 4197 50  0000 L CNN
F 1 "10µF" H 2742 4104 50  0000 L CNN
F 2 "Capacitor_SMD:C_0805_2012Metric_Pad1.15x1.40mm_HandSolder" H 2650 4150 50  0001 C CNN
F 3 "~" H 2650 4150 50  0001 C CNN
	1    2650 4150
	1    0    0    -1  
$EndComp
Wire Wire Line
	3100 4250 2650 4250
$Comp
L Device:C_Small C9
U 1 1 5CAED115
P 3100 4150
F 0 "C9" H 3192 4197 50  0000 L CNN
F 1 "100nF" H 3192 4104 50  0000 L CNN
F 2 "Capacitor_SMD:C_0805_2012Metric_Pad1.15x1.40mm_HandSolder" H 3100 4150 50  0001 C CNN
F 3 "~" H 3100 4150 50  0001 C CNN
	1    3100 4150
	1    0    0    -1  
$EndComp
$Comp
L Device:C_Small C11
U 1 1 5CAEEE6F
P 3100 5450
F 0 "C11" H 3192 5497 50  0000 L CNN
F 1 "100nF" H 3192 5404 50  0000 L CNN
F 2 "Capacitor_SMD:C_0805_2012Metric_Pad1.15x1.40mm_HandSolder" H 3100 5450 50  0001 C CNN
F 3 "~" H 3100 5450 50  0001 C CNN
	1    3100 5450
	1    0    0    -1  
$EndComp
$Comp
L Device:C_Small C8
U 1 1 5CAEEE76
P 2650 5450
F 0 "C8" H 2742 5497 50  0000 L CNN
F 1 "4.7µF" H 2742 5404 50  0000 L CNN
F 2 "Capacitor_SMD:C_0805_2012Metric_Pad1.15x1.40mm_HandSolder" H 2650 5450 50  0001 C CNN
F 3 "~" H 2650 5450 50  0001 C CNN
	1    2650 5450
	1    0    0    -1  
$EndComp
Connection ~ 3100 5350
Wire Wire Line
	3100 5350 2650 5350
$Comp
L power:GNDD #PWR0117
U 1 1 5CAF17D3
P 2400 4250
F 0 "#PWR0117" H 2400 4000 50  0001 C CNN
F 1 "GNDD" H 2405 4094 50  0000 C CNN
F 2 "" H 2400 4250 50  0001 C CNN
F 3 "" H 2400 4250 50  0001 C CNN
	1    2400 4250
	1    0    0    -1  
$EndComp
Connection ~ 3100 4250
Wire Wire Line
	2650 4450 3100 4450
$Comp
L Device:C_Small C7
U 1 1 5CAF5528
P 2650 4350
F 0 "C7" H 2742 4397 50  0000 L CNN
F 1 "4.7µF" H 2742 4304 50  0000 L CNN
F 2 "Capacitor_SMD:C_0805_2012Metric_Pad1.15x1.40mm_HandSolder" H 2650 4350 50  0001 C CNN
F 3 "~" H 2650 4350 50  0001 C CNN
	1    2650 4350
	1    0    0    -1  
$EndComp
$Comp
L Device:C_Small C10
U 1 1 5CAF552F
P 3100 4350
F 0 "C10" H 3192 4397 50  0000 L CNN
F 1 "100nF" H 3192 4304 50  0000 L CNN
F 2 "Capacitor_SMD:C_0805_2012Metric_Pad1.15x1.40mm_HandSolder" H 3100 4350 50  0001 C CNN
F 3 "~" H 3100 4350 50  0001 C CNN
	1    3100 4350
	1    0    0    -1  
$EndComp
Wire Wire Line
	3100 4050 2650 4050
$Comp
L Device:D_Small D3
U 1 1 5CAF68AA
P 2050 5250
F 0 "D3" V 2050 5350 50  0000 L CNN
F 1 "BAS16LT1G " V 2250 5300 50  0000 L CNN
F 2 "Diode_SMD:D_SOT-23_ANK" V 2050 5250 50  0001 C CNN
F 3 "www.onsemi.com/pub/Collateral/BAS16LT1-D.PDF" V 2050 5250 50  0001 C CNN
	1    2050 5250
	0    1    1    0   
$EndComp
$Comp
L Device:D_Small D2
U 1 1 5CAF72EC
P 1600 5250
F 0 "D2" V 1600 5150 50  0000 R CNN
F 1 "BAS16LT1G " V 1400 5200 50  0000 R CNN
F 2 "Diode_SMD:D_SOT-23_ANK" V 1600 5250 50  0001 C CNN
F 3 "www.onsemi.com/pub/Collateral/BAS16LT1-D.PDF" V 1600 5250 50  0001 C CNN
	1    1600 5250
	0    -1   -1   0   
$EndComp
Wire Wire Line
	2050 5350 1600 5350
Wire Wire Line
	2050 5150 1600 5150
Wire Wire Line
	3100 5350 3550 5350
$Comp
L Device:C_Small C5
U 1 1 5CAFD22E
P 1250 5350
F 0 "C5" V 1018 5350 50  0000 C CNN
F 1 "33nF" V 1111 5350 50  0000 C CNN
F 2 "Capacitor_SMD:C_0805_2012Metric_Pad1.15x1.40mm_HandSolder" H 1250 5350 50  0001 C CNN
F 3 "~" H 1250 5350 50  0001 C CNN
	1    1250 5350
	0    1    1    0   
$EndComp
Wire Wire Line
	1600 5350 1350 5350
Connection ~ 1600 5350
$Comp
L power:GNDD #PWR0118
U 1 1 5CAFF0AC
P 1150 5550
F 0 "#PWR0118" H 1150 5300 50  0001 C CNN
F 1 "GNDD" H 1154 5395 50  0000 C CNN
F 2 "" H 1150 5550 50  0001 C CNN
F 3 "" H 1150 5550 50  0001 C CNN
	1    1150 5550
	1    0    0    -1  
$EndComp
Wire Wire Line
	1150 5350 1150 5550
Wire Wire Line
	2050 5350 2450 5350
Wire Wire Line
	2450 5350 2450 5250
Wire Wire Line
	2450 5250 3550 5250
Connection ~ 2050 5350
Connection ~ 2650 4250
Wire Wire Line
	2400 4250 2650 4250
$Comp
L Device:C_Small C12
U 1 1 5CAEC8AB
P 5750 5000
F 0 "C12" V 5521 5000 50  0000 C CNN
F 1 "22pF" V 5612 5000 50  0000 C CNN
F 2 "Capacitor_SMD:C_0805_2012Metric_Pad1.15x1.40mm_HandSolder" H 5750 5000 50  0001 C CNN
F 3 "https://www.samsungsem.com/kr/support/product-search/mlcc/__icsFiles/afieldfile/2018/06/11/CL21C470JC61PNC.pdf" H 5750 5000 50  0001 C CNN
	1    5750 5000
	0    1    1    0   
$EndComp
Text Label 8550 3350 0    50   ~ 0
MISO
Text Label 8550 3450 0    50   ~ 0
MOSI
Text Label 8550 3550 0    50   ~ 0
SCK
$Comp
L board-rescue:ATmega328P-PU-MCU_Microchip_ATmega U2
U 1 1 5CA608DD
P 7950 2550
F 0 "U2" H 7309 2596 50  0000 R CNN
F 1 "ATmega328P-PU" H 7309 2505 50  0000 R CNN
F 2 "Package_DIP:DIP-28_W7.62mm" H 7950 2550 50  0001 C CIN
F 3 "http://ww1.microchip.com/downloads/en/DeviceDoc/ATmega328_P%20AVR%20MCU%20with%20picoPower%20Technology%20Data%20Sheet%2040001984A.pdf" H 7950 2550 50  0001 C CNN
	1    7950 2550
	1    0    0    -1  
$EndComp
Text Label 8550 3250 0    50   ~ 0
CS
Text Notes 3450 5950 0    50   Italic 0
*V2P only available for ADE7913
$Comp
L power:GND #PWR0119
U 1 1 5CAFFDE6
P 5000 4500
F 0 "#PWR0119" H 5000 4250 50  0001 C CNN
F 1 "GND" H 5005 4327 50  0000 C CNN
F 2 "" H 5000 4500 50  0001 C CNN
F 3 "" H 5000 4500 50  0001 C CNN
	1    5000 4500
	0    -1   -1   0   
$EndComp
$Comp
L Device:R R3
U 1 1 5CB026A3
P 2650 4650
F 0 "R3" V 2550 4650 50  0000 C CNN
F 1 "249K" V 2650 4650 50  0000 C CNN
F 2 "Resistor_THT:R_Box_L13.0mm_W4.0mm_P9.00mm" H 2650 4650 50  0001 C CNN
F 3 "CMF55249K00BEEB " H 2650 4650 50  0001 C CNN
	1    2650 4650
	0    -1   -1   0   
$EndComp
$Comp
L Device:R R4
U 1 1 5CB0E67B
P 2950 4650
F 0 "R4" V 2850 4650 50  0000 C CNN
F 1 "1K" V 2950 4650 50  0000 C CNN
F 2 "Resistor_THT:R_Box_L13.0mm_W4.0mm_P9.00mm" H 2950 4650 50  0001 C CNN
F 3 " CMF551K0000BEEB " H 2950 4650 50  0001 C CNN
	1    2950 4650
	0    -1   -1   0   
$EndComp
Wire Wire Line
	2050 5150 3550 5150
Text Label 2100 4650 0    50   ~ 0
BATTISO+
$Comp
L power:+3.3V #PWR0120
U 1 1 5CB2BC5A
P 1850 800
F 0 "#PWR0120" H 1850 650 50  0001 C CNN
F 1 "+3.3V" H 1865 973 50  0000 C CNN
F 2 "" H 1850 800 50  0001 C CNN
F 3 "" H 1850 800 50  0001 C CNN
	1    1850 800 
	1    0    0    -1  
$EndComp
Wire Wire Line
	1500 800  1000 800 
Text Label 1600 5650 0    50   ~ 0
SHUNT+
Wire Wire Line
	1000 900  1850 900 
Wire Wire Line
	1850 900  1850 800 
Connection ~ 2650 5550
Wire Wire Line
	2100 4650 2500 4650
Wire Wire Line
	3100 5550 3550 5550
Wire Wire Line
	3550 5550 3550 5450
Connection ~ 3100 5550
Wire Wire Line
	1600 5350 1600 5650
Wire Wire Line
	1600 5150 1600 4950
Wire Wire Line
	1600 4950 1150 4950
Wire Wire Line
	1150 4950 1150 5350
Connection ~ 1600 5150
Connection ~ 1150 5350
Wire Wire Line
	3100 4050 3550 4050
Wire Wire Line
	3550 4050 3550 4500
Connection ~ 3100 4050
Wire Wire Line
	3100 4250 3450 4250
Wire Wire Line
	3450 4250 3450 4600
Wire Wire Line
	3450 4600 3550 4600
Wire Wire Line
	3100 4450 3350 4450
Wire Wire Line
	3350 4450 3350 4750
Wire Wire Line
	3350 4750 3550 4750
Connection ~ 3100 4450
Connection ~ 2050 5150
Wire Wire Line
	3100 4650 3100 4700
Wire Wire Line
	3100 4650 3250 4650
Wire Wire Line
	3250 4850 3550 4850
Wire Wire Line
	3250 4650 3250 4850
$Comp
L power:GNDD #PWR0121
U 1 1 5CB1293B
P 3100 4700
F 0 "#PWR0121" H 3100 4450 50  0001 C CNN
F 1 "GNDD" H 3100 4550 50  0000 C CNN
F 2 "" H 3100 4700 50  0001 C CNN
F 3 "" H 3100 4700 50  0001 C CNN
	1    3100 4700
	1    0    0    -1  
$EndComp
Wire Wire Line
	3550 4850 3550 4950
Connection ~ 3550 4850
Wire Wire Line
	2800 4650 2800 5050
Wire Wire Line
	2800 5050 3550 5050
Connection ~ 2800 4650
$Comp
L Device:Crystal_Small Y2
U 1 1 5CFE8514
P 9050 2000
F 0 "Y2" V 9050 1950 50  0000 L CNN
F 1 "16MHz" V 9095 2088 50  0000 L CNN
F 2 "Crystal:Crystal_HC49-U_Vertical" H 9050 2000 50  0001 C CNN
F 3 "~" H 9050 2000 50  0001 C CNN
	1    9050 2000
	0    1    1    0   
$EndComp
Connection ~ 3100 4650
Wire Wire Line
	8550 1950 8800 1950
Wire Wire Line
	8800 1950 8800 1900
Wire Wire Line
	8800 1900 9050 1900
Wire Wire Line
	8550 2050 8800 2050
Wire Wire Line
	8800 2050 8800 2100
Wire Wire Line
	8800 2100 9050 2100
$Comp
L power:GND #PWR0122
U 1 1 5D001B48
P 10000 2000
F 0 "#PWR0122" H 10000 1750 50  0001 C CNN
F 1 "GND" H 10005 1827 50  0000 C CNN
F 2 "" H 10000 2000 50  0001 C CNN
F 3 "" H 10000 2000 50  0001 C CNN
	1    10000 2000
	1    0    0    -1  
$EndComp
$Comp
L Device:C_Small C14
U 1 1 5D001D9F
P 9650 1800
F 0 "C14" V 9421 1800 50  0000 C CNN
F 1 "22pF" V 9512 1800 50  0000 C CNN
F 2 "Capacitor_THT:C_Disc_D10.0mm_W2.5mm_P5.00mm" H 9650 1800 50  0001 C CNN
F 3 "~" H 9650 1800 50  0001 C CNN
	1    9650 1800
	0    1    1    0   
$EndComp
$Comp
L Device:C_Small C15
U 1 1 5D001EFB
P 9650 2200
F 0 "C15" V 9879 2200 50  0000 C CNN
F 1 "22pF" V 9788 2200 50  0000 C CNN
F 2 "Capacitor_THT:C_Disc_D10.0mm_W2.5mm_P5.00mm" H 9650 2200 50  0001 C CNN
F 3 "~" H 9650 2200 50  0001 C CNN
	1    9650 2200
	0    -1   -1   0   
$EndComp
Wire Wire Line
	9050 1900 9050 1800
Wire Wire Line
	9050 1800 9550 1800
Connection ~ 9050 1900
Wire Wire Line
	9050 2100 9050 2200
Wire Wire Line
	9050 2200 9550 2200
Connection ~ 9050 2100
Wire Wire Line
	9750 1800 9750 2000
Wire Wire Line
	9750 2000 10000 2000
Wire Wire Line
	9750 2200 9750 2000
Connection ~ 9750 2000
Wire Wire Line
	10250 2350 10250 2400
Wire Wire Line
	9500 2250 9500 2400
Wire Wire Line
	9500 2400 10250 2400
Wire Wire Line
	8550 2250 9500 2250
Connection ~ 10250 2400
Wire Wire Line
	10250 2400 10250 2450
Text Label 8550 1350 0    50   ~ 0
PB0
Text Label 8550 1450 0    50   ~ 0
PB1
Text Label 8550 1550 0    50   ~ 0
PB2
Text Label 8550 1650 0    50   ~ 0
PB3
Text Label 8550 1750 0    50   ~ 0
PB4
Text Label 8550 1850 0    50   ~ 0
PB5
Text Label 8550 1950 0    50   ~ 0
PB6
Text Label 8550 2050 0    50   ~ 0
PB7
Text Label 8550 2250 0    50   ~ 0
PC0
Text Label 8550 2350 0    50   ~ 0
PC1
Text Label 8550 2450 0    50   ~ 0
PC2
Text Label 8550 2550 0    50   ~ 0
PC3
Text Label 8550 2650 0    50   ~ 0
PC4
Text Label 8550 2750 0    50   ~ 0
PC5
Text Label 8550 3050 0    50   ~ 0
PD0
Text Label 8550 3150 0    50   ~ 0
PD1
Text Label 8550 3650 0    50   ~ 0
PD6
Text Label 8550 3750 0    50   ~ 0
PD7
$Comp
L Device:C_Small C3
U 1 1 5CFE78AE
P 4900 4500
F 0 "C3" V 4671 4500 50  0000 C CNN
F 1 "100nF" V 4762 4500 50  0000 C CNN
F 2 "Capacitor_THT:C_Disc_D10.0mm_W2.5mm_P5.00mm" H 4900 4500 50  0001 C CNN
F 3 "~" H 4900 4500 50  0001 C CNN
	1    4900 4500
	0    1    1    0   
$EndComp
Wire Wire Line
	4800 4500 4650 4500
Connection ~ 4650 4500
Wire Wire Line
	4650 4500 4650 4450
Wire Wire Line
	4550 4500 4650 4500
Wire Wire Line
	5000 4600 5000 4500
Wire Wire Line
	4550 4600 5000 4600
Connection ~ 5000 4500
Connection ~ 5850 5400
Wire Wire Line
	5850 5400 5850 5550
Wire Wire Line
	5850 5000 5850 5400
Wire Wire Line
	4550 5150 4900 5150
Wire Wire Line
	4900 5150 4900 5100
Wire Wire Line
	4900 5100 5100 5100
Wire Wire Line
	4550 5250 4900 5250
Wire Wire Line
	4900 5250 4900 5300
Wire Wire Line
	4900 5300 5100 5300
Wire Wire Line
	5100 5300 5400 5300
Wire Wire Line
	5400 5300 5400 5400
Wire Wire Line
	5400 5400 5650 5400
Connection ~ 5100 5300
Wire Wire Line
	5100 5100 5400 5100
Wire Wire Line
	5400 5100 5400 5000
Wire Wire Line
	5400 5000 5650 5000
Connection ~ 5100 5100
$Comp
L Connector:Conn_01x14_Female J4
U 1 1 5D00889C
P 9950 5750
F 0 "J4" H 9750 6600 50  0000 L CNN
F 1 "Conn_01x14_Female" H 9450 6500 50  0000 L CNN
F 2 "Connector_PinHeader_2.54mm:PinHeader_1x14_P2.54mm_Vertical" H 9950 5750 50  0001 C CNN
F 3 "https://www.digikey.com/product-detail/en/sullins-connector-solutions/PPTC141LFBN-RC/S7012-ND/810152" H 9950 5750 50  0001 C CNN
	1    9950 5750
	1    0    0    -1  
$EndComp
Text Label 9750 5150 2    50   ~ 0
PC5
Text Label 9750 5250 2    50   ~ 0
PC4
Text Label 9750 5650 2    50   ~ 0
PC0
Text Label 9750 5550 2    50   ~ 0
PC1
Text Label 9750 5450 2    50   ~ 0
PC2
Text Label 9750 5350 2    50   ~ 0
PC3
Text Label 9750 6450 2    50   ~ 0
PB1
Text Label 9750 5850 2    50   ~ 0
AREF
$Comp
L power:+3.3V #PWR0123
U 1 1 5D0253D7
P 9500 5950
F 0 "#PWR0123" H 9500 5800 50  0001 C CNN
F 1 "+3.3V" H 9250 5950 50  0000 L CNN
F 2 "" H 9500 5950 50  0001 C CNN
F 3 "" H 9500 5950 50  0001 C CNN
	1    9500 5950
	1    0    0    -1  
$EndComp
Wire Wire Line
	9750 5950 9500 5950
Text Label 7350 1350 2    50   ~ 0
AREF
$Comp
L Connector:Conn_01x14_Female J3
U 1 1 5D03407E
P 8250 5850
F 0 "J3" H 8144 4925 50  0000 C CNN
F 1 "Conn_01x14_Female" H 8144 5016 50  0000 C CNN
F 2 "Connector_PinHeader_2.54mm:PinHeader_1x14_P2.54mm_Vertical" H 8250 5850 50  0001 C CNN
F 3 "https://www.digikey.com/product-detail/en/sullins-connector-solutions/PPTC141LFBN-RC/S7012-ND/810152" H 8250 5850 50  0001 C CNN
	1    8250 5850
	-1   0    0    1   
$EndComp
Text Label 8450 5150 0    50   ~ 0
PC6
Text Label 8450 5250 0    50   ~ 0
PD0
Text Label 8450 5350 0    50   ~ 0
PD1
Text Label 8450 5450 0    50   ~ 0
PD2
Text Label 8450 5550 0    50   ~ 0
PD3
Text Label 8450 5650 0    50   ~ 0
PD4
$Comp
L power:+3.3V #PWR0124
U 1 1 5D036463
P 8700 5750
F 0 "#PWR0124" H 8700 5600 50  0001 C CNN
F 1 "+3.3V" H 8715 5878 50  0000 L CNN
F 2 "" H 8700 5750 50  0001 C CNN
F 3 "" H 8700 5750 50  0001 C CNN
	1    8700 5750
	1    0    0    -1  
$EndComp
Wire Wire Line
	8700 5750 8450 5750
$Comp
L power:GND #PWR0125
U 1 1 5D03861E
P 9000 6000
F 0 "#PWR0125" H 9000 5750 50  0001 C CNN
F 1 "GND" H 9050 5850 50  0000 R CNN
F 2 "" H 9000 6000 50  0001 C CNN
F 3 "" H 9000 6000 50  0001 C CNN
	1    9000 6000
	1    0    0    -1  
$EndComp
Wire Wire Line
	9100 5750 9100 5850
Wire Wire Line
	9100 5750 9750 5750
Wire Wire Line
	8450 5850 9000 5850
Wire Wire Line
	9000 5850 9000 6000
Connection ~ 9000 5850
Wire Wire Line
	9000 5850 9100 5850
Text Label 8450 5950 0    50   ~ 0
PB6
Text Label 8450 6050 0    50   ~ 0
PB7
Text Label 8450 6150 0    50   ~ 0
PD5
Text Label 8450 6250 0    50   ~ 0
PD6
Text Label 8450 6350 0    50   ~ 0
PD7
Text Label 8450 6450 0    50   ~ 0
PB0
$Comp
L power:GND #PWR0126
U 1 1 5D044819
P 8400 900
F 0 "#PWR0126" H 8400 650 50  0001 C CNN
F 1 "GND" H 8405 727 50  0000 C CNN
F 2 "" H 8400 900 50  0001 C CNN
F 3 "" H 8400 900 50  0001 C CNN
	1    8400 900 
	1    0    0    -1  
$EndComp
Wire Wire Line
	7950 900  8050 900 
Wire Wire Line
	8050 900  8050 1050
Wire Wire Line
	7950 1050 7950 900 
Connection ~ 7950 900 
$Comp
L Device:C_Small C13
U 1 1 5D04931E
P 8300 900
F 0 "C13" V 8071 900 50  0000 C CNN
F 1 "100nF" V 8162 900 50  0000 C CNN
F 2 "Capacitor_THT:C_Disc_D10.0mm_W2.5mm_P5.00mm" H 8300 900 50  0001 C CNN
F 3 "~" H 8300 900 50  0001 C CNN
	1    8300 900 
	0    1    1    0   
$EndComp
Wire Wire Line
	8200 900  8050 900 
Connection ~ 8050 900 
Wire Wire Line
	2950 7600 3050 7600
Connection ~ 3050 7600
Wire Wire Line
	2400 7600 2450 7600
Connection ~ 2450 7600
$Comp
L RF_AM_FM:RFM95W-868S2 U?
U 1 1 5D0C1567
P 4350 1550
F 0 "U?" H 3950 2200 50  0000 C CNN
F 1 "RFM95W-868S2" H 3850 2100 50  0000 C CNN
F 2 "" H 1050 3200 50  0001 C CNN
F 3 "http://www.hoperf.com/upload/rf/RFM95_96_97_98W.pdf" H 1050 3200 50  0001 C CNN
	1    4350 1550
	1    0    0    -1  
$EndComp
$Comp
L Device:C_Small C?
U 1 1 5D0CEE38
P 7350 1450
F 0 "C?" H 7150 1500 50  0000 C CNN
F 1 "100nF" H 7200 1400 50  0000 C CNN
F 2 "Capacitor_THT:C_Disc_D10.0mm_W2.5mm_P5.00mm" H 7350 1450 50  0001 C CNN
F 3 "~" H 7350 1450 50  0001 C CNN
	1    7350 1450
	1    0    0    -1  
$EndComp
$Comp
L power:GND #PWR?
U 1 1 5D0CF144
P 7350 1550
F 0 "#PWR?" H 7350 1300 50  0001 C CNN
F 1 "GND" H 7355 1377 50  0000 C CNN
F 2 "" H 7350 1550 50  0001 C CNN
F 3 "" H 7350 1550 50  0001 C CNN
	1    7350 1550
	1    0    0    -1  
$EndComp
Text Label 4550 4750 0    50   ~ 0
CS
Text Label 9750 6150 2    50   ~ 0
MISO
Text Label 9750 6250 2    50   ~ 0
MOSI
Text Label 9750 6050 2    50   ~ 0
SCK
Text Label 9750 6350 2    50   ~ 0
CS
Text Label 10500 5600 0    50   ~ 0
PD0
Text Label 10500 5700 0    50   ~ 0
PD1
Text Label 10500 6200 0    50   ~ 0
PD6
Text Label 10500 6300 0    50   ~ 0
PD7
Text Label 3850 1550 2    50   ~ 0
PD6
$Comp
L power:GND #PWR?
U 1 1 5D0F274C
P 4350 2150
F 0 "#PWR?" H 4350 1900 50  0001 C CNN
F 1 "GND" H 4355 1977 50  0000 C CNN
F 2 "" H 4350 2150 50  0001 C CNN
F 3 "" H 4350 2150 50  0001 C CNN
	1    4350 2150
	1    0    0    -1  
$EndComp
Wire Wire Line
	4250 2150 4350 2150
Connection ~ 4350 2150
Wire Wire Line
	4350 2150 4450 2150
$Comp
L Connector:Conn_Coaxial J?
U 1 1 5D0F7D73
P 5050 1250
F 0 "J?" H 5149 1226 50  0000 L CNN
F 1 "Conn_Coaxial" H 5149 1135 50  0000 L CNN
F 2 "" H 5050 1250 50  0001 C CNN
F 3 " ~" H 5050 1250 50  0001 C CNN
	1    5050 1250
	1    0    0    -1  
$EndComp
$Comp
L power:GND #PWR?
U 1 1 5D0F7E8A
P 5050 1450
F 0 "#PWR?" H 5050 1200 50  0001 C CNN
F 1 "GND" H 5055 1277 50  0000 C CNN
F 2 "" H 5050 1450 50  0001 C CNN
F 3 "" H 5050 1450 50  0001 C CNN
	1    5050 1450
	1    0    0    -1  
$EndComp
$Comp
L power:+3.3V #PWR?
U 1 1 5D0F8292
P 4350 900
F 0 "#PWR?" H 4350 750 50  0001 C CNN
F 1 "+3.3V" H 4365 1073 50  0000 C CNN
F 2 "" H 4350 900 50  0001 C CNN
F 3 "" H 4350 900 50  0001 C CNN
	1    4350 900 
	1    0    0    -1  
$EndComp
$Comp
L power:GND #PWR?
U 1 1 5D0F8298
P 4700 900
F 0 "#PWR?" H 4700 650 50  0001 C CNN
F 1 "GND" H 4705 727 50  0000 C CNN
F 2 "" H 4700 900 50  0001 C CNN
F 3 "" H 4700 900 50  0001 C CNN
	1    4700 900 
	1    0    0    -1  
$EndComp
Wire Wire Line
	4350 900  4350 1050
$Comp
L Device:C_Small C?
U 1 1 5D0F82A2
P 4600 900
F 0 "C?" V 4371 900 50  0000 C CNN
F 1 "100nF" V 4462 900 50  0000 C CNN
F 2 "Capacitor_THT:C_Disc_D10.0mm_W2.5mm_P5.00mm" H 4600 900 50  0001 C CNN
F 3 "~" H 4600 900 50  0001 C CNN
	1    4600 900 
	0    1    1    0   
$EndComp
Wire Wire Line
	4500 900  4350 900 
Connection ~ 4350 900 
Text Label 3850 1250 2    50   ~ 0
MISO
Text Label 3850 1350 2    50   ~ 0
MOSI
Text Label 3850 1450 2    50   ~ 0
SCK
Text Label 4850 1950 0    50   ~ 0
PD7
$EndSCHEMATC
