EESchema Schematic File Version 4
EELAYER 30 0
EELAYER END
$Descr USLetter 11000 8500
encoding utf-8
Sheet 1 1
Title "Solar Car Telemetry System"
Date "2020-03-12"
Rev ""
Comp ""
Comment1 ""
Comment2 ""
Comment3 ""
Comment4 ""
$EndDescr
$Comp
L power:+3.3V #PWR022
U 1 1 5E5C2C29
P 4200 3150
AR Path="/5E5C2C29" Ref="#PWR022"  Part="1" 
AR Path="/5E28CC93/5E5C2C29" Ref="#PWR?"  Part="1" 
F 0 "#PWR022" H 4200 3000 50  0001 C CNN
F 1 "+3.3V" H 4215 3323 50  0000 C CNN
F 2 "" H 4200 3150 50  0001 C CNN
F 3 "" H 4200 3150 50  0001 C CNN
	1    4200 3150
	1    0    0    -1  
$EndComp
$Comp
L power:GND #PWR018
U 1 1 5E5C2C2F
P 4150 4200
AR Path="/5E5C2C2F" Ref="#PWR018"  Part="1" 
AR Path="/5E28CC93/5E5C2C2F" Ref="#PWR?"  Part="1" 
F 0 "#PWR018" H 4150 3950 50  0001 C CNN
F 1 "GND" H 4155 4027 50  0000 C CNN
F 2 "" H 4150 4200 50  0001 C CNN
F 3 "" H 4150 4200 50  0001 C CNN
	1    4150 4200
	1    0    0    -1  
$EndComp
Wire Wire Line
	4100 4150 4150 4150
Wire Wire Line
	4150 4150 4150 4200
Text Label 4100 3750 0    50   ~ 0
MISO
Text Label 4100 3650 0    50   ~ 0
MOSI
Text Label 4100 3550 0    50   ~ 0
SCK
$Comp
L power:GNDD #PWR013
U 1 1 5E5C2C41
P 2200 4250
AR Path="/5E5C2C41" Ref="#PWR013"  Part="1" 
AR Path="/5E28CC93/5E5C2C41" Ref="#PWR?"  Part="1" 
F 0 "#PWR013" H 2200 4000 50  0001 C CNN
F 1 "GNDD" H 2204 4095 50  0000 C CNN
F 2 "" H 2200 4250 50  0001 C CNN
F 3 "" H 2200 4250 50  0001 C CNN
	1    2200 4250
	1    0    0    -1  
$EndComp
$Comp
L Device:Crystal_Small Y1
U 1 1 5E5C2C47
P 4650 3850
AR Path="/5E5C2C47" Ref="Y1"  Part="1" 
AR Path="/5E28CC93/5E5C2C47" Ref="Y?"  Part="1" 
F 0 "Y1" V 4650 3900 50  0000 R CNN
F 1 "4.096MHz" V 4650 4300 50  0000 R CNN
F 2 "Crystal:Crystal_HC49-U_Vertical" H 4650 3850 50  0001 C CNN
F 3 "http://www.ecsxtal.com/store/pdf/hc49ux.pdf" H 4650 3850 50  0001 C CNN
	1    4650 3850
	0    1    1    0   
$EndComp
$Comp
L Device:C_Small C21
U 1 1 5E5C2C4D
P 5300 4050
AR Path="/5E5C2C4D" Ref="C21"  Part="1" 
AR Path="/5E28CC93/5E5C2C4D" Ref="C?"  Part="1" 
F 0 "C21" V 5071 4050 50  0000 C CNN
F 1 "22pF" V 5162 4050 50  0000 C CNN
F 2 "Capacitor_THT:C_Disc_D4.3mm_W1.9mm_P5.00mm" H 5300 4050 50  0001 C CNN
F 3 "https://www.samsungsem.com/kr/support/product-search/mlcc/__icsFiles/afieldfile/2018/06/11/CL21C470JC61PNC.pdf" H 5300 4050 50  0001 C CNN
	1    5300 4050
	0    1    1    0   
$EndComp
$Comp
L power:GND #PWR027
U 1 1 5E5C2C53
P 5400 4200
AR Path="/5E5C2C53" Ref="#PWR027"  Part="1" 
AR Path="/5E28CC93/5E5C2C53" Ref="#PWR?"  Part="1" 
F 0 "#PWR027" H 5400 3950 50  0001 C CNN
F 1 "GND" H 5405 4027 50  0000 C CNN
F 2 "" H 5400 4200 50  0001 C CNN
F 3 "" H 5400 4200 50  0001 C CNN
	1    5400 4200
	1    0    0    -1  
$EndComp
Wire Notes Line
	3500 7600 3500 6500
Wire Wire Line
	2200 4250 2650 4250
$Comp
L Device:C_Small C12
U 1 1 5E5C2CAB
P 2650 4150
AR Path="/5E5C2CAB" Ref="C12"  Part="1" 
AR Path="/5E28CC93/5E5C2CAB" Ref="C?"  Part="1" 
F 0 "C12" H 2742 4197 50  0000 L CNN
F 1 "100nF" H 2742 4104 50  0000 L CNN
F 2 "Capacitor_SMD:C_0805_2012Metric_Pad1.15x1.40mm_HandSolder" H 2650 4150 50  0001 C CNN
F 3 "~" H 2650 4150 50  0001 C CNN
	1    2650 4150
	1    0    0    -1  
$EndComp
$Comp
L Device:CP_Small C6
U 1 1 5E5C2CB1
P 2200 4150
AR Path="/5E5C2CB1" Ref="C6"  Part="1" 
AR Path="/5E28CC93/5E5C2CB1" Ref="C?"  Part="1" 
F 0 "C6" H 2292 4197 50  0000 L CNN
F 1 "4.7µF" H 2292 4104 50  0000 L CNN
F 2 "Capacitor_THT:CP_Radial_D5.0mm_P2.00mm" H 2200 4150 50  0001 C CNN
F 3 "~" H 2200 4150 50  0001 C CNN
	1    2200 4150
	1    0    0    -1  
$EndComp
Connection ~ 2650 4050
Wire Wire Line
	2650 4050 2200 4050
$Comp
L power:GNDD #PWR011
U 1 1 5E5C2CB9
P 1950 2950
AR Path="/5E5C2CB9" Ref="#PWR011"  Part="1" 
AR Path="/5E28CC93/5E5C2CB9" Ref="#PWR?"  Part="1" 
F 0 "#PWR011" H 1950 2700 50  0001 C CNN
F 1 "GNDD" H 1955 2794 50  0000 C CNN
F 2 "" H 1950 2950 50  0001 C CNN
F 3 "" H 1950 2950 50  0001 C CNN
	1    1950 2950
	1    0    0    -1  
$EndComp
$Comp
L Device:D_Small D3
U 1 1 5E5C2CBF
P 1600 3950
AR Path="/5E5C2CBF" Ref="D3"  Part="1" 
AR Path="/5E28CC93/5E5C2CBF" Ref="D?"  Part="1" 
F 0 "D3" V 1600 4050 50  0000 L CNN
F 1 "BAS16LT1G " V 1800 4000 50  0000 L CNN
F 2 "Diode_SMD:D_SOT-23_ANK" V 1600 3950 50  0001 C CNN
F 3 "www.onsemi.com/pub/Collateral/BAS16LT1-D.PDF" V 1600 3950 50  0001 C CNN
	1    1600 3950
	0    1    1    0   
$EndComp
$Comp
L Device:D_Small D1
U 1 1 5E5C2CC5
P 1150 3950
AR Path="/5E5C2CC5" Ref="D1"  Part="1" 
AR Path="/5E28CC93/5E5C2CC5" Ref="D?"  Part="1" 
F 0 "D1" V 1150 3850 50  0000 R CNN
F 1 "BAS16LT1G " V 950 3900 50  0000 R CNN
F 2 "Diode_SMD:D_SOT-23_ANK" V 1150 3950 50  0001 C CNN
F 3 "www.onsemi.com/pub/Collateral/BAS16LT1-D.PDF" V 1150 3950 50  0001 C CNN
	1    1150 3950
	0    -1   -1   0   
$EndComp
Wire Wire Line
	1600 4050 1150 4050
Wire Wire Line
	1600 3850 1150 3850
Wire Wire Line
	2650 4050 3100 4050
$Comp
L Device:C_Small C2
U 1 1 5E5C2CCE
P 900 4050
AR Path="/5E5C2CCE" Ref="C2"  Part="1" 
AR Path="/5E28CC93/5E5C2CCE" Ref="C?"  Part="1" 
F 0 "C2" V 668 4050 50  0000 C CNN
F 1 "33nF" V 761 4050 50  0000 C CNN
F 2 "Capacitor_THT:C_Disc_D4.7mm_W2.5mm_P5.00mm" H 900 4050 50  0001 C CNN
F 3 "~" H 900 4050 50  0001 C CNN
	1    900  4050
	0    1    1    0   
$EndComp
Wire Wire Line
	1150 4050 1000 4050
Connection ~ 1150 4050
$Comp
L power:GNDD #PWR01
U 1 1 5E5C2CD6
P 700 4250
AR Path="/5E5C2CD6" Ref="#PWR01"  Part="1" 
AR Path="/5E28CC93/5E5C2CD6" Ref="#PWR?"  Part="1" 
F 0 "#PWR01" H 700 4000 50  0001 C CNN
F 1 "GNDD" H 704 4095 50  0000 C CNN
F 2 "" H 700 4250 50  0001 C CNN
F 3 "" H 700 4250 50  0001 C CNN
	1    700  4250
	1    0    0    -1  
$EndComp
Wire Wire Line
	1600 4050 2000 4050
Wire Wire Line
	2000 4050 2000 3950
Wire Wire Line
	2000 3950 3100 3950
Connection ~ 1600 4050
Connection ~ 2200 2950
Wire Wire Line
	1950 2950 2200 2950
$Comp
L Device:C_Small C20
U 1 1 5E5C2CE2
P 5300 3650
AR Path="/5E5C2CE2" Ref="C20"  Part="1" 
AR Path="/5E28CC93/5E5C2CE2" Ref="C?"  Part="1" 
F 0 "C20" V 5071 3650 50  0000 C CNN
F 1 "22pF" V 5162 3650 50  0000 C CNN
F 2 "Capacitor_THT:C_Disc_D4.3mm_W1.9mm_P5.00mm" H 5300 3650 50  0001 C CNN
F 3 "https://www.samsungsem.com/kr/support/product-search/mlcc/__icsFiles/afieldfile/2018/06/11/CL21C470JC61PNC.pdf" H 5300 3650 50  0001 C CNN
	1    5300 3650
	0    1    1    0   
$EndComp
Text Notes 1300 3700 0    50   ~ 0
Array shunt and main\nvoltage measurement
$Comp
L power:GND #PWR025
U 1 1 5E5C2CE9
P 4550 3300
AR Path="/5E5C2CE9" Ref="#PWR025"  Part="1" 
AR Path="/5E28CC93/5E5C2CE9" Ref="#PWR?"  Part="1" 
F 0 "#PWR025" H 4550 3050 50  0001 C CNN
F 1 "GND" H 4555 3127 50  0000 C CNN
F 2 "" H 4550 3300 50  0001 C CNN
F 3 "" H 4550 3300 50  0001 C CNN
	1    4550 3300
	1    0    0    -1  
$EndComp
$Comp
L Device:R R1
U 1 1 5E5C2CEF
P 2200 3350
AR Path="/5E5C2CEF" Ref="R1"  Part="1" 
AR Path="/5E28CC93/5E5C2CEF" Ref="R?"  Part="1" 
F 0 "R1" V 2100 3350 50  0000 C CNN
F 1 "249K" V 2200 3350 50  0000 C CNN
F 2 "Resistor_THT:R_Axial_DIN0207_L6.3mm_D2.5mm_P7.62mm_Horizontal" H 2200 3350 50  0001 C CNN
F 3 "CMF55249K00BEEB " H 2200 3350 50  0001 C CNN
	1    2200 3350
	0    -1   -1   0   
$EndComp
$Comp
L Device:R R3
U 1 1 5E5C2CF5
P 2500 3350
AR Path="/5E5C2CF5" Ref="R3"  Part="1" 
AR Path="/5E28CC93/5E5C2CF5" Ref="R?"  Part="1" 
F 0 "R3" V 2400 3350 50  0000 C CNN
F 1 "1K" V 2500 3350 50  0000 C CNN
F 2 "Resistor_THT:R_Axial_DIN0207_L6.3mm_D2.5mm_P7.62mm_Horizontal" H 2500 3350 50  0001 C CNN
F 3 " CMF551K0000BEEB " H 2500 3350 50  0001 C CNN
	1    2500 3350
	0    -1   -1   0   
$EndComp
Wire Wire Line
	1600 3850 3100 3850
Connection ~ 2200 4250
Wire Wire Line
	2650 4250 3100 4250
Wire Wire Line
	3100 4250 3100 4150
Connection ~ 2650 4250
Wire Wire Line
	1150 4050 1150 4350
Wire Wire Line
	1150 3850 1150 3650
Wire Wire Line
	3100 2750 3100 3200
Wire Wire Line
	3000 2950 3000 3300
Wire Wire Line
	3000 3300 3100 3300
Wire Wire Line
	2900 3150 2900 3450
Wire Wire Line
	2900 3450 3100 3450
Connection ~ 1600 3850
Wire Wire Line
	2650 3350 2650 3400
Wire Wire Line
	2650 3350 2800 3350
Wire Wire Line
	2800 3550 3100 3550
Wire Wire Line
	2800 3350 2800 3550
Wire Wire Line
	3100 3550 3100 3650
Wire Wire Line
	2350 3350 2350 3750
Wire Wire Line
	2350 3750 3100 3750
Connection ~ 2350 3350
Connection ~ 2650 3350
$Comp
L Device:C_Small C18
U 1 1 5E5C2D4D
P 4450 3200
AR Path="/5E5C2D4D" Ref="C18"  Part="1" 
AR Path="/5E28CC93/5E5C2D4D" Ref="C?"  Part="1" 
F 0 "C18" V 4221 3200 50  0000 C CNN
F 1 "100nF" V 4312 3200 50  0000 C CNN
F 2 "Capacitor_SMD:C_0805_2012Metric_Pad1.15x1.40mm_HandSolder" H 4450 3200 50  0001 C CNN
F 3 "~" H 4450 3200 50  0001 C CNN
	1    4450 3200
	0    1    1    0   
$EndComp
Wire Wire Line
	4350 3200 4200 3200
Connection ~ 4200 3200
Wire Wire Line
	4200 3200 4200 3150
Wire Wire Line
	4100 3200 4200 3200
Wire Wire Line
	4550 3300 4550 3200
Wire Wire Line
	4100 3300 4550 3300
Connection ~ 5400 4050
Wire Wire Line
	5400 4050 5400 4200
Wire Wire Line
	5400 3650 5400 4050
Wire Wire Line
	4100 3850 4450 3850
Wire Wire Line
	4450 3850 4450 3750
Wire Wire Line
	4450 3750 4650 3750
Wire Wire Line
	4650 3950 4950 3950
Wire Wire Line
	4950 3950 4950 4050
Wire Wire Line
	4950 4050 5200 4050
Connection ~ 4650 3950
Wire Wire Line
	4650 3750 4950 3750
Wire Wire Line
	4950 3750 4950 3650
Wire Wire Line
	4950 3650 5200 3650
Connection ~ 4650 3750
Connection ~ 4550 3300
Text Label 4100 4050 0    50   ~ 0
ADE7912_CLKOUT
Wire Wire Line
	4100 3950 4650 3950
$Comp
L main:ADE7912 U3
U 1 1 5E5C2D7E
P 3600 5550
AR Path="/5E5C2D7E" Ref="U3"  Part="1" 
AR Path="/5E28CC93/5E5C2D7E" Ref="U?"  Part="1" 
F 0 "U3" H 3600 6315 50  0000 C CNN
F 1 "ADE7912" H 3600 6224 50  0000 C CNN
F 2 "Package_SO:SOIC-20W_7.5x12.8mm_P1.27mm" H 3550 4800 50  0001 C CNN
F 3 "https://www.analog.com/media/en/technical-documentation/data-sheets/ADE7912_7913.pdf" H 3550 4800 50  0001 C CNN
	1    3600 5550
	1    0    0    -1  
$EndComp
$Comp
L power:+3.3V #PWR023
U 1 1 5E5C2D84
P 4200 5000
AR Path="/5E5C2D84" Ref="#PWR023"  Part="1" 
AR Path="/5E28CC93/5E5C2D84" Ref="#PWR?"  Part="1" 
F 0 "#PWR023" H 4200 4850 50  0001 C CNN
F 1 "+3.3V" H 4215 5173 50  0000 C CNN
F 2 "" H 4200 5000 50  0001 C CNN
F 3 "" H 4200 5000 50  0001 C CNN
	1    4200 5000
	1    0    0    -1  
$EndComp
$Comp
L power:GND #PWR019
U 1 1 5E5C2D8A
P 4150 6050
AR Path="/5E5C2D8A" Ref="#PWR019"  Part="1" 
AR Path="/5E28CC93/5E5C2D8A" Ref="#PWR?"  Part="1" 
F 0 "#PWR019" H 4150 5800 50  0001 C CNN
F 1 "GND" H 4155 5877 50  0000 C CNN
F 2 "" H 4150 6050 50  0001 C CNN
F 3 "" H 4150 6050 50  0001 C CNN
	1    4150 6050
	1    0    0    -1  
$EndComp
Wire Wire Line
	4100 6000 4150 6000
Wire Wire Line
	4150 6000 4150 6050
Text Label 4100 5600 0    50   ~ 0
MISO
Text Label 4100 5500 0    50   ~ 0
MOSI
Text Label 4100 5400 0    50   ~ 0
SCK
$Comp
L power:GNDD #PWR014
U 1 1 5E5C2D95
P 2200 6100
AR Path="/5E5C2D95" Ref="#PWR014"  Part="1" 
AR Path="/5E28CC93/5E5C2D95" Ref="#PWR?"  Part="1" 
F 0 "#PWR014" H 2200 5850 50  0001 C CNN
F 1 "GNDD" H 2204 5945 50  0000 C CNN
F 2 "" H 2200 6100 50  0001 C CNN
F 3 "" H 2200 6100 50  0001 C CNN
	1    2200 6100
	1    0    0    -1  
$EndComp
Connection ~ 2650 5900
$Comp
L Device:D_Small D4
U 1 1 5E5C2D9C
P 1600 5800
AR Path="/5E5C2D9C" Ref="D4"  Part="1" 
AR Path="/5E28CC93/5E5C2D9C" Ref="D?"  Part="1" 
F 0 "D4" V 1600 5900 50  0000 L CNN
F 1 "BAS16LT1G " V 1800 5850 50  0000 L CNN
F 2 "Diode_SMD:D_SOT-23_ANK" V 1600 5800 50  0001 C CNN
F 3 "www.onsemi.com/pub/Collateral/BAS16LT1-D.PDF" V 1600 5800 50  0001 C CNN
	1    1600 5800
	0    1    1    0   
$EndComp
$Comp
L Device:D_Small D2
U 1 1 5E5C2DA2
P 1150 5800
AR Path="/5E5C2DA2" Ref="D2"  Part="1" 
AR Path="/5E28CC93/5E5C2DA2" Ref="D?"  Part="1" 
F 0 "D2" V 1150 5700 50  0000 R CNN
F 1 "BAS16LT1G " V 950 5750 50  0000 R CNN
F 2 "Diode_SMD:D_SOT-23_ANK" V 1150 5800 50  0001 C CNN
F 3 "www.onsemi.com/pub/Collateral/BAS16LT1-D.PDF" V 1150 5800 50  0001 C CNN
	1    1150 5800
	0    -1   -1   0   
$EndComp
Wire Wire Line
	1600 5900 1150 5900
Wire Wire Line
	1600 5700 1150 5700
Wire Wire Line
	2650 5900 3100 5900
Connection ~ 1150 5900
Wire Wire Line
	1600 5900 2000 5900
Wire Wire Line
	2000 5900 2000 5800
Wire Wire Line
	2000 5800 3100 5800
Connection ~ 1600 5900
Text Notes 3050 6450 0    50   Italic 0
*V2P only available for ADE7913
$Comp
L power:GND #PWR026
U 1 1 5E5C2DB1
P 4550 5150
AR Path="/5E5C2DB1" Ref="#PWR026"  Part="1" 
AR Path="/5E28CC93/5E5C2DB1" Ref="#PWR?"  Part="1" 
F 0 "#PWR026" H 4550 4900 50  0001 C CNN
F 1 "GND" H 4555 4977 50  0000 C CNN
F 2 "" H 4550 5150 50  0001 C CNN
F 3 "" H 4550 5150 50  0001 C CNN
	1    4550 5150
	1    0    0    -1  
$EndComp
Wire Wire Line
	1600 5700 3100 5700
Wire Wire Line
	2650 6100 3100 6100
Wire Wire Line
	3100 6100 3100 6000
Connection ~ 2650 6100
Wire Wire Line
	1150 5900 1150 6200
Connection ~ 1150 5700
Wire Wire Line
	3100 4600 3100 5050
Wire Wire Line
	3000 4800 3000 5150
Wire Wire Line
	3000 5150 3100 5150
Wire Wire Line
	2900 5000 2900 5300
Wire Wire Line
	2900 5300 3100 5300
Connection ~ 1600 5700
Wire Wire Line
	2800 5400 3100 5400
$Comp
L power:GNDD #PWR016
U 1 1 5E5C2DC5
P 2650 5250
AR Path="/5E5C2DC5" Ref="#PWR016"  Part="1" 
AR Path="/5E28CC93/5E5C2DC5" Ref="#PWR?"  Part="1" 
F 0 "#PWR016" H 2650 5000 50  0001 C CNN
F 1 "GNDD" H 2650 5100 50  0000 C CNN
F 2 "" H 2650 5250 50  0001 C CNN
F 3 "" H 2650 5250 50  0001 C CNN
	1    2650 5250
	1    0    0    -1  
$EndComp
Wire Wire Line
	3100 5400 3100 5500
Wire Wire Line
	2350 5600 3100 5600
$Comp
L Device:C_Small C19
U 1 1 5E5C2DCD
P 4450 5050
AR Path="/5E5C2DCD" Ref="C19"  Part="1" 
AR Path="/5E28CC93/5E5C2DCD" Ref="C?"  Part="1" 
F 0 "C19" V 4221 5050 50  0000 C CNN
F 1 "100nF" V 4312 5050 50  0000 C CNN
F 2 "Capacitor_SMD:C_0805_2012Metric_Pad1.15x1.40mm_HandSolder" H 4450 5050 50  0001 C CNN
F 3 "~" H 4450 5050 50  0001 C CNN
	1    4450 5050
	0    1    1    0   
$EndComp
Wire Wire Line
	4350 5050 4200 5050
Connection ~ 4200 5050
Wire Wire Line
	4200 5050 4200 5000
Wire Wire Line
	4100 5050 4200 5050
Wire Wire Line
	4550 5150 4550 5050
Wire Wire Line
	4100 5150 4550 5150
Connection ~ 4550 5150
Text Label 4100 5800 0    50   ~ 0
ADE7912_CLKOUT
Text Notes 1000 4950 0    50   ~ 0
Motor shunt and \nunassigned
$Comp
L Device:CP_Small C5
U 1 1 5E5C2DDC
P 2200 3050
AR Path="/5E5C2DDC" Ref="C5"  Part="1" 
AR Path="/5E28CC93/5E5C2DDC" Ref="C?"  Part="1" 
F 0 "C5" H 2000 3000 50  0000 L CNN
F 1 "4.7µF" H 1900 3100 50  0000 L CNN
F 2 "Capacitor_THT:CP_Radial_D5.0mm_P2.00mm" H 2200 3050 50  0001 C CNN
F 3 "~" H 2200 3050 50  0001 C CNN
	1    2200 3050
	-1   0    0    1   
$EndComp
$Comp
L Device:CP_Small C4
U 1 1 5E5C2DE2
P 2200 2850
AR Path="/5E5C2DE2" Ref="C4"  Part="1" 
AR Path="/5E28CC93/5E5C2DE2" Ref="C?"  Part="1" 
F 0 "C4" H 2292 2897 50  0000 L CNN
F 1 "10µF" H 2292 2804 50  0000 L CNN
F 2 "Capacitor_THT:CP_Radial_D5.0mm_P2.00mm" H 2200 2850 50  0001 C CNN
F 3 "~" H 2200 2850 50  0001 C CNN
	1    2200 2850
	1    0    0    -1  
$EndComp
Wire Wire Line
	2650 2950 3000 2950
Wire Wire Line
	2650 2950 2200 2950
Connection ~ 2650 2950
Wire Wire Line
	2650 3150 2900 3150
Wire Wire Line
	2200 3150 2650 3150
Connection ~ 2650 3150
$Comp
L Device:C_Small C11
U 1 1 5E5C2DEE
P 2650 3050
AR Path="/5E5C2DEE" Ref="C11"  Part="1" 
AR Path="/5E28CC93/5E5C2DEE" Ref="C?"  Part="1" 
F 0 "C11" H 2742 3097 50  0000 L CNN
F 1 "100nF" H 2742 3004 50  0000 L CNN
F 2 "Capacitor_SMD:C_0805_2012Metric_Pad1.15x1.40mm_HandSolder" H 2650 3050 50  0001 C CNN
F 3 "~" H 2650 3050 50  0001 C CNN
	1    2650 3050
	1    0    0    -1  
$EndComp
Wire Wire Line
	2350 5200 2350 5600
Wire Wire Line
	2800 5200 2800 5400
Wire Wire Line
	2650 5200 2800 5200
Wire Wire Line
	2650 5200 2650 5250
Connection ~ 2650 5200
$Comp
L Device:R R4
U 1 1 5E5C2DF9
P 2500 5200
AR Path="/5E5C2DF9" Ref="R4"  Part="1" 
AR Path="/5E28CC93/5E5C2DF9" Ref="R?"  Part="1" 
F 0 "R4" V 2500 5200 50  0000 C CNN
F 1 "?" V 2500 5200 50  0001 C CNN
F 2 "Resistor_THT:R_Axial_DIN0207_L6.3mm_D2.5mm_P7.62mm_Horizontal" H 2500 5200 50  0001 C CNN
F 3 "" H 2500 5200 50  0001 C CNN
	1    2500 5200
	0    -1   -1   0   
$EndComp
Connection ~ 2350 5200
$Comp
L Device:R R2
U 1 1 5E5C2E00
P 2200 5200
AR Path="/5E5C2E00" Ref="R2"  Part="1" 
AR Path="/5E28CC93/5E5C2E00" Ref="R?"  Part="1" 
F 0 "R2" V 2200 5200 50  0000 C CNN
F 1 "?" V 2200 5200 50  0001 C CNN
F 2 "Resistor_THT:R_Axial_DIN0207_L6.3mm_D2.5mm_P7.62mm_Horizontal" H 2200 5200 50  0001 C CNN
F 3 "" H 2200 5200 50  0001 C CNN
	1    2200 5200
	0    -1   -1   0   
$EndComp
$Comp
L Device:CP_Small C9
U 1 1 5E5C2E06
P 2200 6000
AR Path="/5E5C2E06" Ref="C9"  Part="1" 
AR Path="/5E28CC93/5E5C2E06" Ref="C?"  Part="1" 
F 0 "C9" H 2292 6047 50  0000 L CNN
F 1 "4.7µF" H 2292 5954 50  0000 L CNN
F 2 "Capacitor_THT:CP_Radial_D5.0mm_P2.00mm" H 2200 6000 50  0001 C CNN
F 3 "~" H 2200 6000 50  0001 C CNN
	1    2200 6000
	1    0    0    -1  
$EndComp
Wire Wire Line
	2200 6100 2650 6100
Wire Wire Line
	2650 5900 2200 5900
$Comp
L Device:C_Small C15
U 1 1 5E5C2E0E
P 2650 6000
AR Path="/5E5C2E0E" Ref="C15"  Part="1" 
AR Path="/5E28CC93/5E5C2E0E" Ref="C?"  Part="1" 
F 0 "C15" H 2742 6047 50  0000 L CNN
F 1 "100nF" H 2742 5954 50  0000 L CNN
F 2 "Capacitor_SMD:C_0805_2012Metric_Pad1.15x1.40mm_HandSolder" H 2650 6000 50  0001 C CNN
F 3 "~" H 2650 6000 50  0001 C CNN
	1    2650 6000
	1    0    0    -1  
$EndComp
Connection ~ 2200 6100
NoConn ~ 4100 5700
$Comp
L power:GNDD #PWR012
U 1 1 5E5C2E16
P 1950 4800
AR Path="/5E5C2E16" Ref="#PWR012"  Part="1" 
AR Path="/5E28CC93/5E5C2E16" Ref="#PWR?"  Part="1" 
F 0 "#PWR012" H 1950 4550 50  0001 C CNN
F 1 "GNDD" H 1955 4644 50  0000 C CNN
F 2 "" H 1950 4800 50  0001 C CNN
F 3 "" H 1950 4800 50  0001 C CNN
	1    1950 4800
	1    0    0    -1  
$EndComp
Connection ~ 2200 4800
Wire Wire Line
	1950 4800 2200 4800
$Comp
L Device:CP_Small C8
U 1 1 5E5C2E1E
P 2200 4900
AR Path="/5E5C2E1E" Ref="C8"  Part="1" 
AR Path="/5E28CC93/5E5C2E1E" Ref="C?"  Part="1" 
F 0 "C8" H 2000 4850 50  0000 L CNN
F 1 "4.7µF" H 1900 4950 50  0000 L CNN
F 2 "Capacitor_THT:CP_Radial_D5.0mm_P2.00mm" H 2200 4900 50  0001 C CNN
F 3 "~" H 2200 4900 50  0001 C CNN
	1    2200 4900
	-1   0    0    1   
$EndComp
$Comp
L Device:CP_Small C7
U 1 1 5E5C2E24
P 2200 4700
AR Path="/5E5C2E24" Ref="C7"  Part="1" 
AR Path="/5E28CC93/5E5C2E24" Ref="C?"  Part="1" 
F 0 "C7" H 2292 4747 50  0000 L CNN
F 1 "10µF" H 2292 4654 50  0000 L CNN
F 2 "Capacitor_THT:CP_Radial_D5.0mm_P2.00mm" H 2200 4700 50  0001 C CNN
F 3 "~" H 2200 4700 50  0001 C CNN
	1    2200 4700
	1    0    0    -1  
$EndComp
Wire Wire Line
	2650 4800 3000 4800
Wire Wire Line
	2650 4800 2200 4800
Connection ~ 2650 4800
Wire Wire Line
	2650 4600 3100 4600
Wire Wire Line
	2650 4600 2200 4600
Connection ~ 2650 4600
$Comp
L Device:C_Small C13
U 1 1 5E5C2E30
P 2650 4700
AR Path="/5E5C2E30" Ref="C13"  Part="1" 
AR Path="/5E28CC93/5E5C2E30" Ref="C?"  Part="1" 
F 0 "C13" H 2742 4747 50  0000 L CNN
F 1 "100nF" H 2742 4654 50  0000 L CNN
F 2 "Capacitor_SMD:C_0805_2012Metric_Pad1.15x1.40mm_HandSolder" H 2650 4700 50  0001 C CNN
F 3 "~" H 2650 4700 50  0001 C CNN
	1    2650 4700
	1    0    0    -1  
$EndComp
Wire Wire Line
	2650 5000 2900 5000
Wire Wire Line
	2200 5000 2650 5000
Connection ~ 2650 5000
$Comp
L Device:C_Small C14
U 1 1 5E5C2E39
P 2650 4900
AR Path="/5E5C2E39" Ref="C14"  Part="1" 
AR Path="/5E28CC93/5E5C2E39" Ref="C?"  Part="1" 
F 0 "C14" H 2742 4947 50  0000 L CNN
F 1 "100nF" H 2742 4854 50  0000 L CNN
F 2 "Capacitor_SMD:C_0805_2012Metric_Pad1.15x1.40mm_HandSolder" H 2650 4900 50  0001 C CNN
F 3 "~" H 2650 4900 50  0001 C CNN
	1    2650 4900
	1    0    0    -1  
$EndComp
$Comp
L power:GNDD #PWR05
U 1 1 5E5C2E66
P 850 1250
AR Path="/5E5C2E66" Ref="#PWR05"  Part="1" 
AR Path="/5E28CC93/5E5C2E66" Ref="#PWR?"  Part="1" 
F 0 "#PWR05" H 850 1000 50  0001 C CNN
F 1 "GNDD" H 855 1094 50  0000 C CNN
F 2 "" H 850 1250 50  0001 C CNN
F 3 "" H 850 1250 50  0001 C CNN
	1    850  1250
	1    0    0    -1  
$EndComp
Text Label 4100 5900 0    50   ~ 0
ADC_IRQ
Text Label 4100 3450 0    50   ~ 0
ADC1_CS
Wire Wire Line
	2650 2750 3100 2750
Wire Wire Line
	2650 2750 2200 2750
Connection ~ 2650 2750
$Comp
L Device:C_Small C10
U 1 1 5E5C2E9E
P 2650 2850
AR Path="/5E5C2E9E" Ref="C10"  Part="1" 
AR Path="/5E28CC93/5E5C2E9E" Ref="C?"  Part="1" 
F 0 "C10" H 2742 2897 50  0000 L CNN
F 1 "100nF" H 2742 2804 50  0000 L CNN
F 2 "Capacitor_SMD:C_0805_2012Metric_Pad1.15x1.40mm_HandSolder" H 2650 2850 50  0001 C CNN
F 3 "~" H 2650 2850 50  0001 C CNN
	1    2650 2850
	1    0    0    -1  
$EndComp
Wire Wire Line
	1800 3350 2050 3350
$Comp
L Connector:Screw_Terminal_01x05 J1
U 1 1 5E5C2EAA
P 650 1050
AR Path="/5E5C2EAA" Ref="J1"  Part="1" 
AR Path="/5E28CC93/5E5C2EAA" Ref="J?"  Part="1" 
F 0 "J1" H 650 600 50  0000 C CNN
F 1 "Screw Terminal 01x06" H 300 700 50  0000 C CNN
F 2 "TerminalBlock:TerminalBlock_bornier-5_P5.08mm" H 650 1050 50  0001 C CNN
F 3 "~" H 650 1050 50  0001 C CNN
	1    650  1050
	-1   0    0    1   
$EndComp
Wire Wire Line
	2050 5200 1800 5200
Text Label 4100 5300 0    50   ~ 0
ADC2_CS
Connection ~ 3100 5400
Wire Wire Line
	1150 3650 700  3650
Wire Wire Line
	700  3650 700  4050
Wire Wire Line
	800  4050 700  4050
Connection ~ 700  4050
Wire Wire Line
	700  4050 700  4250
Wire Wire Line
	1150 5900 1000 5900
Wire Notes Line
	3500 2550 3500 550 
Text Notes 3450 2500 2    100  ~ 20
Connectors
Wire Notes Line
	550  2550 5550 2550
Text Notes 5500 6450 2    100  ~ 20
Measurements
Text Notes 5500 2500 2    100  ~ 20
Radio
Wire Notes Line
	5550 550  5550 6500
Wire Notes Line
	550  550  5550 550 
Wire Notes Line
	550  550  550  7600
Text Notes 3450 7550 2    100  ~ 20
Power Supply
Connection ~ 1150 3850
Text Label 1150 6200 0    50   ~ 0
MOTOR_SHUNT
Text Label 850  1150 0    50   ~ 0
MOTOR_SHUNT
Text Label 850  950  0    50   ~ 0
BATTERY_SENSOR
Text Label 1800 3350 2    50   ~ 0
BATTERY_SENSOR
Text Label 1150 4350 0    50   ~ 0
ARRAY_SHUNT
Text Label 850  1050 0    50   ~ 0
ARRAY_SHUNT
Text Label 850  850  0    50   ~ 0
MISCELLANEOUS
Text Label 1800 5200 2    50   ~ 0
MISCELLANEOUS
Connection ~ 3100 3550
$Comp
L main:ADE7912 U2
U 1 1 5E5C2C23
P 3600 3700
AR Path="/5E5C2C23" Ref="U2"  Part="1" 
AR Path="/5E28CC93/5E5C2C23" Ref="U?"  Part="1" 
F 0 "U2" H 3600 4465 50  0000 C CNN
F 1 "ADE7912" H 3600 4374 50  0000 C CNN
F 2 "Package_SO:SOIC-20W_7.5x12.8mm_P1.27mm" H 3550 2950 50  0001 C CNN
F 3 "https://www.analog.com/media/en/technical-documentation/data-sheets/ADE7912_7913.pdf" H 3550 2950 50  0001 C CNN
	1    3600 3700
	1    0    0    -1  
$EndComp
$Comp
L power:GNDD #PWR015
U 1 1 5E5C2D0D
P 2650 3400
AR Path="/5E5C2D0D" Ref="#PWR015"  Part="1" 
AR Path="/5E28CC93/5E5C2D0D" Ref="#PWR?"  Part="1" 
F 0 "#PWR015" H 2650 3150 50  0001 C CNN
F 1 "GNDD" H 2650 3250 50  0000 C CNN
F 2 "" H 2650 3400 50  0001 C CNN
F 3 "" H 2650 3400 50  0001 C CNN
	1    2650 3400
	1    0    0    -1  
$EndComp
Connection ~ 700  5900
Wire Wire Line
	700  5900 700  6100
Wire Wire Line
	700  5500 700  5900
Wire Wire Line
	1150 5700 1150 5500
Wire Wire Line
	800  5900 700  5900
Wire Wire Line
	1150 5500 700  5500
$Comp
L power:GNDD #PWR02
U 1 1 5E5C2F18
P 700 6100
AR Path="/5E5C2F18" Ref="#PWR02"  Part="1" 
AR Path="/5E28CC93/5E5C2F18" Ref="#PWR?"  Part="1" 
F 0 "#PWR02" H 700 5850 50  0001 C CNN
F 1 "GNDD" H 704 5945 50  0000 C CNN
F 2 "" H 700 6100 50  0001 C CNN
F 3 "" H 700 6100 50  0001 C CNN
	1    700  6100
	1    0    0    -1  
$EndComp
$Comp
L Device:C_Small C3
U 1 1 5E5C2F11
P 900 5900
AR Path="/5E5C2F11" Ref="C3"  Part="1" 
AR Path="/5E28CC93/5E5C2F11" Ref="C?"  Part="1" 
F 0 "C3" V 668 5900 50  0000 C CNN
F 1 "33nF" V 761 5900 50  0000 C CNN
F 2 "Capacitor_THT:C_Disc_D4.7mm_W2.5mm_P5.00mm" H 900 5900 50  0001 C CNN
F 3 "~" H 900 5900 50  0001 C CNN
	1    900  5900
	0    1    1    0   
$EndComp
Wire Notes Line
	3500 7600 550  7600
Wire Notes Line
	550  6500 5550 6500
Wire Wire Line
	8350 4100 9000 4100
$Comp
L Device:C_Small C22
U 1 1 5E5C2E4E
P 9000 4200
AR Path="/5E5C2E4E" Ref="C22"  Part="1" 
AR Path="/5E28CC93/5E5C2E4E" Ref="C?"  Part="1" 
F 0 "C22" H 8800 4250 50  0000 C CNN
F 1 "100nF" H 8850 4150 50  0000 C CNN
F 2 "Capacitor_SMD:C_0805_2012Metric_Pad1.15x1.40mm_HandSolder" H 9000 4200 50  0001 C CNN
F 3 "~" H 9000 4200 50  0001 C CNN
	1    9000 4200
	1    0    0    -1  
$EndComp
$Comp
L power:GND #PWR028
U 1 1 5E5C2E3F
P 9000 4300
AR Path="/5E5C2E3F" Ref="#PWR028"  Part="1" 
AR Path="/5E28CC93/5E5C2E3F" Ref="#PWR?"  Part="1" 
F 0 "#PWR028" H 9000 4050 50  0001 C CNN
F 1 "GND" H 9005 4127 50  0000 C CNN
F 2 "" H 9000 4300 50  0001 C CNN
F 3 "" H 9000 4300 50  0001 C CNN
	1    9000 4300
	1    0    0    -1  
$EndComp
Text Label 8350 4100 0    50   ~ 0
AREF
$Comp
L power:+3.3V #PWR09
U 1 1 60D41E01
P 4250 2250
F 0 "#PWR09" H 4250 2100 50  0001 C CNN
F 1 "+3.3V" H 4265 2423 50  0000 C CNN
F 2 "" H 4250 2250 50  0001 C CNN
F 3 "" H 4250 2250 50  0001 C CNN
	1    4250 2250
	-1   0    0    1   
$EndComp
Text Label 6950 4450 0    50   ~ 0
tx
Text Label 6950 4550 0    50   ~ 0
rx
Wire Wire Line
	6950 4450 7100 4450
Wire Wire Line
	6950 4550 7100 4550
Wire Wire Line
	7500 5950 7500 6050
Wire Wire Line
	7500 6050 7600 6050
Wire Wire Line
	7600 6050 7600 5950
Wire Wire Line
	7600 6050 7700 6050
Wire Wire Line
	7700 6050 7700 5950
Connection ~ 7600 6050
Wire Wire Line
	7600 6050 7600 6150
$Comp
L power:GND #PWR020
U 1 1 60DA1BCA
P 7600 6150
F 0 "#PWR020" H 7600 5900 50  0001 C CNN
F 1 "GND" H 7605 5977 50  0000 C CNN
F 2 "" H 7600 6150 50  0001 C CNN
F 3 "" H 7600 6150 50  0001 C CNN
	1    7600 6150
	1    0    0    -1  
$EndComp
Text Label 8200 5250 0    50   ~ 0
sda
Text Label 8200 5350 0    50   ~ 0
scl
Wire Wire Line
	8100 5250 8200 5250
Wire Wire Line
	8100 5350 8200 5350
$Comp
L sensor_board:20X4_LCD L2
U 1 1 60DD706E
P 9100 2650
F 0 "L2" H 10078 2501 50  0000 L CNN
F 1 "20X4_LCD" H 10078 2410 50  0000 L CNN
F 2 "main_parts:LCD_20x4" H 9600 2200 50  0001 C CNN
F 3 "" H 9600 2200 50  0001 C CNN
	1    9100 2650
	1    0    0    -1  
$EndComp
Text Label 8900 3000 0    50   ~ 0
scl
Wire Wire Line
	8900 2900 9000 2900
Wire Wire Line
	8900 3000 9000 3000
$Comp
L power:GND #PWR032
U 1 1 60DEA50D
P 9200 3550
F 0 "#PWR032" H 9200 3300 50  0001 C CNN
F 1 "GND" V 9205 3422 50  0000 R CNN
F 2 "" H 9200 3550 50  0001 C CNN
F 3 "" H 9200 3550 50  0001 C CNN
	1    9200 3550
	0    1    1    0   
$EndComp
$Comp
L power:+3.3V #PWR033
U 1 1 60E0CC72
P 9200 3650
F 0 "#PWR033" H 9200 3500 50  0001 C CNN
F 1 "+3.3V" V 9215 3778 50  0000 L CNN
F 2 "" H 9200 3650 50  0001 C CNN
F 3 "" H 9200 3650 50  0001 C CNN
	1    9200 3650
	0    -1   -1   0   
$EndComp
Text Label 9150 3350 0    50   ~ 0
d8
Text Label 9150 3450 0    50   ~ 0
d9
Text Label 7000 5050 0    50   ~ 0
d8
Text Label 7000 5150 0    50   ~ 0
d9
Wire Wire Line
	7000 5050 7100 5050
Wire Wire Line
	7000 5150 7100 5150
$Comp
L power:GND #PWR030
U 1 1 60E3E9BB
P 8900 2700
F 0 "#PWR030" H 8900 2450 50  0001 C CNN
F 1 "GND" V 8905 2572 50  0000 R CNN
F 2 "" H 8900 2700 50  0001 C CNN
F 3 "" H 8900 2700 50  0001 C CNN
	1    8900 2700
	0    1    1    0   
$EndComp
Wire Wire Line
	8900 2700 9000 2700
Text Label 4450 2250 0    50   ~ 0
rx
Text Label 4550 2250 0    50   ~ 0
tx
$Comp
L sensor_board:Reyax_RYLR896 Ra1
U 1 1 60EA82A5
P 4200 1950
F 0 "Ra1" V 4788 1322 50  0000 R CNN
F 1 "Reyax_RYLR896" V 4697 1322 50  0000 R CNN
F 2 "main_parts:Reyax_RYLR896" H 4650 1300 50  0001 C CNN
F 3 "" H 4650 1300 50  0001 C CNN
	1    4200 1950
	0    -1   -1   0   
$EndComp
Wire Wire Line
	4250 2050 4250 2250
Wire Wire Line
	4750 2050 4750 2250
Wire Wire Line
	4450 2050 4450 2250
Wire Wire Line
	4550 2050 4550 2250
$Comp
L power:GND #PWR010
U 1 1 60ECEF32
P 4750 2250
AR Path="/60ECEF32" Ref="#PWR010"  Part="1" 
AR Path="/5E28CC93/60ECEF32" Ref="#PWR?"  Part="1" 
F 0 "#PWR010" H 4750 2000 50  0001 C CNN
F 1 "GND" H 4755 2077 50  0000 C CNN
F 2 "" H 4750 2250 50  0001 C CNN
F 3 "" H 4750 2250 50  0001 C CNN
	1    4750 2250
	1    0    0    -1  
$EndComp
NoConn ~ 4650 2050
NoConn ~ 4350 2050
$Comp
L sensor_board:NEO-6M G1
U 1 1 60F44CE2
P 9750 3450
F 0 "G1" H 10078 3501 50  0000 L CNN
F 1 "NEO-6M" H 10078 3410 50  0000 L CNN
F 2 "main_parts:NEO_6M" H 9750 3150 50  0001 C CNN
F 3 "" H 9750 3150 50  0001 C CNN
	1    9750 3450
	1    0    0    -1  
$EndComp
Wire Wire Line
	9350 3350 9150 3350
Wire Wire Line
	9350 3450 9150 3450
Wire Wire Line
	9350 3550 9200 3550
Wire Wire Line
	9350 3650 9200 3650
NoConn ~ 9350 3250
$Comp
L power:GND #PWR024
U 1 1 60F85967
P 8750 5100
AR Path="/60F85967" Ref="#PWR024"  Part="1" 
AR Path="/5E28CC93/60F85967" Ref="#PWR?"  Part="1" 
F 0 "#PWR024" H 8750 4850 50  0001 C CNN
F 1 "GND" H 8755 4927 50  0000 C CNN
F 2 "" H 8750 5100 50  0001 C CNN
F 3 "" H 8750 5100 50  0001 C CNN
	1    8750 5100
	1    0    0    -1  
$EndComp
$Comp
L power:+BATT #PWR029
U 1 1 60F8596D
P 8750 4600
AR Path="/60F8596D" Ref="#PWR029"  Part="1" 
AR Path="/5E28CC93/60F8596D" Ref="#PWR?"  Part="1" 
F 0 "#PWR029" H 8750 4450 50  0001 C CNN
F 1 "+BATT" H 8765 4773 50  0000 C CNN
F 2 "" H 8750 4600 50  0001 C CNN
F 3 "" H 8750 4600 50  0001 C CNN
	1    8750 4600
	1    0    0    -1  
$EndComp
$Comp
L Device:R_Small R5
U 1 1 60F85973
P 8750 5000
AR Path="/60F85973" Ref="R5"  Part="1" 
AR Path="/5E28CC93/60F85973" Ref="R?"  Part="1" 
F 0 "R5" H 8691 4954 50  0000 R CNN
F 1 "1K" H 8691 5045 50  0000 R CNN
F 2 "Resistor_THT:R_Axial_DIN0207_L6.3mm_D2.5mm_P7.62mm_Horizontal" H 8750 5000 50  0001 C CNN
F 3 "~" H 8750 5000 50  0001 C CNN
	1    8750 5000
	-1   0    0    1   
$EndComp
$Comp
L Device:R_Small R6
U 1 1 60F85979
P 8750 4700
AR Path="/60F85979" Ref="R6"  Part="1" 
AR Path="/5E28CC93/60F85979" Ref="R?"  Part="1" 
F 0 "R6" H 8809 4746 50  0000 L CNN
F 1 "15K" H 8809 4655 50  0000 L CNN
F 2 "Resistor_THT:R_Axial_DIN0207_L6.3mm_D2.5mm_P7.62mm_Horizontal" H 8750 4700 50  0001 C CNN
F 3 "~" H 8750 4700 50  0001 C CNN
	1    8750 4700
	1    0    0    -1  
$EndComp
Wire Wire Line
	8350 4100 8350 4650
Wire Wire Line
	8350 4650 8100 4650
Text Label 6750 4750 0    50   ~ 0
ADC_IRQ
Text Label 6900 5450 0    50   ~ 0
MISO
Text Label 6900 5350 0    50   ~ 0
MOSI
Text Label 6900 5550 0    50   ~ 0
SCK
Wire Wire Line
	6900 5550 7100 5550
Wire Wire Line
	6900 5450 7100 5450
Wire Wire Line
	6900 5350 7100 5350
NoConn ~ 8100 4250
NoConn ~ 8100 4450
NoConn ~ 8100 4950
NoConn ~ 8100 5050
NoConn ~ 8100 5150
NoConn ~ 8100 5550
NoConn ~ 8100 5650
NoConn ~ 7100 5250
Text Label 6750 4850 0    50   ~ 0
ADC2_CS
Text Label 6750 4950 0    50   ~ 0
ADC1_CS
Wire Wire Line
	6750 4950 7100 4950
Wire Wire Line
	6750 4850 7100 4850
Wire Wire Line
	6750 4750 7100 4750
Wire Wire Line
	8750 4800 8750 4850
Wire Wire Line
	8900 2800 9000 2800
$Comp
L power:+5V #PWR031
U 1 1 60E3F2A0
P 8900 2800
F 0 "#PWR031" H 8900 2650 50  0001 C CNN
F 1 "+5V" V 8915 2928 50  0000 L CNN
F 2 "" H 8900 2800 50  0001 C CNN
F 3 "" H 8900 2800 50  0001 C CNN
	1    8900 2800
	0    -1   -1   0   
$EndComp
Text Label 8900 2900 0    50   ~ 0
sda
Wire Wire Line
	7800 3850 7800 3700
$Comp
L power:+5V #PWR021
U 1 1 60D7825E
P 7800 3700
F 0 "#PWR021" H 7800 3550 50  0001 C CNN
F 1 "+5V" H 7815 3873 50  0000 C CNN
F 2 "" H 7800 3700 50  0001 C CNN
F 3 "" H 7800 3700 50  0001 C CNN
	1    7800 3700
	1    0    0    -1  
$EndComp
Wire Wire Line
	7700 3850 7700 3550
$Comp
L power:+3.3V #PWR06
U 1 1 611E559C
P 7700 3550
F 0 "#PWR06" H 7700 3400 50  0001 C CNN
F 1 "+3.3V" H 7715 3723 50  0000 C CNN
F 2 "" H 7700 3550 50  0001 C CNN
F 3 "" H 7700 3550 50  0001 C CNN
	1    7700 3550
	1    0    0    -1  
$EndComp
Connection ~ 8750 4850
Wire Wire Line
	8750 4850 8750 4900
Wire Wire Line
	8100 4850 8750 4850
$Comp
L MCU_Module:Arduino_UNO_R3 A1
U 1 1 60DB827E
P 7600 4850
F 0 "A1" H 7600 6031 50  0000 C CNN
F 1 "Arduino_UNO_R3" H 7600 5940 50  0000 C CNN
F 2 "Module:Arduino_UNO_R3_WithMountingHoles" H 7600 4850 50  0001 C CIN
F 3 "https://www.arduino.cc/en/Main/arduinoBoardUno" H 7600 4850 50  0001 C CNN
	1    7600 4850
	1    0    0    -1  
$EndComp
$Comp
L power:+BATT #PWR04
U 1 1 6120F7BE
P 7500 3450
AR Path="/6120F7BE" Ref="#PWR04"  Part="1" 
AR Path="/5E28CC93/6120F7BE" Ref="#PWR?"  Part="1" 
F 0 "#PWR04" H 7500 3300 50  0001 C CNN
F 1 "+BATT" H 7515 3623 50  0000 C CNN
F 2 "" H 7500 3450 50  0001 C CNN
F 3 "" H 7500 3450 50  0001 C CNN
	1    7500 3450
	1    0    0    -1  
$EndComp
Wire Wire Line
	7500 3850 7500 3450
$Comp
L Device:LED D5
U 1 1 6122B1A6
P 6250 4650
F 0 "D5" H 6243 4866 50  0000 C CNN
F 1 "LED" H 6243 4775 50  0000 C CNN
F 2 "LED_THT:LED_D3.0mm" H 6250 4650 50  0001 C CNN
F 3 "~" H 6250 4650 50  0001 C CNN
	1    6250 4650
	1    0    0    -1  
$EndComp
$Comp
L power:GND #PWR03
U 1 1 6122C741
P 6000 4750
F 0 "#PWR03" H 6000 4500 50  0001 C CNN
F 1 "GND" H 6005 4577 50  0000 C CNN
F 2 "" H 6000 4750 50  0001 C CNN
F 3 "" H 6000 4750 50  0001 C CNN
	1    6000 4750
	1    0    0    -1  
$EndComp
Wire Wire Line
	6100 4650 6000 4650
Wire Wire Line
	6000 4650 6000 4750
$Comp
L Switch:SW_Push SW1
U 1 1 6124AB55
P 6150 4250
F 0 "SW1" H 6150 4535 50  0000 C CNN
F 1 "SW_Push" H 6150 4444 50  0000 C CNN
F 2 "" H 6150 4450 50  0001 C CNN
F 3 "~" H 6150 4450 50  0001 C CNN
	1    6150 4250
	1    0    0    -1  
$EndComp
$Comp
L power:GND #PWR07
U 1 1 61286EAB
P 5950 4300
F 0 "#PWR07" H 5950 4050 50  0001 C CNN
F 1 "GND" H 5955 4127 50  0000 C CNN
F 2 "" H 5950 4300 50  0001 C CNN
F 3 "" H 5950 4300 50  0001 C CNN
	1    5950 4300
	1    0    0    -1  
$EndComp
Wire Wire Line
	5950 4300 5950 4250
Wire Wire Line
	6400 4650 7100 4650
Wire Wire Line
	6350 4250 7100 4250
$Comp
L Mechanical:MountingHole H1
U 1 1 60D6E1EF
P 6350 1750
F 0 "H1" H 6450 1796 50  0000 L CNN
F 1 "MountingHole" H 6450 1705 50  0000 L CNN
F 2 "MountingHole:MountingHole_3.5mm" H 6350 1750 50  0001 C CNN
F 3 "~" H 6350 1750 50  0001 C CNN
	1    6350 1750
	1    0    0    -1  
$EndComp
$Comp
L Mechanical:MountingHole H2
U 1 1 60D6E7FA
P 7150 1750
F 0 "H2" H 7250 1796 50  0000 L CNN
F 1 "MountingHole" H 7250 1705 50  0000 L CNN
F 2 "MountingHole:MountingHole_3.5mm" H 7150 1750 50  0001 C CNN
F 3 "~" H 7150 1750 50  0001 C CNN
	1    7150 1750
	1    0    0    -1  
$EndComp
$EndSCHEMATC
