EESchema Schematic File Version 4
EELAYER 30 0
EELAYER END
$Descr USLetter 11000 8500
encoding utf-8
Sheet 2 2
Title ""
Date "2020-03-12"
Rev ""
Comp ""
Comment1 ""
Comment2 ""
Comment3 ""
Comment4 ""
$EndDescr
$Comp
L main:AS1107 U?
U 1 1 5EE88902
P 1850 2400
AR Path="/5E28CC93/5EE88902" Ref="U?"  Part="1" 
AR Path="/5E28CC93/5EE5284A/5EE88902" Ref="U?"  Part="1" 
AR Path="/5E5C2F57/5EE88902" Ref="U6"  Part="1" 
F 0 "U6" H 2050 3450 50  0000 C CNN
F 1 "AS1107" H 2050 3350 50  0000 C CNN
F 2 "Package_SO:SOIC-24W_7.5x15.4mm_P1.27mm" H 1800 2450 50  0001 C CNN
F 3 "https://ams.com/documents/20143/36005/AS1106-07_DS000171_1-00.pdf/e382bb3c-e44f-74a2-519d-c1094eb7d523" H 1900 2250 50  0001 C CNN
	1    1850 2400
	1    0    0    -1  
$EndComp
$Comp
L Display_Character:CC56-12EWA U?
U 1 1 5EE917EF
P 4650 2000
AR Path="/5E28CC93/5EE5284A/5EE917EF" Ref="U?"  Part="1" 
AR Path="/5E5C2F57/5EE917EF" Ref="U8"  Part="1" 
F 0 "U8" H 4650 2670 50  0000 C CNN
F 1 "CC56-12EWA" H 4650 2577 50  0000 C CNN
F 2 "Display_7Segment:CA56-12EWA" H 4650 1400 50  0001 C CNN
F 3 "http://www.kingbrightusa.com/images/catalog/SPEC/CA56-12EWA.pdf" H 4220 2030 50  0001 C CNN
	1    4650 2000
	1    0    0    -1  
$EndComp
$Comp
L Display_Character:CC56-12EWA U?
U 1 1 5EEB4364
P 4650 3350
AR Path="/5E28CC93/5EE5284A/5EEB4364" Ref="U?"  Part="1" 
AR Path="/5E5C2F57/5EEB4364" Ref="U9"  Part="1" 
F 0 "U9" H 4650 4020 50  0000 C CNN
F 1 "CC56-12EWA" H 4650 3927 50  0000 C CNN
F 2 "Display_7Segment:CA56-12EWA" H 4650 2750 50  0001 C CNN
F 3 "http://www.kingbrightusa.com/images/catalog/SPEC/CA56-12EWA.pdf" H 4220 3380 50  0001 C CNN
	1    4650 3350
	1    0    0    -1  
$EndComp
$Comp
L main:AS1107 U?
U 1 1 5EED965B
P 1850 5100
AR Path="/5E28CC93/5EED965B" Ref="U?"  Part="1" 
AR Path="/5E28CC93/5EE5284A/5EED965B" Ref="U?"  Part="1" 
AR Path="/5E5C2F57/5EED965B" Ref="U7"  Part="1" 
F 0 "U7" H 2050 6150 50  0000 C CNN
F 1 "AS1107" H 2050 6050 50  0000 C CNN
F 2 "Package_SO:SOIC-24W_7.5x15.4mm_P1.27mm" H 1800 5150 50  0001 C CNN
F 3 "https://ams.com/documents/20143/36005/AS1106-07_DS000171_1-00.pdf/e382bb3c-e44f-74a2-519d-c1094eb7d523" H 1900 4950 50  0001 C CNN
	1    1850 5100
	1    0    0    -1  
$EndComp
Entry Wire Line
	2600 1600 2700 1700
Entry Wire Line
	2600 1700 2700 1800
Entry Wire Line
	2600 1800 2700 1900
Entry Wire Line
	2600 1900 2700 2000
Entry Wire Line
	2600 1900 2700 2000
Entry Wire Line
	2600 2000 2700 2100
Entry Wire Line
	2600 2300 2700 2400
Text Label 2250 2400 0    50   ~ 0
DIG0
Text Label 2250 2500 0    50   ~ 0
DIG1
Text Label 2250 2600 0    50   ~ 0
DIG2
Text Label 2250 2700 0    50   ~ 0
DIG3
Text Label 2250 2900 0    50   ~ 0
DIG5
Text Label 2250 3000 0    50   ~ 0
DIG6
Text Label 2250 3100 0    50   ~ 0
DIG7
Text Label 2250 5100 0    50   ~ 0
DIG8
Text Label 2250 5200 0    50   ~ 0
DIG9
Text Label 2250 5300 0    50   ~ 0
DIG10
Text Label 2250 5400 0    50   ~ 0
DIG11
Text Label 2250 5500 0    50   ~ 0
DIG12
Text Label 2250 5600 0    50   ~ 0
DIG13
Text Label 2250 5700 0    50   ~ 0
DIG14
Text Label 2250 5800 0    50   ~ 0
DIG15
Text Label 2250 2800 0    50   ~ 0
DIG4
Entry Wire Line
	2600 2400 2700 2500
Entry Wire Line
	2600 2500 2700 2600
Entry Wire Line
	2600 2600 2700 2700
Entry Wire Line
	2600 2700 2700 2800
Entry Wire Line
	2600 2700 2700 2800
Entry Wire Line
	2600 2800 2700 2900
Entry Wire Line
	2600 2900 2700 3000
Entry Wire Line
	2600 3000 2700 3100
Entry Wire Line
	2600 3100 2700 3200
Text Label 2250 4300 0    50   ~ 0
SEG_A1
Text Label 2250 4400 0    50   ~ 0
SEG_B1
Text Label 2250 4500 0    50   ~ 0
SEG_C1
Text Label 2250 4600 0    50   ~ 0
SEG_D1
Text Label 2250 4700 0    50   ~ 0
SEG_E1
Text Label 2250 4800 0    50   ~ 0
SEG_F1
Text Label 2250 5000 0    50   ~ 0
SEG_DP1
Entry Wire Line
	2600 2200 2700 2300
Entry Wire Line
	2600 2100 2700 2200
Entry Wire Line
	2600 5000 2700 5100
Entry Wire Line
	2600 4900 2700 5000
Entry Wire Line
	2600 4800 2700 4900
Entry Wire Line
	2600 4700 2700 4800
Entry Wire Line
	2600 4600 2700 4700
Entry Wire Line
	2600 4600 2700 4700
Entry Wire Line
	2600 4500 2700 4600
Entry Wire Line
	2600 4400 2700 4500
Entry Wire Line
	2600 4300 2700 4400
Entry Wire Line
	2600 5700 2700 5800
Entry Wire Line
	2600 5600 2700 5700
Entry Wire Line
	2600 5500 2700 5600
Entry Wire Line
	2600 5400 2700 5500
Entry Wire Line
	2600 5300 2700 5400
Entry Wire Line
	2600 5200 2700 5300
Entry Wire Line
	2600 5100 2700 5200
Entry Wire Line
	3200 1700 3100 1800
Entry Wire Line
	3200 1800 3100 1900
Entry Wire Line
	3200 1900 3100 2000
Entry Wire Line
	3200 2000 3100 2100
Entry Wire Line
	3200 2000 3100 2100
Entry Wire Line
	3200 2100 3100 2200
Entry Wire Line
	3200 2400 3100 2500
Entry Wire Line
	3200 2300 3100 2400
Entry Wire Line
	3200 2200 3100 2300
Entry Wire Line
	3200 3050 3100 3150
Entry Wire Line
	3200 3150 3100 3250
Entry Wire Line
	3200 3250 3100 3350
Entry Wire Line
	3200 3350 3100 3450
Entry Wire Line
	3200 3350 3100 3450
Entry Wire Line
	3200 3450 3100 3550
Entry Wire Line
	3200 3750 3100 3850
Entry Wire Line
	3200 3650 3100 3750
Entry Wire Line
	3200 3550 3100 3650
Text Label 5750 2400 0    50   ~ 0
DIG0
Text Label 5750 2300 0    50   ~ 0
DIG1
Text Label 5750 2200 0    50   ~ 0
DIG2
Wire Wire Line
	5750 2400 6050 2400
Entry Wire Line
	6050 2100 6150 2200
Wire Wire Line
	5750 2300 6050 2300
Entry Wire Line
	6050 2200 6150 2300
Wire Wire Line
	5750 2200 6050 2200
Entry Wire Line
	6050 2300 6150 2400
Wire Wire Line
	5750 2100 6050 2100
Entry Wire Line
	6050 2400 6150 2500
$Comp
L power:+3.3V #PWR?
U 1 1 5F026EB4
P 1850 4100
AR Path="/5E28CC93/5EE5284A/5F026EB4" Ref="#PWR?"  Part="1" 
AR Path="/5E5C2F57/5F026EB4" Ref="#PWR043"  Part="1" 
F 0 "#PWR043" H 1850 3950 50  0001 C CNN
F 1 "+3.3V" H 1865 4277 50  0000 C CNN
F 2 "" H 1850 4100 50  0001 C CNN
F 3 "" H 1850 4100 50  0001 C CNN
	1    1850 4100
	1    0    0    -1  
$EndComp
Text Label 5750 6450 0    50   ~ 0
DIG12
Text Label 5750 6350 0    50   ~ 0
DIG13
Text Label 5750 6250 0    50   ~ 0
DIG14
Text Label 5750 6150 0    50   ~ 0
DIG15
Wire Wire Line
	5750 6450 6050 6450
Wire Wire Line
	5750 6350 6050 6350
Wire Wire Line
	5750 6250 6050 6250
Wire Wire Line
	5750 6150 6050 6150
Entry Wire Line
	6050 3750 6150 3850
Entry Wire Line
	6050 6450 6150 6550
Entry Wire Line
	6050 6350 6150 6450
Entry Wire Line
	6050 6250 6150 6350
Entry Wire Line
	6050 6150 6150 6250
Entry Wire Line
	6050 3650 6150 3750
Entry Wire Line
	6050 3550 6150 3650
Entry Wire Line
	6050 3450 6150 3550
$Comp
L Switch:SW_SPST SW?
U 1 1 5F0FF0A4
P 9550 4200
AR Path="/5E28CC93/5EE5284A/5F0FF0A4" Ref="SW?"  Part="1" 
AR Path="/5E5C2F57/5F0FF0A4" Ref="SW2"  Part="1" 
F 0 "SW2" H 9550 4441 50  0000 C CNN
F 1 "SW_SPST" H 9550 4348 50  0000 C CNN
F 2 "Connector_PinHeader_2.54mm:PinHeader_1x03_P2.54mm_Vertical" H 9550 4200 50  0001 C CNN
F 3 "~" H 9550 4200 50  0001 C CNN
	1    9550 4200
	1    0    0    -1  
$EndComp
$Comp
L Display_Character:CC56-12EWA U?
U 1 1 5F1B8968
P 4650 4700
AR Path="/5E28CC93/5EE5284A/5F1B8968" Ref="U?"  Part="1" 
AR Path="/5E5C2F57/5F1B8968" Ref="U10"  Part="1" 
F 0 "U10" H 4650 5370 50  0000 C CNN
F 1 "CC56-12EWA" H 4650 5277 50  0000 C CNN
F 2 "Display_7Segment:CA56-12EWA" H 4650 4100 50  0001 C CNN
F 3 "http://www.kingbrightusa.com/images/catalog/SPEC/CA56-12EWA.pdf" H 4220 4730 50  0001 C CNN
	1    4650 4700
	1    0    0    -1  
$EndComp
Entry Wire Line
	3200 4400 3100 4500
Entry Wire Line
	3200 4500 3100 4600
Entry Wire Line
	3200 4600 3100 4700
Entry Wire Line
	3200 4700 3100 4800
Entry Wire Line
	3200 4700 3100 4800
Entry Wire Line
	3200 4800 3100 4900
Entry Wire Line
	3200 5100 3100 5200
Entry Wire Line
	3200 5000 3100 5100
Entry Wire Line
	3200 4900 3100 5000
$Comp
L power:+3.3V #PWR?
U 1 1 5F1FB35D
P 1850 1400
AR Path="/5E28CC93/5EE5284A/5F1FB35D" Ref="#PWR?"  Part="1" 
AR Path="/5E5C2F57/5F1FB35D" Ref="#PWR042"  Part="1" 
F 0 "#PWR042" H 1850 1250 50  0001 C CNN
F 1 "+3.3V" H 1865 1577 50  0000 C CNN
F 2 "" H 1850 1400 50  0001 C CNN
F 3 "" H 1850 1400 50  0001 C CNN
	1    1850 1400
	1    0    0    -1  
$EndComp
$Comp
L power:GND #PWR?
U 1 1 5F1FBB7E
P 1800 3400
AR Path="/5E28CC93/5EE5284A/5F1FBB7E" Ref="#PWR?"  Part="1" 
AR Path="/5E5C2F57/5F1FBB7E" Ref="#PWR040"  Part="1" 
F 0 "#PWR040" H 1800 3150 50  0001 C CNN
F 1 "GND" H 1805 3223 50  0000 C CNN
F 2 "" H 1800 3400 50  0001 C CNN
F 3 "" H 1800 3400 50  0001 C CNN
	1    1800 3400
	1    0    0    -1  
$EndComp
Wire Wire Line
	1800 3400 1650 3400
Connection ~ 1800 3400
$Comp
L power:GND #PWR?
U 1 1 5F20004B
P 1800 6100
AR Path="/5E28CC93/5EE5284A/5F20004B" Ref="#PWR?"  Part="1" 
AR Path="/5E5C2F57/5F20004B" Ref="#PWR041"  Part="1" 
F 0 "#PWR041" H 1800 5850 50  0001 C CNN
F 1 "GND" H 1805 5923 50  0000 C CNN
F 2 "" H 1800 6100 50  0001 C CNN
F 3 "" H 1800 6100 50  0001 C CNN
	1    1800 6100
	1    0    0    -1  
$EndComp
Wire Wire Line
	1800 6100 1650 6100
Connection ~ 1800 6100
NoConn ~ 2250 5900
Text HLabel 1450 2950 0    50   Input ~ 0
MOSI
Text HLabel 1450 2750 0    50   Input ~ 0
DISPLAY_CS
Text HLabel 1450 2850 0    50   Input ~ 0
SCK
Text HLabel 1450 5450 0    50   Input ~ 0
DISPLAY_CS
Text HLabel 1450 5550 0    50   Input ~ 0
SCK
Wire Wire Line
	2250 3200 2250 3650
Wire Wire Line
	2250 3650 850  3650
Wire Wire Line
	850  3650 850  5650
Wire Wire Line
	850  5650 1450 5650
Text HLabel 9350 4200 0    50   Input ~ 0
ENABLE_SW
$Comp
L power:GND #PWR?
U 1 1 5F2E47A9
P 9800 4250
AR Path="/5E28CC93/5EE5284A/5F2E47A9" Ref="#PWR?"  Part="1" 
AR Path="/5E5C2F57/5F2E47A9" Ref="#PWR045"  Part="1" 
F 0 "#PWR045" H 9800 4000 50  0001 C CNN
F 1 "GND" H 9805 4073 50  0000 C CNN
F 2 "" H 9800 4250 50  0001 C CNN
F 3 "" H 9800 4250 50  0001 C CNN
	1    9800 4250
	1    0    0    -1  
$EndComp
Wire Wire Line
	9750 4200 9800 4200
Wire Wire Line
	9800 4200 9800 4250
$Comp
L Switch:SW_SPST SW?
U 1 1 5F327B01
P 8400 4200
AR Path="/5E28CC93/5EE5284A/5F327B01" Ref="SW?"  Part="1" 
AR Path="/5E5C2F57/5F327B01" Ref="SW1"  Part="1" 
F 0 "SW1" H 8400 4441 50  0000 C CNN
F 1 "SW_SPST" H 8400 4348 50  0000 C CNN
F 2 "Connector_PinHeader_2.54mm:PinHeader_1x03_P2.54mm_Vertical" H 8400 4200 50  0001 C CNN
F 3 "~" H 8400 4200 50  0001 C CNN
	1    8400 4200
	1    0    0    -1  
$EndComp
Text HLabel 8200 4200 0    50   Input ~ 0
LOWPOWERMODE_SW
$Comp
L power:GND #PWR?
U 1 1 5F327B08
P 8650 4250
AR Path="/5E28CC93/5EE5284A/5F327B08" Ref="#PWR?"  Part="1" 
AR Path="/5E5C2F57/5F327B08" Ref="#PWR044"  Part="1" 
F 0 "#PWR044" H 8650 4000 50  0001 C CNN
F 1 "GND" H 8655 4073 50  0000 C CNN
F 2 "" H 8650 4250 50  0001 C CNN
F 3 "" H 8650 4250 50  0001 C CNN
	1    8650 4250
	1    0    0    -1  
$EndComp
Wire Wire Line
	8600 4200 8650 4200
Wire Wire Line
	8650 4200 8650 4250
Entry Wire Line
	6050 4800 6150 4900
Entry Wire Line
	6050 4900 6150 5000
Entry Wire Line
	6050 5000 6150 5100
Entry Wire Line
	6050 5100 6150 5200
$Comp
L Display_Character:CC56-12EWA U?
U 1 1 5F57C110
P 4650 6050
AR Path="/5E28CC93/5EE5284A/5F57C110" Ref="U?"  Part="1" 
AR Path="/5E5C2F57/5F57C110" Ref="U11"  Part="1" 
F 0 "U11" H 4650 6720 50  0000 C CNN
F 1 "CC56-12EWA" H 4650 6627 50  0000 C CNN
F 2 "Display_7Segment:CA56-12EWA" H 4650 5450 50  0001 C CNN
F 3 "http://www.kingbrightusa.com/images/catalog/SPEC/CA56-12EWA.pdf" H 4220 6080 50  0001 C CNN
	1    4650 6050
	1    0    0    -1  
$EndComp
Entry Wire Line
	3200 5750 3100 5850
Entry Wire Line
	3200 5850 3100 5950
Entry Wire Line
	3200 5950 3100 6050
Entry Wire Line
	3200 6050 3100 6150
Entry Wire Line
	3200 6050 3100 6150
Entry Wire Line
	3200 6150 3100 6250
Entry Wire Line
	3200 6450 3100 6550
Entry Wire Line
	3200 6350 3100 6450
Entry Wire Line
	3200 6250 3100 6350
Entry Wire Line
	2600 5800 2700 5900
$Comp
L Device:R R16
U 1 1 5E5E05C0
P 1300 4300
F 0 "R16" V 1200 4300 50  0000 C CNN
F 1 "10K" V 1300 4300 50  0000 C CNN
F 2 "Resistor_SMD:R_1206_3216Metric_Pad1.42x1.75mm_HandSolder" V 1230 4300 50  0001 C CNN
F 3 "~" H 1300 4300 50  0001 C CNN
	1    1300 4300
	0    1    1    0   
$EndComp
$Comp
L power:+3.3V #PWR?
U 1 1 5E5E0642
P 1150 4300
AR Path="/5E28CC93/5EE5284A/5E5E0642" Ref="#PWR?"  Part="1" 
AR Path="/5E5C2F57/5E5E0642" Ref="#PWR0103"  Part="1" 
F 0 "#PWR0103" H 1150 4150 50  0001 C CNN
F 1 "+3.3V" H 1050 4450 50  0000 C CNN
F 2 "" H 1150 4300 50  0001 C CNN
F 3 "" H 1150 4300 50  0001 C CNN
	1    1150 4300
	1    0    0    -1  
$EndComp
$Comp
L Device:R R15
U 1 1 5E5E4697
P 1300 1600
F 0 "R15" V 1200 1600 50  0000 C CNN
F 1 "10K" V 1300 1600 50  0000 C CNN
F 2 "Resistor_SMD:R_1206_3216Metric_Pad1.42x1.75mm_HandSolder" V 1230 1600 50  0001 C CNN
F 3 "~" H 1300 1600 50  0001 C CNN
	1    1300 1600
	0    1    1    0   
$EndComp
$Comp
L power:+3.3V #PWR?
U 1 1 5E5E469D
P 1150 1600
AR Path="/5E28CC93/5EE5284A/5E5E469D" Ref="#PWR?"  Part="1" 
AR Path="/5E5C2F57/5E5E469D" Ref="#PWR0104"  Part="1" 
F 0 "#PWR0104" H 1150 1450 50  0001 C CNN
F 1 "+3.3V" H 1050 1750 50  0000 C CNN
F 2 "" H 1150 1600 50  0001 C CNN
F 3 "" H 1150 1600 50  0001 C CNN
	1    1150 1600
	1    0    0    -1  
$EndComp
Text Label 5750 2100 0    50   ~ 0
DIG3
Wire Wire Line
	5750 3450 6050 3450
Wire Wire Line
	5750 3550 6050 3550
Wire Wire Line
	5750 3650 6050 3650
Wire Wire Line
	5750 3750 6050 3750
Text Label 5750 3750 0    50   ~ 0
DIG4
Text Label 5750 3450 0    50   ~ 0
DIG7
Text Label 5750 3550 0    50   ~ 0
DIG6
Text Label 5750 3650 0    50   ~ 0
DIG5
Wire Wire Line
	5750 4800 6050 4800
Wire Wire Line
	5750 4900 6050 4900
Wire Wire Line
	5750 5000 6050 5000
Wire Wire Line
	5750 5100 6050 5100
Text Label 5750 4800 0    50   ~ 0
DIG11
Text Label 5750 4900 0    50   ~ 0
DIG10
Text Label 5750 5000 0    50   ~ 0
DIG9
Text Label 5750 5100 0    50   ~ 0
DIG8
Text Label 2250 4900 0    50   ~ 0
SEG_G1
Text Label 3200 5750 0    50   ~ 0
SEG_A1
Text Label 3200 5850 0    50   ~ 0
SEG_B1
Text Label 3200 5950 0    50   ~ 0
SEG_C1
Text Label 3200 6050 0    50   ~ 0
SEG_D1
Text Label 3200 6150 0    50   ~ 0
SEG_E1
Text Label 3200 6250 0    50   ~ 0
SEG_F1
Text Label 3200 6450 0    50   ~ 0
SEG_DP1
Wire Wire Line
	3200 6350 3550 6350
Wire Wire Line
	3200 6450 3550 6450
Text Label 3200 6350 0    50   ~ 0
SEG_G1
Text Label 3200 3750 0    50   ~ 0
SEG_DP0
Text Label 3200 3650 0    50   ~ 0
SEG_G0
Text Label 3200 3550 0    50   ~ 0
SEG_F0
Text Label 3200 3450 0    50   ~ 0
SEG_E0
Text Label 3200 3350 0    50   ~ 0
SEG_D0
Text Label 3200 3250 0    50   ~ 0
SEG_C0
Text Label 3200 3150 0    50   ~ 0
SEG_B0
Text Label 3200 3050 0    50   ~ 0
SEG_A0
Text Label 2250 2200 0    50   ~ 0
SEG_G0
Text Label 2250 2100 0    50   ~ 0
SEG_F0
Text Label 2250 2000 0    50   ~ 0
SEG_E0
Text Label 2250 1900 0    50   ~ 0
SEG_D0
Text Label 2250 1800 0    50   ~ 0
SEG_C0
Text Label 2250 1700 0    50   ~ 0
SEG_B0
Text Label 2250 1600 0    50   ~ 0
SEG_A0
Wire Bus Line
	2700 6700 6150 6700
Wire Wire Line
	3200 5750 3550 5750
Wire Wire Line
	3200 5850 3550 5850
Wire Wire Line
	3200 5950 3550 5950
Wire Wire Line
	3200 6050 3550 6050
Wire Wire Line
	3200 6150 3550 6150
Wire Wire Line
	3200 6250 3550 6250
Text Label 2250 2300 0    50   ~ 0
SEG_DP0
Wire Wire Line
	2600 1600 2250 1600
Wire Wire Line
	2600 1700 2250 1700
Wire Wire Line
	2600 1800 2250 1800
Wire Wire Line
	2600 1900 2250 1900
Wire Wire Line
	2600 2000 2250 2000
Wire Wire Line
	2600 2100 2250 2100
Wire Wire Line
	2600 2200 2250 2200
Wire Wire Line
	2600 2300 2250 2300
Wire Wire Line
	2600 2400 2250 2400
Wire Wire Line
	2600 2500 2250 2500
Wire Wire Line
	2600 2600 2250 2600
Wire Wire Line
	2600 2700 2250 2700
Wire Wire Line
	2600 2800 2250 2800
Wire Wire Line
	2600 2900 2250 2900
Wire Wire Line
	2600 3000 2250 3000
Wire Wire Line
	2600 3100 2250 3100
Wire Wire Line
	2600 4300 2250 4300
Wire Wire Line
	2600 4400 2250 4400
Wire Wire Line
	2600 4500 2250 4500
Wire Wire Line
	2600 4600 2250 4600
Wire Wire Line
	2600 4700 2250 4700
Wire Wire Line
	2600 4800 2250 4800
Wire Wire Line
	2600 4900 2250 4900
Wire Wire Line
	2600 5000 2250 5000
Wire Wire Line
	2600 5100 2250 5100
Wire Wire Line
	2600 5200 2250 5200
Wire Wire Line
	2600 5300 2250 5300
Wire Wire Line
	2600 5400 2250 5400
Wire Wire Line
	2600 5500 2250 5500
Wire Wire Line
	2600 5600 2250 5600
Wire Wire Line
	2600 5700 2250 5700
Wire Wire Line
	2600 5800 2250 5800
Text Label 3200 4400 0    50   ~ 0
SEG_A1
Text Label 3200 4500 0    50   ~ 0
SEG_B1
Text Label 3200 4600 0    50   ~ 0
SEG_C1
Text Label 3200 4700 0    50   ~ 0
SEG_D1
Text Label 3200 4800 0    50   ~ 0
SEG_E1
Text Label 3200 4900 0    50   ~ 0
SEG_F1
Text Label 3200 5100 0    50   ~ 0
SEG_DP1
Wire Wire Line
	3200 5000 3550 5000
Wire Wire Line
	3200 5100 3550 5100
Text Label 3200 5000 0    50   ~ 0
SEG_G1
Wire Wire Line
	3200 4400 3550 4400
Wire Wire Line
	3200 4500 3550 4500
Wire Wire Line
	3200 4600 3550 4600
Wire Wire Line
	3200 4700 3550 4700
Wire Wire Line
	3200 4800 3550 4800
Wire Wire Line
	3200 4900 3550 4900
Wire Wire Line
	3200 3050 3550 3050
Wire Wire Line
	3200 3150 3550 3150
Wire Wire Line
	3200 3250 3550 3250
Wire Wire Line
	3200 3350 3550 3350
Wire Wire Line
	3200 3450 3550 3450
Wire Wire Line
	3200 3550 3550 3550
Wire Wire Line
	3200 3650 3550 3650
Wire Wire Line
	3200 3750 3550 3750
Text Label 3200 2400 0    50   ~ 0
SEG_DP0
Text Label 3200 2300 0    50   ~ 0
SEG_G0
Text Label 3200 2200 0    50   ~ 0
SEG_F0
Text Label 3200 2100 0    50   ~ 0
SEG_E0
Text Label 3200 2000 0    50   ~ 0
SEG_D0
Text Label 3200 1900 0    50   ~ 0
SEG_C0
Text Label 3200 1800 0    50   ~ 0
SEG_B0
Text Label 3200 1700 0    50   ~ 0
SEG_A0
Wire Wire Line
	3200 1700 3550 1700
Wire Wire Line
	3200 1800 3550 1800
Wire Wire Line
	3200 1900 3550 1900
Wire Wire Line
	3200 2000 3550 2000
Wire Wire Line
	3200 2100 3550 2100
Wire Wire Line
	3200 2200 3550 2200
Wire Wire Line
	3200 2300 3550 2300
Wire Wire Line
	3200 2400 3550 2400
Wire Bus Line
	6150 2200 6150 6700
Wire Bus Line
	2700 1700 2700 6700
Wire Bus Line
	3100 1800 3100 6550
$EndSCHEMATC
